T' = 23.8°C

Required sampling frequency: 6250.00Hz
Actual sampling frequency: 6250.00Hz

Measurement #0
Slowest ISR took 123us (maximum sampling frequency: 8130Hz)
N = [ 607.5 606.5 607.5 607.5 607.5 607.5 607.5 607.5 607.5 607.5 607.5 606.5 608.5 607.5 607.5 608.5 608.5 606.5 606.5 607.5 608.5 607.5 608.5 606.5 607.5 608.5 607.5 607.5 607.5 607.5 607.5 607.5 608.5 608.5 607.5 607.5 607.5 608.5 607.5 606.5 607.5 607.5 607.5 607.5 606.5 607.5 606.5 607.5 607.5 607.5 607.5 607.5 607.5 607.5 608.5 607.5 606.5 607.5 607.5 608.5 607.5 607.5 606.5 607.5 606.5 606.5 607.5 606.5 607.5 607.5 607.5 606.5 607.5 606.5 607.5 607.5 607.5 604.5 607.5 606.5 606.5 607.5 606.5 606.5 606.5 606.5 605.5 606.5 606.5 606.5 607.5 605.5 606.5 607.5 606.5 606.5 606.5 607.5 606.5 607.5 606.5 606.5 607.5 606.5 607.5 606.5 606.5 607.5 606.5 607.5 606.5 607.5 607.5 606.5 607.5 606.5 607.5 606.5 606.5 607.5 606.5 607.5 606.5 606.5 607.5 605.5 607.5 606.5 607.5 607.5 608.5 606.5 606.5 606.5 606.5 607.5 607.5 606.5 606.5 606.5 606.5 608.5 606.5 606.5 605.5 606.5 606.5 606.5 606.5 607.5 606.5 606.5 606.5 607.5 607.5 607.5 606.5 607.5 606.5 606.5 606.5 606.5 606.5 606.5 606.5 607.5 606.5 605.5 606.5 606.5 606.5 607.5 606.5 607.5 606.5 606.5 606.5 606.5 607.5 606.5 607.5 606.5 607.5 605.5 606.5 608.5 607.5 607.5 607.5 607.5 606.5 606.5 607.5 605.5 607.5 606.5 606.5 606.5 605.5 605.5 606.5 605.5 607.5 607.5 605.5 606.5 607.5 606.5 606.5 607.5 606.5 606.5 607.5 606.5 607.5 606.5 607.5 606.5 607.5 606.5 606.5 605.5 607.5 607.5 606.5 607.5 606.5 606.5 608.5 607.5 607.5 607.5 606.5 607.5 607.5 607.5 607.5 607.5 607.5 607.5 607.5 607.5 606.5 606.5 606.5 607.5 606.5 606.5 607.5 606.5 606.5 605.5 606.5 606.5 606.5 606.5 606.5 607.5 607.5 606.5 606.5 606.5 605.5 606.5 606.5 607.5 605.5 606.5 606.5 605.5 607.5 606.5 607.5 606.5 607.5 606.5 606.5 606.5 605.5 607.5 607.5 607.5 606.5 606.5 607.5 606.5 607.5 605.5 607.5 608.5 606.5 606.5 605.5 606.5 606.5 606.5 606.5 606.5 606.5 606.5 605.5 606.5 605.5 607.5 606.5 607.5 607.5 606.5 607.5 607.5 606.5 607.5 606.5 606.5 606.5 606.5 606.5 607.5 607.5 606.5 606.5 606.5 606.5 608.5 606.5 607.5 605.5 606.5 606.5 606.5 606.5 606.5 606.5 606.5 607.5 607.5 606.5 607.5 606.5 607.5 607.5 606.5 607.5 607.5 606.5 606.5 607.5 607.5 606.5 607.5 606.5 607.5 606.5 605.5 607.5 607.5 607.5 606.5 606.5 607.5 606.5 607.5 606.5 606.5 606.5 606.5 606.5 607.5 607.5 606.5 607.5 606.5 607.5 606.5 606.5 606.5 607.5 607.5 607.5 607.5 606.5 606.5 606.5 607.5 606.5 607.5 606.5 606.5 606.5 606.5 606.5 606.5 606.5 607.5 604.5 606.5 607.5 606.5 607.5 606.5 606.5 606.5 607.5 606.5 606.5 607.5 607.5 606.5 606.5 606.5 608.5 607.5 607.5 606.5 606.5 608.5 605.5 607.5 607.5 607.5 607.5 606.5 606.5 606.5 606.5 606.5 606.5 607.5 606.5 606.5 607.5 606.5 607.5 607.5 607.5 607.5 606.5 606.5 606.5 607.5 606.5 605.5 606.5 606.5 607.5 607.5 607.5 606.5 606.5 607.5 606.5 606.5 606.5 607.5 607.5 607.5 606.5 606.5 607.5 607.5 606.5 606.5 607.5 606.5 607.5 607.5 606.5 606.5 606.5 607.5 607.5 607.5 607.5 607.5 607.5 608.5 606.5 607.5 606.5 607.5 607.5 607.5 607.5 606.5 606.5 606.5 606.5 607.5 607.5 606.5 607.5 606.5 606.5 607.5 606.5 607.5 607.5 607.5 606.5 606.5 ] +- 0.29
T = (23.2 +- 17.1) °C = 23.2 °C +- 73.8%

Measurement #1
Slowest ISR took 123us (maximum sampling frequency: 8130Hz)
N = [ 607.5 606.5 606.5 607.5 607.5 607.5 606.5 607.5 606.5 607.5 607.5 607.5 607.5 605.5 606.5 608.5 608.5 608.5 607.5 607.5 608.5 606.5 608.5 607.5 607.5 607.5 607.5 607.5 607.5 607.5 607.5 607.5 608.5 607.5 607.5 607.5 607.5 607.5 607.5 607.5 607.5 607.5 606.5 607.5 607.5 607.5 608.5 607.5 607.5 608.5 607.5 606.5 607.5 607.5 608.5 607.5 607.5 607.5 606.5 606.5 606.5 606.5 607.5 606.5 606.5 606.5 606.5 605.5 607.5 607.5 606.5 607.5 607.5 607.5 607.5 607.5 608.5 607.5 606.5 605.5 607.5 607.5 606.5 606.5 607.5 607.5 607.5 606.5 606.5 607.5 606.5 606.5 607.5 607.5 606.5 606.5 607.5 606.5 606.5 607.5 605.5 607.5 606.5 606.5 606.5 607.5 606.5 607.5 607.5 607.5 606.5 606.5 607.5 607.5 607.5 607.5 607.5 606.5 606.5 606.5 605.5 607.5 606.5 607.5 607.5 608.5 608.5 607.5 607.5 607.5 607.5 607.5 606.5 606.5 606.5 605.5 607.5 606.5 606.5 605.5 605.5 607.5 607.5 607.5 606.5 607.5 607.5 606.5 606.5 606.5 606.5 606.5 607.5 607.5 607.5 606.5 606.5 606.5 608.5 607.5 606.5 606.5 605.5 606.5 606.5 606.5 607.5 606.5 606.5 607.5 607.5 606.5 606.5 607.5 606.5 607.5 606.5 606.5 607.5 607.5 607.5 605.5 605.5 606.5 607.5 607.5 606.5 606.5 607.5 606.5 606.5 607.5 607.5 606.5 606.5 604.5 605.5 608.5 606.5 606.5 607.5 607.5 607.5 607.5 607.5 607.5 607.5 606.5 606.5 606.5 606.5 606.5 607.5 607.5 607.5 607.5 606.5 606.5 607.5 606.5 607.5 607.5 606.5 606.5 606.5 607.5 606.5 605.5 606.5 606.5 606.5 607.5 606.5 606.5 607.5 606.5 607.5 606.5 606.5 606.5 607.5 606.5 605.5 606.5 607.5 607.5 607.5 607.5 608.5 607.5 607.5 606.5 608.5 607.5 607.5 606.5 606.5 607.5 605.5 607.5 606.5 606.5 606.5 606.5 606.5 605.5 607.5 607.5 606.5 606.5 606.5 606.5 607.5 607.5 606.5 606.5 606.5 606.5 607.5 607.5 607.5 606.5 606.5 605.5 607.5 606.5 606.5 606.5 605.5 607.5 606.5 606.5 607.5 607.5 606.5 607.5 607.5 607.5 607.5 606.5 607.5 607.5 607.5 608.5 606.5 607.5 608.5 606.5 606.5 606.5 606.5 606.5 607.5 607.5 607.5 606.5 605.5 605.5 607.5 607.5 606.5 606.5 606.5 608.5 607.5 607.5 606.5 606.5 607.5 607.5 606.5 607.5 606.5 607.5 607.5 606.5 606.5 607.5 606.5 607.5 607.5 606.5 606.5 606.5 606.5 607.5 606.5 606.5 606.5 606.5 606.5 606.5 605.5 605.5 606.5 606.5 606.5 606.5 605.5 606.5 606.5 606.5 607.5 607.5 606.5 607.5 608.5 606.5 606.5 606.5 605.5 607.5 606.5 607.5 607.5 607.5 608.5 606.5 607.5 607.5 607.5 607.5 606.5 606.5 606.5 607.5 607.5 605.5 606.5 605.5 605.5 605.5 607.5 607.5 606.5 607.5 606.5 606.5 606.5 607.5 606.5 607.5 607.5 606.5 606.5 607.5 606.5 607.5 606.5 606.5 606.5 607.5 606.5 607.5 606.5 607.5 606.5 605.5 606.5 606.5 606.5 606.5 607.5 606.5 607.5 607.5 607.5 607.5 607.5 606.5 606.5 606.5 607.5 606.5 607.5 606.5 606.5 606.5 605.5 606.5 606.5 607.5 606.5 606.5 606.5 605.5 606.5 606.5 607.5 607.5 606.5 606.5 607.5 606.5 608.5 606.5 605.5 605.5 607.5 606.5 607.5 607.5 607.5 606.5 606.5 606.5 606.5 607.5 607.5 606.5 606.5 608.5 606.5 605.5 606.5 606.5 606.5 606.5 606.5 606.5 606.5 606.5 606.5 607.5 606.5 606.5 606.5 607.5 607.5 606.5 607.5 607.5 607.5 606.5 606.5 606.5 606.5 608.5 606.5 607.5 ] +- 0.29
T = (23.2 +- 17.1) °C = 23.2 °C +- 73.8%

Measurement #2
Slowest ISR took 123us (maximum sampling frequency: 8130Hz)
N = [ 606.5 605.5 606.5 606.5 606.5 607.5 606.5 606.5 607.5 606.5 607.5 606.5 606.5 607.5 607.5 607.5 607.5 606.5 607.5 607.5 607.5 608.5 607.5 608.5 607.5 607.5 607.5 607.5 607.5 607.5 608.5 607.5 608.5 607.5 607.5 608.5 607.5 608.5 608.5 608.5 608.5 607.5 607.5 608.5 608.5 607.5 607.5 607.5 607.5 606.5 607.5 608.5 608.5 608.5 607.5 608.5 607.5 609.5 608.5 607.5 608.5 608.5 609.5 608.5 607.5 606.5 606.5 607.5 606.5 606.5 607.5 607.5 606.5 607.5 607.5 606.5 607.5 606.5 606.5 607.5 606.5 607.5 607.5 607.5 606.5 606.5 607.5 606.5 606.5 606.5 607.5 606.5 607.5 607.5 606.5 607.5 607.5 607.5 608.5 607.5 606.5 608.5 606.5 606.5 607.5 607.5 607.5 607.5 606.5 606.5 606.5 606.5 606.5 607.5 606.5 607.5 607.5 608.5 608.5 606.5 606.5 606.5 607.5 607.5 607.5 606.5 605.5 607.5 606.5 606.5 606.5 606.5 605.5 606.5 607.5 607.5 607.5 606.5 606.5 607.5 606.5 607.5 607.5 606.5 607.5 606.5 607.5 606.5 606.5 607.5 606.5 607.5 607.5 606.5 606.5 606.5 607.5 608.5 606.5 606.5 606.5 607.5 607.5 607.5 606.5 607.5 608.5 607.5 607.5 606.5 606.5 606.5 606.5 607.5 606.5 607.5 607.5 607.5 607.5 606.5 607.5 606.5 607.5 607.5 608.5 608.5 606.5 606.5 608.5 606.5 607.5 607.5 607.5 606.5 607.5 606.5 606.5 606.5 605.5 606.5 607.5 607.5 606.5 606.5 606.5 608.5 606.5 607.5 606.5 606.5 607.5 607.5 606.5 607.5 607.5 607.5 607.5 607.5 607.5 607.5 607.5 607.5 608.5 607.5 607.5 607.5 607.5 607.5 607.5 607.5 606.5 607.5 606.5 606.5 607.5 607.5 607.5 606.5 606.5 607.5 607.5 605.5 606.5 606.5 608.5 608.5 607.5 607.5 606.5 607.5 606.5 607.5 606.5 605.5 606.5 606.5 606.5 606.5 606.5 606.5 605.5 607.5 607.5 606.5 607.5 607.5 605.5 606.5 606.5 606.5 608.5 607.5 607.5 607.5 607.5 606.5 606.5 606.5 606.5 606.5 606.5 606.5 607.5 606.5 606.5 607.5 606.5 607.5 607.5 606.5 606.5 606.5 606.5 606.5 607.5 607.5 606.5 607.5 606.5 606.5 607.5 606.5 606.5 607.5 606.5 608.5 608.5 607.5 607.5 607.5 607.5 607.5 607.5 607.5 607.5 607.5 607.5 606.5 606.5 606.5 607.5 607.5 607.5 605.5 607.5 608.5 606.5 606.5 605.5 606.5 607.5 608.5 606.5 606.5 607.5 606.5 607.5 607.5 606.5 606.5 607.5 606.5 606.5 607.5 606.5 607.5 606.5 607.5 607.5 606.5 606.5 606.5 606.5 608.5 606.5 606.5 607.5 607.5 606.5 606.5 605.5 606.5 606.5 606.5 606.5 608.5 608.5 607.5 607.5 606.5 608.5 608.5 606.5 608.5 607.5 607.5 607.5 607.5 606.5 606.5 607.5 605.5 607.5 606.5 608.5 607.5 606.5 607.5 606.5 607.5 606.5 606.5 606.5 607.5 606.5 606.5 606.5 606.5 607.5 606.5 607.5 607.5 607.5 606.5 607.5 607.5 607.5 607.5 607.5 607.5 607.5 607.5 606.5 606.5 607.5 606.5 607.5 606.5 607.5 605.5 606.5 605.5 606.5 607.5 606.5 607.5 607.5 607.5 607.5 606.5 607.5 607.5 606.5 607.5 607.5 608.5 607.5 606.5 607.5 606.5 608.5 607.5 607.5 606.5 607.5 606.5 607.5 606.5 606.5 607.5 606.5 607.5 607.5 606.5 606.5 606.5 607.5 607.5 607.5 607.5 607.5 607.5 607.5 606.5 607.5 607.5 607.5 607.5 607.5 607.5 607.5 606.5 607.5 607.5 608.5 607.5 607.5 607.5 607.5 606.5 607.5 606.5 607.5 606.5 606.5 606.5 606.5 607.5 607.5 607.5 606.5 607.5 606.5 607.5 607.5 606.5 607.5 606.5 606.5 607.5 ] +- 0.29
T = (23.3 +- 17.1) °C = 23.3 °C +- 73.5%

Measurement #3
Slowest ISR took 123us (maximum sampling frequency: 8130Hz)
N = [ 607.5 608.5 607.5 609.5 607.5 607.5 607.5 607.5 608.5 607.5 607.5 608.5 607.5 607.5 607.5 609.5 606.5 607.5 607.5 607.5 609.5 607.5 608.5 608.5 607.5 606.5 607.5 606.5 607.5 608.5 606.5 607.5 607.5 607.5 608.5 607.5 607.5 608.5 607.5 607.5 607.5 608.5 607.5 608.5 607.5 607.5 609.5 607.5 607.5 607.5 607.5 608.5 608.5 607.5 607.5 607.5 607.5 606.5 607.5 607.5 606.5 607.5 606.5 608.5 607.5 608.5 606.5 607.5 608.5 607.5 607.5 607.5 606.5 606.5 607.5 607.5 607.5 606.5 607.5 606.5 607.5 606.5 606.5 606.5 606.5 607.5 606.5 606.5 607.5 606.5 607.5 606.5 607.5 607.5 606.5 607.5 606.5 607.5 606.5 607.5 606.5 607.5 608.5 607.5 606.5 606.5 605.5 607.5 605.5 607.5 607.5 607.5 606.5 607.5 606.5 606.5 606.5 606.5 607.5 607.5 607.5 607.5 607.5 608.5 608.5 607.5 605.5 606.5 606.5 607.5 607.5 607.5 606.5 607.5 606.5 607.5 607.5 606.5 607.5 606.5 606.5 608.5 606.5 607.5 606.5 607.5 606.5 606.5 606.5 606.5 607.5 606.5 607.5 607.5 606.5 607.5 607.5 607.5 606.5 607.5 607.5 607.5 607.5 607.5 606.5 606.5 607.5 607.5 606.5 606.5 606.5 607.5 608.5 607.5 607.5 606.5 606.5 607.5 606.5 607.5 606.5 605.5 606.5 606.5 607.5 607.5 607.5 606.5 606.5 608.5 606.5 607.5 606.5 606.5 607.5 605.5 606.5 607.5 606.5 606.5 606.5 606.5 606.5 607.5 606.5 607.5 607.5 606.5 605.5 606.5 606.5 607.5 605.5 606.5 606.5 607.5 606.5 607.5 607.5 606.5 607.5 607.5 607.5 608.5 607.5 606.5 606.5 607.5 608.5 606.5 607.5 607.5 606.5 606.5 606.5 605.5 606.5 607.5 606.5 606.5 607.5 606.5 605.5 605.5 606.5 608.5 606.5 606.5 606.5 606.5 607.5 607.5 607.5 606.5 607.5 607.5 607.5 607.5 607.5 607.5 606.5 606.5 607.5 607.5 607.5 607.5 607.5 608.5 606.5 607.5 605.5 606.5 608.5 606.5 607.5 606.5 606.5 606.5 607.5 606.5 607.5 607.5 607.5 607.5 607.5 607.5 607.5 606.5 607.5 607.5 607.5 606.5 606.5 607.5 606.5 606.5 606.5 606.5 608.5 606.5 607.5 607.5 607.5 607.5 607.5 605.5 607.5 607.5 606.5 605.5 607.5 607.5 607.5 606.5 604.5 608.5 606.5 607.5 607.5 606.5 607.5 606.5 606.5 606.5 607.5 607.5 606.5 606.5 605.5 605.5 606.5 606.5 607.5 607.5 607.5 606.5 607.5 606.5 606.5 607.5 607.5 606.5 607.5 607.5 607.5 607.5 606.5 606.5 607.5 607.5 607.5 607.5 607.5 606.5 606.5 606.5 606.5 606.5 607.5 607.5 607.5 606.5 605.5 606.5 607.5 607.5 607.5 607.5 606.5 606.5 605.5 607.5 607.5 607.5 607.5 606.5 608.5 607.5 608.5 607.5 606.5 606.5 606.5 607.5 607.5 607.5 606.5 606.5 607.5 606.5 607.5 606.5 606.5 608.5 607.5 607.5 606.5 607.5 607.5 605.5 606.5 607.5 606.5 607.5 606.5 605.5 606.5 607.5 607.5 607.5 607.5 607.5 607.5 606.5 606.5 605.5 606.5 605.5 607.5 607.5 607.5 607.5 608.5 608.5 608.5 607.5 606.5 607.5 607.5 607.5 606.5 607.5 606.5 606.5 606.5 606.5 606.5 606.5 606.5 607.5 607.5 607.5 607.5 606.5 606.5 606.5 607.5 607.5 606.5 606.5 607.5 606.5 605.5 607.5 606.5 606.5 607.5 606.5 607.5 607.5 606.5 607.5 607.5 608.5 607.5 607.5 607.5 607.5 607.5 606.5 606.5 606.5 607.5 606.5 606.5 606.5 607.5 606.5 606.5 606.5 607.5 606.5 607.5 607.5 607.5 607.5 606.5 607.5 606.5 607.5 606.5 607.5 607.5 606.5 607.5 606.5 605.5 608.5 606.5 606.5 ] +- 0.29
T = (23.3 +- 17.1) °C = 23.3 °C +- 73.5%

Measurement #4
Slowest ISR took 123us (maximum sampling frequency: 8130Hz)
N = [ 607.5 607.5 607.5 607.5 608.5 608.5 607.5 607.5 607.5 607.5 607.5 608.5 607.5 607.5 608.5 607.5 607.5 607.5 606.5 608.5 606.5 607.5 606.5 606.5 608.5 607.5 608.5 607.5 607.5 607.5 607.5 608.5 608.5 608.5 607.5 607.5 607.5 607.5 607.5 607.5 606.5 607.5 606.5 607.5 607.5 607.5 607.5 608.5 607.5 606.5 607.5 607.5 606.5 608.5 606.5 606.5 605.5 606.5 607.5 606.5 606.5 606.5 606.5 607.5 607.5 607.5 607.5 607.5 606.5 607.5 606.5 607.5 607.5 606.5 607.5 606.5 607.5 606.5 607.5 607.5 607.5 607.5 606.5 606.5 608.5 606.5 607.5 607.5 607.5 607.5 606.5 607.5 607.5 606.5 606.5 607.5 607.5 607.5 606.5 606.5 607.5 607.5 607.5 606.5 607.5 607.5 608.5 607.5 607.5 607.5 606.5 606.5 607.5 606.5 607.5 606.5 606.5 605.5 607.5 606.5 607.5 607.5 605.5 607.5 605.5 607.5 606.5 606.5 607.5 606.5 606.5 607.5 607.5 607.5 606.5 606.5 606.5 606.5 606.5 607.5 607.5 606.5 606.5 607.5 607.5 607.5 605.5 607.5 607.5 606.5 607.5 607.5 607.5 607.5 607.5 607.5 607.5 607.5 607.5 606.5 606.5 606.5 606.5 605.5 606.5 606.5 606.5 608.5 606.5 606.5 607.5 606.5 607.5 607.5 606.5 606.5 606.5 606.5 606.5 606.5 607.5 607.5 606.5 606.5 607.5 605.5 608.5 606.5 606.5 606.5 606.5 606.5 606.5 607.5 607.5 607.5 607.5 606.5 607.5 606.5 607.5 606.5 607.5 607.5 607.5 607.5 607.5 607.5 607.5 607.5 607.5 607.5 607.5 606.5 607.5 606.5 606.5 606.5 607.5 606.5 607.5 606.5 606.5 606.5 607.5 606.5 607.5 608.5 607.5 607.5 606.5 607.5 606.5 606.5 607.5 607.5 607.5 608.5 606.5 607.5 607.5 607.5 606.5 606.5 606.5 606.5 606.5 607.5 608.5 607.5 607.5 607.5 606.5 607.5 607.5 606.5 607.5 606.5 606.5 607.5 606.5 607.5 606.5 607.5 606.5 606.5 608.5 607.5 607.5 607.5 607.5 607.5 607.5 607.5 605.5 606.5 607.5 607.5 607.5 607.5 607.5 606.5 606.5 607.5 606.5 606.5 606.5 607.5 607.5 607.5 607.5 607.5 607.5 606.5 607.5 607.5 607.5 607.5 606.5 607.5 606.5 607.5 606.5 607.5 607.5 606.5 606.5 607.5 606.5 605.5 607.5 606.5 605.5 606.5 606.5 607.5 606.5 606.5 606.5 606.5 606.5 606.5 606.5 607.5 607.5 607.5 606.5 607.5 607.5 606.5 606.5 607.5 606.5 606.5 606.5 606.5 607.5 606.5 606.5 606.5 607.5 607.5 606.5 606.5 606.5 605.5 607.5 607.5 607.5 608.5 607.5 606.5 607.5 607.5 606.5 606.5 606.5 607.5 608.5 607.5 607.5 607.5 606.5 607.5 608.5 607.5 607.5 606.5 606.5 606.5 608.5 605.5 606.5 606.5 607.5 607.5 607.5 607.5 606.5 607.5 607.5 607.5 606.5 606.5 607.5 607.5 607.5 606.5 607.5 606.5 606.5 607.5 607.5 607.5 606.5 606.5 607.5 608.5 607.5 607.5 606.5 607.5 607.5 606.5 606.5 607.5 607.5 607.5 606.5 607.5 606.5 606.5 606.5 606.5 607.5 607.5 608.5 607.5 607.5 607.5 606.5 607.5 606.5 606.5 608.5 606.5 607.5 606.5 605.5 607.5 606.5 607.5 606.5 606.5 607.5 606.5 608.5 607.5 607.5 606.5 606.5 607.5 606.5 606.5 607.5 606.5 606.5 606.5 607.5 606.5 607.5 607.5 606.5 607.5 606.5 605.5 607.5 606.5 606.5 606.5 606.5 606.5 607.5 606.5 607.5 606.5 606.5 607.5 607.5 607.5 606.5 606.5 607.5 607.5 607.5 607.5 607.5 607.5 606.5 607.5 606.5 606.5 606.5 607.5 607.5 607.5 607.5 607.5 606.5 607.5 607.5 607.5 606.5 606.5 606.5 606.5 608.5 607.5 607.5 606.5 ] +- 0.29
T = (23.3 +- 17.1) °C = 23.3 °C +- 73.5%

Measurement #5
Slowest ISR took 123us (maximum sampling frequency: 8130Hz)
N = [ 606.5 607.5 607.5 606.5 606.5 606.5 607.5 607.5 607.5 607.5 607.5 607.5 607.5 608.5 607.5 607.5 607.5 607.5 607.5 607.5 607.5 607.5 607.5 606.5 608.5 607.5 607.5 606.5 607.5 607.5 607.5 609.5 608.5 607.5 607.5 607.5 608.5 607.5 607.5 607.5 607.5 607.5 607.5 607.5 606.5 607.5 606.5 608.5 607.5 607.5 607.5 606.5 607.5 606.5 608.5 607.5 607.5 607.5 608.5 607.5 608.5 607.5 608.5 606.5 607.5 606.5 607.5 607.5 607.5 607.5 607.5 606.5 606.5 607.5 607.5 606.5 607.5 606.5 606.5 606.5 606.5 606.5 606.5 607.5 608.5 607.5 606.5 606.5 605.5 608.5 607.5 607.5 607.5 606.5 607.5 607.5 607.5 605.5 606.5 605.5 606.5 607.5 608.5 606.5 607.5 605.5 606.5 606.5 607.5 606.5 606.5 606.5 607.5 607.5 608.5 607.5 606.5 605.5 607.5 607.5 607.5 607.5 607.5 607.5 607.5 607.5 607.5 607.5 607.5 606.5 607.5 607.5 606.5 606.5 607.5 607.5 607.5 606.5 606.5 605.5 608.5 606.5 607.5 606.5 606.5 607.5 606.5 606.5 606.5 607.5 607.5 606.5 606.5 607.5 608.5 606.5 606.5 607.5 607.5 606.5 607.5 607.5 606.5 607.5 607.5 607.5 607.5 606.5 606.5 606.5 607.5 606.5 605.5 605.5 606.5 607.5 608.5 606.5 606.5 607.5 606.5 607.5 606.5 607.5 605.5 605.5 606.5 606.5 608.5 607.5 606.5 606.5 606.5 607.5 606.5 607.5 607.5 607.5 607.5 605.5 607.5 606.5 606.5 607.5 607.5 607.5 607.5 607.5 606.5 607.5 607.5 607.5 607.5 607.5 607.5 607.5 607.5 606.5 607.5 606.5 606.5 606.5 607.5 607.5 607.5 606.5 605.5 608.5 607.5 607.5 606.5 606.5 606.5 606.5 606.5 606.5 606.5 607.5 607.5 606.5 607.5 607.5 607.5 607.5 607.5 606.5 607.5 606.5 606.5 608.5 607.5 607.5 607.5 607.5 607.5 606.5 607.5 607.5 607.5 607.5 606.5 606.5 606.5 606.5 606.5 606.5 607.5 606.5 606.5 606.5 606.5 607.5 607.5 607.5 607.5 607.5 607.5 607.5 606.5 607.5 606.5 607.5 606.5 607.5 606.5 606.5 606.5 605.5 606.5 607.5 606.5 607.5 607.5 607.5 607.5 606.5 606.5 606.5 607.5 607.5 605.5 605.5 607.5 605.5 607.5 606.5 606.5 606.5 606.5 607.5 606.5 607.5 605.5 606.5 607.5 606.5 607.5 606.5 606.5 608.5 606.5 607.5 606.5 607.5 607.5 607.5 607.5 607.5 607.5 607.5 606.5 607.5 607.5 607.5 607.5 607.5 608.5 607.5 607.5 606.5 606.5 606.5 607.5 606.5 606.5 607.5 607.5 606.5 607.5 607.5 607.5 607.5 607.5 607.5 606.5 606.5 606.5 606.5 607.5 607.5 606.5 607.5 607.5 607.5 606.5 606.5 606.5 607.5 607.5 607.5 607.5 606.5 606.5 606.5 606.5 608.5 605.5 607.5 607.5 605.5 607.5 606.5 607.5 607.5 606.5 606.5 607.5 607.5 606.5 606.5 606.5 606.5 607.5 606.5 607.5 606.5 606.5 608.5 606.5 606.5 606.5 607.5 607.5 607.5 607.5 607.5 606.5 605.5 606.5 606.5 607.5 607.5 606.5 607.5 608.5 606.5 607.5 607.5 608.5 606.5 607.5 607.5 607.5 608.5 607.5 606.5 606.5 607.5 606.5 606.5 607.5 607.5 606.5 607.5 607.5 607.5 606.5 606.5 606.5 606.5 607.5 607.5 607.5 606.5 607.5 607.5 607.5 607.5 607.5 607.5 607.5 606.5 607.5 605.5 607.5 607.5 606.5 607.5 606.5 607.5 606.5 607.5 606.5 606.5 607.5 606.5 606.5 607.5 606.5 607.5 606.5 606.5 606.5 607.5 608.5 607.5 607.5 606.5 607.5 607.5 607.5 607.5 606.5 607.5 607.5 607.5 607.5 607.5 606.5 606.5 607.5 607.5 606.5 607.5 605.5 606.5 606.5 606.5 605.5 607.5 ] +- 0.29
T = (23.3 +- 17.1) °C = 23.3 °C +- 73.5%

Measurement #6
Slowest ISR took 123us (maximum sampling frequency: 8130Hz)
N = [ 607.5 608.5 608.5 607.5 607.5 608.5 607.5 606.5 607.5 607.5 608.5 607.5 607.5 607.5 607.5 608.5 607.5 607.5 608.5 607.5 606.5 607.5 607.5 607.5 608.5 608.5 608.5 607.5 608.5 607.5 607.5 607.5 608.5 607.5 607.5 608.5 609.5 608.5 608.5 606.5 607.5 609.5 608.5 607.5 607.5 606.5 608.5 607.5 607.5 608.5 607.5 606.5 606.5 608.5 607.5 607.5 607.5 606.5 607.5 607.5 607.5 607.5 608.5 607.5 607.5 607.5 607.5 607.5 606.5 607.5 608.5 608.5 607.5 607.5 606.5 607.5 607.5 607.5 607.5 607.5 607.5 607.5 607.5 606.5 606.5 607.5 607.5 606.5 607.5 607.5 606.5 606.5 607.5 606.5 606.5 607.5 607.5 607.5 607.5 607.5 607.5 606.5 607.5 607.5 607.5 606.5 608.5 607.5 607.5 608.5 607.5 607.5 605.5 606.5 607.5 606.5 606.5 607.5 606.5 607.5 606.5 607.5 607.5 606.5 606.5 606.5 606.5 605.5 607.5 607.5 606.5 606.5 606.5 606.5 606.5 606.5 608.5 607.5 607.5 607.5 607.5 607.5 606.5 606.5 607.5 606.5 607.5 606.5 607.5 607.5 606.5 606.5 606.5 607.5 606.5 606.5 606.5 607.5 608.5 607.5 606.5 607.5 608.5 608.5 608.5 607.5 607.5 607.5 605.5 607.5 607.5 606.5 606.5 607.5 606.5 607.5 607.5 607.5 606.5 607.5 606.5 606.5 606.5 606.5 608.5 605.5 606.5 606.5 606.5 607.5 606.5 607.5 606.5 606.5 607.5 607.5 606.5 607.5 607.5 607.5 607.5 607.5 606.5 606.5 607.5 606.5 607.5 607.5 606.5 607.5 606.5 606.5 605.5 606.5 606.5 607.5 606.5 607.5 608.5 606.5 607.5 606.5 606.5 608.5 607.5 605.5 607.5 606.5 607.5 606.5 605.5 606.5 607.5 606.5 606.5 607.5 607.5 607.5 607.5 606.5 607.5 606.5 607.5 607.5 607.5 607.5 606.5 607.5 605.5 606.5 607.5 606.5 607.5 606.5 607.5 606.5 606.5 606.5 607.5 605.5 606.5 606.5 607.5 606.5 607.5 607.5 606.5 607.5 606.5 606.5 606.5 607.5 607.5 607.5 607.5 606.5 606.5 606.5 606.5 607.5 606.5 605.5 607.5 605.5 608.5 606.5 606.5 606.5 606.5 607.5 607.5 607.5 606.5 609.5 607.5 607.5 606.5 606.5 607.5 605.5 607.5 606.5 606.5 606.5 607.5 607.5 606.5 606.5 606.5 607.5 607.5 607.5 606.5 605.5 607.5 607.5 606.5 607.5 606.5 608.5 607.5 607.5 606.5 607.5 607.5 607.5 606.5 607.5 607.5 606.5 607.5 605.5 607.5 605.5 606.5 606.5 607.5 606.5 606.5 607.5 607.5 607.5 607.5 606.5 607.5 606.5 608.5 608.5 606.5 607.5 607.5 607.5 607.5 607.5 607.5 606.5 607.5 607.5 607.5 605.5 607.5 606.5 606.5 607.5 607.5 606.5 607.5 606.5 607.5 606.5 607.5 607.5 606.5 607.5 606.5 606.5 606.5 606.5 606.5 607.5 606.5 607.5 605.5 607.5 606.5 607.5 606.5 607.5 608.5 607.5 607.5 606.5 606.5 607.5 607.5 608.5 606.5 607.5 607.5 606.5 606.5 606.5 606.5 606.5 606.5 608.5 608.5 608.5 607.5 607.5 607.5 607.5 607.5 607.5 607.5 606.5 607.5 606.5 606.5 607.5 608.5 607.5 606.5 607.5 606.5 607.5 607.5 607.5 606.5 607.5 606.5 607.5 607.5 607.5 606.5 607.5 607.5 606.5 606.5 606.5 607.5 607.5 607.5 607.5 606.5 606.5 607.5 606.5 606.5 607.5 606.5 606.5 607.5 607.5 606.5 605.5 606.5 606.5 607.5 605.5 607.5 607.5 607.5 606.5 606.5 606.5 607.5 607.5 607.5 607.5 607.5 606.5 606.5 606.5 607.5 608.5 606.5 607.5 606.5 606.5 607.5 606.5 606.5 607.5 606.5 606.5 607.5 607.5 607.5 606.5 605.5 607.5 607.5 606.5 606.5 606.5 606.5 607.5 606.5 607.5 ] +- 0.29
T = (23.3 +- 17.1) °C = 23.3 °C +- 73.5%

Measurement #7
Slowest ISR took 123us (maximum sampling frequency: 8130Hz)
N = [ 606.5 607.5 607.5 606.5 607.5 608.5 608.5 608.5 607.5 607.5 607.5 608.5 608.5 607.5 607.5 607.5 607.5 607.5 607.5 607.5 608.5 607.5 607.5 608.5 608.5 607.5 607.5 607.5 607.5 608.5 608.5 608.5 608.5 608.5 608.5 608.5 608.5 606.5 607.5 607.5 607.5 607.5 606.5 607.5 606.5 607.5 608.5 606.5 608.5 607.5 607.5 607.5 607.5 607.5 607.5 607.5 607.5 606.5 606.5 607.5 605.5 606.5 606.5 607.5 606.5 606.5 606.5 606.5 606.5 606.5 606.5 607.5 607.5 607.5 606.5 606.5 606.5 607.5 606.5 606.5 606.5 606.5 607.5 607.5 607.5 607.5 607.5 606.5 606.5 606.5 607.5 607.5 607.5 607.5 607.5 607.5 608.5 607.5 606.5 608.5 607.5 607.5 605.5 607.5 606.5 607.5 606.5 606.5 607.5 606.5 606.5 607.5 606.5 606.5 606.5 607.5 607.5 607.5 607.5 606.5 607.5 607.5 606.5 607.5 606.5 607.5 607.5 606.5 608.5 607.5 607.5 606.5 607.5 608.5 607.5 607.5 606.5 607.5 607.5 606.5 606.5 606.5 607.5 605.5 606.5 606.5 606.5 606.5 606.5 607.5 608.5 607.5 607.5 606.5 605.5 606.5 607.5 606.5 606.5 607.5 607.5 607.5 606.5 606.5 606.5 606.5 606.5 607.5 607.5 607.5 606.5 606.5 608.5 606.5 606.5 606.5 607.5 607.5 607.5 606.5 606.5 606.5 606.5 606.5 607.5 606.5 607.5 606.5 606.5 608.5 607.5 607.5 606.5 607.5 608.5 606.5 607.5 607.5 607.5 605.5 607.5 607.5 606.5 607.5 607.5 607.5 607.5 606.5 607.5 607.5 607.5 607.5 606.5 607.5 607.5 607.5 606.5 606.5 605.5 608.5 607.5 607.5 607.5 607.5 607.5 607.5 607.5 606.5 606.5 607.5 606.5 607.5 606.5 606.5 607.5 607.5 607.5 607.5 607.5 606.5 607.5 607.5 607.5 606.5 607.5 606.5 606.5 606.5 607.5 607.5 606.5 607.5 607.5 607.5 608.5 606.5 607.5 607.5 607.5 606.5 607.5 607.5 607.5 606.5 607.5 606.5 606.5 606.5 606.5 606.5 606.5 607.5 606.5 607.5 607.5 607.5 608.5 607.5 607.5 607.5 606.5 607.5 607.5 607.5 606.5 607.5 607.5 605.5 606.5 607.5 606.5 607.5 607.5 607.5 606.5 607.5 606.5 607.5 607.5 606.5 607.5 606.5 606.5 607.5 606.5 607.5 607.5 606.5 607.5 606.5 607.5 607.5 607.5 606.5 607.5 607.5 606.5 607.5 607.5 607.5 608.5 607.5 607.5 607.5 606.5 607.5 607.5 606.5 606.5 607.5 607.5 607.5 606.5 608.5 607.5 606.5 606.5 606.5 606.5 607.5 605.5 607.5 606.5 606.5 607.5 608.5 608.5 606.5 607.5 606.5 606.5 607.5 607.5 607.5 607.5 607.5 607.5 606.5 607.5 606.5 606.5 606.5 606.5 606.5 607.5 607.5 606.5 607.5 607.5 606.5 606.5 607.5 607.5 606.5 606.5 607.5 606.5 606.5 606.5 606.5 607.5 608.5 607.5 606.5 607.5 608.5 607.5 606.5 606.5 605.5 606.5 606.5 607.5 606.5 606.5 606.5 607.5 607.5 607.5 607.5 607.5 608.5 607.5 606.5 607.5 607.5 607.5 608.5 606.5 607.5 606.5 607.5 607.5 606.5 607.5 606.5 606.5 607.5 607.5 607.5 606.5 607.5 606.5 607.5 607.5 607.5 607.5 607.5 606.5 607.5 607.5 606.5 606.5 607.5 606.5 607.5 607.5 607.5 606.5 606.5 607.5 608.5 606.5 607.5 607.5 606.5 608.5 607.5 607.5 606.5 606.5 606.5 607.5 607.5 606.5 607.5 606.5 607.5 607.5 607.5 606.5 606.5 607.5 606.5 606.5 606.5 606.5 606.5 606.5 607.5 607.5 606.5 607.5 608.5 607.5 608.5 607.5 606.5 606.5 607.5 608.5 608.5 606.5 607.5 607.5 606.5 607.5 606.5 607.5 607.5 606.5 607.5 606.5 606.5 605.5 606.5 607.5 606.5 607.5 606.5 ] +- 0.29
T = (23.3 +- 17.1) °C = 23.3 °C +- 73.5%

Measurement #8
Slowest ISR took 123us (maximum sampling frequency: 8130Hz)
N = [ 607.5 607.5 607.5 607.5 607.5 607.5 606.5 607.5 606.5 606.5 607.5 607.5 606.5 607.5 608.5 608.5 608.5 607.5 607.5 607.5 607.5 608.5 608.5 606.5 608.5 607.5 607.5 607.5 607.5 607.5 606.5 607.5 606.5 608.5 607.5 608.5 607.5 606.5 607.5 607.5 607.5 608.5 607.5 607.5 607.5 606.5 607.5 606.5 607.5 607.5 607.5 606.5 607.5 607.5 607.5 608.5 607.5 607.5 608.5 607.5 607.5 607.5 607.5 607.5 606.5 606.5 606.5 607.5 606.5 606.5 606.5 607.5 608.5 607.5 606.5 607.5 608.5 607.5 607.5 606.5 607.5 608.5 607.5 608.5 607.5 606.5 607.5 607.5 607.5 607.5 606.5 607.5 607.5 607.5 607.5 607.5 606.5 606.5 607.5 607.5 606.5 607.5 606.5 607.5 606.5 607.5 606.5 606.5 607.5 606.5 607.5 606.5 606.5 606.5 607.5 607.5 607.5 606.5 607.5 607.5 608.5 606.5 607.5 607.5 607.5 608.5 607.5 607.5 606.5 606.5 607.5 607.5 608.5 607.5 606.5 606.5 606.5 606.5 606.5 606.5 606.5 606.5 608.5 606.5 607.5 607.5 607.5 607.5 606.5 606.5 606.5 604.5 605.5 606.5 607.5 606.5 606.5 606.5 605.5 607.5 606.5 607.5 607.5 607.5 608.5 606.5 606.5 607.5 606.5 606.5 606.5 607.5 606.5 607.5 607.5 606.5 606.5 606.5 607.5 606.5 607.5 607.5 606.5 607.5 606.5 606.5 607.5 607.5 606.5 607.5 606.5 607.5 607.5 607.5 607.5 607.5 606.5 606.5 607.5 606.5 607.5 607.5 608.5 607.5 607.5 606.5 607.5 607.5 606.5 606.5 607.5 607.5 607.5 607.5 607.5 606.5 607.5 606.5 608.5 606.5 606.5 607.5 606.5 606.5 606.5 607.5 606.5 606.5 607.5 607.5 606.5 606.5 606.5 606.5 607.5 606.5 607.5 607.5 607.5 606.5 607.5 608.5 606.5 607.5 607.5 606.5 607.5 607.5 607.5 606.5 607.5 607.5 607.5 607.5 607.5 607.5 607.5 606.5 606.5 607.5 607.5 606.5 607.5 606.5 606.5 606.5 607.5 607.5 608.5 607.5 606.5 607.5 607.5 607.5 607.5 607.5 606.5 606.5 607.5 606.5 606.5 608.5 605.5 605.5 607.5 607.5 606.5 607.5 606.5 607.5 606.5 607.5 606.5 606.5 606.5 606.5 607.5 606.5 607.5 607.5 607.5 606.5 607.5 606.5 607.5 607.5 607.5 608.5 606.5 607.5 606.5 607.5 607.5 607.5 607.5 607.5 606.5 606.5 607.5 607.5 606.5 607.5 606.5 606.5 607.5 606.5 607.5 607.5 606.5 606.5 605.5 606.5 606.5 607.5 606.5 607.5 606.5 606.5 607.5 608.5 607.5 607.5 605.5 606.5 607.5 607.5 607.5 606.5 606.5 606.5 608.5 607.5 607.5 607.5 606.5 607.5 607.5 607.5 607.5 607.5 607.5 607.5 607.5 607.5 607.5 607.5 607.5 607.5 606.5 607.5 606.5 607.5 607.5 607.5 606.5 606.5 607.5 607.5 607.5 607.5 607.5 607.5 606.5 607.5 607.5 606.5 605.5 606.5 606.5 608.5 607.5 607.5 608.5 607.5 606.5 607.5 607.5 607.5 607.5 608.5 608.5 607.5 606.5 606.5 607.5 607.5 606.5 606.5 606.5 606.5 607.5 608.5 607.5 606.5 606.5 607.5 607.5 607.5 607.5 607.5 607.5 607.5 606.5 607.5 607.5 606.5 607.5 607.5 607.5 606.5 607.5 606.5 607.5 608.5 607.5 606.5 607.5 607.5 607.5 607.5 607.5 607.5 606.5 605.5 606.5 607.5 606.5 606.5 606.5 606.5 607.5 607.5 607.5 607.5 607.5 608.5 606.5 606.5 606.5 606.5 606.5 607.5 607.5 607.5 607.5 607.5 607.5 607.5 607.5 607.5 606.5 607.5 608.5 607.5 606.5 607.5 608.5 606.5 607.5 606.5 607.5 607.5 607.5 606.5 606.5 606.5 607.5 606.5 607.5 607.5 607.5 607.5 607.5 607.5 607.5 607.5 605.5 607.5 607.5 607.5 ] +- 0.29
T = (23.3 +- 17.1) °C = 23.3 °C +- 73.4%

Measurement #9
Slowest ISR took 123us (maximum sampling frequency: 8130Hz)
N = [ 607.5 607.5 607.5 607.5 606.5 607.5 608.5 608.5 607.5 607.5 607.5 608.5 607.5 607.5 607.5 608.5 607.5 607.5 608.5 607.5 608.5 606.5 608.5 608.5 608.5 607.5 608.5 607.5 609.5 607.5 608.5 607.5 607.5 607.5 608.5 608.5 608.5 608.5 607.5 606.5 607.5 608.5 608.5 608.5 607.5 607.5 607.5 608.5 608.5 608.5 607.5 608.5 607.5 607.5 608.5 607.5 607.5 607.5 607.5 608.5 607.5 607.5 606.5 607.5 608.5 607.5 607.5 608.5 607.5 606.5 606.5 607.5 607.5 607.5 607.5 607.5 607.5 607.5 606.5 606.5 607.5 608.5 607.5 606.5 606.5 606.5 607.5 607.5 607.5 606.5 606.5 606.5 607.5 607.5 606.5 606.5 606.5 605.5 607.5 606.5 606.5 606.5 606.5 607.5 607.5 606.5 606.5 606.5 606.5 606.5 607.5 605.5 607.5 606.5 607.5 607.5 607.5 606.5 607.5 606.5 607.5 606.5 606.5 606.5 607.5 607.5 606.5 607.5 606.5 606.5 606.5 605.5 607.5 606.5 607.5 606.5 606.5 608.5 607.5 606.5 606.5 606.5 607.5 608.5 607.5 606.5 608.5 606.5 606.5 606.5 606.5 608.5 607.5 606.5 607.5 607.5 606.5 607.5 607.5 607.5 607.5 606.5 607.5 607.5 607.5 607.5 606.5 607.5 608.5 607.5 606.5 606.5 607.5 607.5 606.5 607.5 608.5 607.5 607.5 607.5 607.5 607.5 607.5 606.5 606.5 608.5 607.5 607.5 606.5 606.5 607.5 606.5 606.5 607.5 607.5 607.5 607.5 608.5 607.5 606.5 606.5 607.5 609.5 607.5 607.5 607.5 606.5 607.5 606.5 606.5 606.5 605.5 607.5 607.5 606.5 606.5 607.5 606.5 606.5 606.5 606.5 607.5 605.5 606.5 607.5 606.5 607.5 606.5 606.5 607.5 606.5 606.5 607.5 606.5 607.5 606.5 607.5 607.5 607.5 607.5 606.5 607.5 607.5 607.5 607.5 607.5 607.5 606.5 607.5 606.5 606.5 607.5 605.5 606.5 606.5 607.5 607.5 607.5 607.5 607.5 606.5 606.5 607.5 608.5 608.5 608.5 607.5 607.5 607.5 607.5 607.5 607.5 607.5 607.5 606.5 607.5 606.5 607.5 607.5 607.5 605.5 607.5 606.5 607.5 607.5 607.5 607.5 607.5 607.5 607.5 606.5 606.5 607.5 606.5 607.5 606.5 607.5 607.5 606.5 607.5 607.5 606.5 607.5 606.5 606.5 606.5 607.5 607.5 607.5 606.5 605.5 607.5 606.5 606.5 606.5 607.5 607.5 607.5 607.5 607.5 607.5 606.5 606.5 606.5 606.5 605.5 606.5 606.5 607.5 607.5 607.5 607.5 607.5 608.5 606.5 606.5 606.5 607.5 607.5 606.5 605.5 607.5 606.5 606.5 606.5 607.5 607.5 607.5 606.5 606.5 606.5 606.5 607.5 606.5 606.5 607.5 606.5 606.5 606.5 607.5 607.5 606.5 607.5 607.5 607.5 607.5 607.5 608.5 607.5 607.5 606.5 606.5 606.5 606.5 607.5 606.5 607.5 606.5 606.5 607.5 607.5 607.5 606.5 605.5 607.5 608.5 607.5 606.5 607.5 607.5 607.5 607.5 607.5 608.5 607.5 606.5 607.5 607.5 605.5 607.5 606.5 607.5 606.5 606.5 608.5 607.5 607.5 606.5 606.5 607.5 607.5 606.5 605.5 605.5 606.5 608.5 607.5 606.5 606.5 606.5 608.5 607.5 607.5 606.5 607.5 606.5 605.5 606.5 607.5 606.5 606.5 606.5 606.5 607.5 607.5 606.5 606.5 608.5 607.5 606.5 607.5 607.5 605.5 606.5 606.5 605.5 606.5 607.5 607.5 607.5 606.5 606.5 606.5 607.5 608.5 606.5 607.5 607.5 607.5 608.5 607.5 607.5 606.5 606.5 606.5 607.5 607.5 607.5 606.5 606.5 606.5 608.5 606.5 607.5 607.5 607.5 607.5 606.5 607.5 606.5 607.5 608.5 606.5 607.5 607.5 607.5 606.5 606.5 607.5 607.5 607.5 606.5 606.5 605.5 606.5 607.5 606.5 606.5 607.5 606.5 ] +- 0.29
T = (23.3 +- 17.1) °C = 23.3 °C +- 73.4%


