Temperature is (19.67 +- 21.38)°C = 19.67°C +- 7.30%
Temperature is (20.47 +- 21.44)°C = 20.47°C +- 7.30%
Temperature is (20.07 +- 21.41)°C = 20.07°C +- 7.30%
Temperature is (20.07 +- 21.41)°C = 20.07°C +- 7.30%
Temperature is (19.27 +- 21.35)°C = 19.27°C +- 7.30%
Temperature is (20.07 +- 21.41)°C = 20.07°C +- 7.30%
Temperature is (20.07 +- 21.41)°C = 20.07°C +- 7.30%
Temperature is (19.27 +- 21.35)°C = 19.27°C +- 7.30%
Temperature is (20.07 +- 21.41)°C = 20.07°C +- 7.30%
Temperature is (19.27 +- 21.35)°C = 19.27°C +- 7.30%
Temperature is (19.27 +- 21.35)°C = 19.27°C +- 7.30%
Temperature is (20.07 +- 21.41)°C = 20.07°C +- 7.30%
Temperature is (18.87 +- 21.32)°C = 18.87°C +- 7.30%
Temperature is (20.07 +- 21.41)°C = 20.07°C +- 7.30%
Temperature is (19.67 +- 21.38)°C = 19.67°C +- 7.30%
Temperature is (19.27 +- 21.35)°C = 19.27°C +- 7.30%
Temperature is (20.47 +- 21.44)°C = 20.47°C +- 7.30%
Temperature is (19.67 +- 21.38)°C = 19.67°C +- 7.30%
Temperature is (19.67 +- 21.38)°C = 19.67°C +- 7.30%
Temperature is (19.27 +- 21.35)°C = 19.27°C +- 7.30%
Temperature is (19.27 +- 21.35)°C = 19.27°C +- 7.30%
Temperature is (20.07 +- 21.41)°C = 20.07°C +- 7.30%
Temperature is (19.67 +- 21.38)°C = 19.67°C +- 7.30%
Temperature is (19.27 +- 21.35)°C = 19.27°C +- 7.30%
Temperature is (19.27 +- 21.35)°C = 19.27°C +- 7.30%
Temperature is (19.67 +- 21.38)°C = 19.67°C +- 7.30%
Temperature is (19.27 +- 21.35)°C = 19.27°C +- 7.30%
Temperature is (20.07 +- 21.41)°C = 20.07°C +- 7.30%
Temperature is (19.27 +- 21.35)°C = 19.27°C +- 7.30%
Temperature is (19.27 +- 21.35)°C = 19.27°C +- 7.30%
Temperature is (19.67 +- 21.38)°C = 19.67°C +- 7.30%
Temperature is (19.67 +- 21.38)°C = 19.67°C +- 7.30%
Temperature is (19.67 +- 21.38)°C = 19.67°C +- 7.30%
Temperature is (19.67 +- 21.38)°C = 19.67°C +- 7.30%
Temperature is (19.27 +- 21.35)°C = 19.27°C +- 7.30%
Temperature is (19.27 +- 21.35)°C = 19.27°C +- 7.30%
Temperature is (19.67 +- 21.38)°C = 19.67°C +- 7.30%
Temperature is (20.47 +- 21.44)°C = 20.47°C +- 7.30%
Temperature is (19.67 +- 21.38)°C = 19.67°C +- 7.30%
Temperature is (19.27 +- 21.35)°C = 19.27°C +- 7.30%
Temperature is (18.87 +- 21.32)°C = 18.87°C +- 7.30%
Temperature is (19.67 +- 21.38)°C = 19.67°C +- 7.30%
Temperature is (20.47 +- 21.44)°C = 20.47°C +- 7.30%
Temperature is (19.67 +- 21.38)°C = 19.67°C +- 7.30%
Temperature is (20.07 +- 21.41)°C = 20.07°C +- 7.30%
Temperature is (19.27 +- 21.35)°C = 19.27°C +- 7.30%
Temperature is (19.67 +- 21.38)°C = 19.67°C +- 7.30%
Temperature is (19.27 +- 21.35)°C = 19.27°C +- 7.30%
Temperature is (20.07 +- 21.41)°C = 20.07°C +- 7.30%
Temperature is (19.67 +- 21.38)°C = 19.67°C +- 7.30%
Temperature is (19.67 +- 21.38)°C = 19.67°C +- 7.30%
Temperature is (19.27 +- 21.35)°C = 19.27°C +- 7.30%
Temperature is (19.67 +- 21.38)°C = 19.67°C +- 7.30%
Temperature is (19.67 +- 21.38)°C = 19.67°C +- 7.30%
Temperature is (19.27 +- 21.35)°C = 19.27°C +- 7.30%
Temperature is (19.27 +- 21.35)°C = 19.27°C +- 7.30%
Temperature is (19.27 +- 21.35)°C = 19.27°C +- 7.30%
Temperature is (19.27 +- 21.35)°C = 19.27°C +- 7.30%
Temperature is (19.67 +- 21.38)°C = 19.67°C +- 7.30%
Temperature is (18.87 +- 21.32)°C = 18.87°C +- 7.30%
Temperature is (19.67 +- 21.38)°C = 19.67°C +- 7.30%
Temperature is (20.07 +- 21.41)°C = 20.07°C +- 7.30%
Temperature is (19.67 +- 21.38)°C = 19.67°C +- 7.30%
Temperature is (19.67 +- 21.38)°C = 19.67°C +- 7.30%
Temperature is (20.47 +- 21.44)°C = 20.47°C +- 7.30%
Temperature is (20.07 +- 21.41)°C = 20.07°C +- 7.30%
Temperature is (19.67 +- 21.38)°C = 19.67°C +- 7.30%
Temperature is (19.27 +- 21.35)°C = 19.27°C +- 7.30%
Temperature is (20.07 +- 21.41)°C = 20.07°C +- 7.30%
Temperature is (19.27 +- 21.35)°C = 19.27°C +- 7.30%
Temperature is (19.67 +- 21.38)°C = 19.67°C +- 7.30%
Temperature is (20.07 +- 21.41)°C = 20.07°C +- 7.30%
Temperature is (18.87 +- 21.32)°C = 18.87°C +- 7.30%
Temperature is (20.07 +- 21.41)°C = 20.07°C +- 7.30%
Temperature is (19.27 +- 21.35)°C = 19.27°C +- 7.30%
Temperature is (19.27 +- 21.35)°C = 19.27°C +- 7.30%
Temperature is (18.87 +- 21.32)°C = 18.87°C +- 7.30%
Temperature is (19.67 +- 21.38)°C = 19.67°C +- 7.30%
Temperature is (19.67 +- 21.38)°C = 19.67°C +- 7.30%
Temperature is (19.67 +- 21.38)°C = 19.67°C +- 7.30%
Temperature is (19.27 +- 21.35)°C = 19.27°C +- 7.30%
Temperature is (19.27 +- 21.35)°C = 19.27°C +- 7.30%
Temperature is (20.07 +- 21.41)°C = 20.07°C +- 7.30%
Temperature is (19.27 +- 21.35)°C = 19.27°C +- 7.30%
Temperature is (18.87 +- 21.32)°C = 18.87°C +- 7.30%
Temperature is (20.07 +- 21.41)°C = 20.07°C +- 7.30%
Temperature is (19.67 +- 21.38)°C = 19.67°C +- 7.30%
Temperature is (20.07 +- 21.41)°C = 20.07°C +- 7.30%
Temperature is (20.47 +- 21.44)°C = 20.47°C +- 7.30%
Temperature is (19.67 +- 21.38)°C = 19.67°C +- 7.30%
Temperature is (19.27 +- 21.35)°C = 19.27°C +- 7.30%
Temperature is (19.27 +- 21.35)°C = 19.27°C +- 7.30%
Temperature is (19.67 +- 21.38)°C = 19.67°C +- 7.30%
Temperature is (20.07 +- 21.41)°C = 20.07°C +- 7.30%
Temperature is (19.27 +- 21.35)°C = 19.27°C +- 7.30%
Temperature is (20.07 +- 21.41)°C = 20.07°C +- 7.30%
Temperature is (19.67 +- 21.38)°C = 19.67°C +- 7.30%
Temperature is (19.27 +- 21.35)°C = 19.27°C +- 7.30%
Temperature is (19.67 +- 21.38)°C = 19.67°C +- 7.30%
Temperature is (20.07 +- 21.41)°C = 20.07°C +- 7.30%
Temperature is (19.27 +- 21.35)°C = 19.27°C +- 7.30%
Temperature is (19.67 +- 21.38)°C = 19.67°C +- 7.30%
Temperature is (19.27 +- 21.35)°C = 19.27°C +- 7.30%
Temperature is (20.47 +- 21.44)°C = 20.47°C +- 7.30%
Temperature is (19.27 +- 21.35)°C = 19.27°C +- 7.30%
Temperature is (19.27 +- 21.35)°C = 19.27°C +- 7.30%
Temperature is (19.27 +- 21.35)°C = 19.27°C +- 7.30%
Temperature is (20.07 +- 21.41)°C = 20.07°C +- 7.30%
Temperature is (19.27 +- 21.35)°C = 19.27°C +- 7.30%
Temperature is (19.67 +- 21.38)°C = 19.67°C +- 7.30%
Temperature is (19.27 +- 21.35)°C = 19.27°C +- 7.30%
Temperature is (20.47 +- 21.44)°C = 20.47°C +- 7.30%
Temperature is (20.47 +- 21.44)°C = 20.47°C +- 7.30%
Temperature is (19.27 +- 21.35)°C = 19.27°C +- 7.30%
Temperature is (20.07 +- 21.41)°C = 20.07°C +- 7.30%
Temperature is (20.07 +- 21.41)°C = 20.07°C +- 7.30%
Temperature is (19.67 +- 21.38)°C = 19.67°C +- 7.30%
Temperature is (19.27 +- 21.35)°C = 19.27°C +- 7.30%
Temperature is (20.07 +- 21.41)°C = 20.07°C +- 7.30%
Temperature is (20.07 +- 21.41)°C = 20.07°C +- 7.30%
Temperature is (19.27 +- 21.35)°C = 19.27°C +- 7.30%
Temperature is (19.27 +- 21.35)°C = 19.27°C +- 7.30%
Temperature is (19.67 +- 21.38)°C = 19.67°C +- 7.30%
Temperature is (20.07 +- 21.41)°C = 20.07°C +- 7.30%
Temperature is (20.47 +- 21.44)°C = 20.47°C +- 7.30%
Temperature is (20.07 +- 21.41)°C = 20.07°C +- 7.30%
Temperature is (20.07 +- 21.41)°C = 20.07°C +- 7.30%
Temperature is (19.67 +- 21.38)°C = 19.67°C +- 7.30%
Temperature is (18.87 +- 21.32)°C = 18.87°C +- 7.30%
Temperature is (19.67 +- 21.38)°C = 19.67°C +- 7.30%
Temperature is (19.27 +- 21.35)°C = 19.27°C +- 7.30%
Temperature is (19.27 +- 21.35)°C = 19.27°C +- 7.30%
Temperature is (19.67 +- 21.38)°C = 19.67°C +- 7.30%
Temperature is (20.07 +- 21.41)°C = 20.07°C +- 7.30%
Temperature is (20.07 +- 21.41)°C = 20.07°C +- 7.30%
Temperature is (19.27 +- 21.35)°C = 19.27°C +- 7.30%
Temperature is (20.07 +- 21.41)°C = 20.07°C +- 7.30%
Temperature is (20.47 +- 21.44)°C = 20.47°C +- 7.30%
Temperature is (19.27 +- 21.35)°C = 19.27°C +- 7.30%
Temperature is (19.27 +- 21.35)°C = 19.27°C +- 7.30%
Temperature is (19.67 +- 21.38)°C = 19.67°C +- 7.30%
Temperature is (19.67 +- 21.38)°C = 19.67°C +- 7.30%
Temperature is (19.27 +- 21.35)°C = 19.27°C +- 7.30%
Temperature is (19.27 +- 21.35)°C = 19.27°C +- 7.30%
Temperature is (19.27 +- 21.35)°C = 19.27°C +- 7.30%
