<?xml version="1.0"?>
<!DOCTYPE svg PUBLIC '-//W3C//DTD SVG 1.0//EN'
          'http://www.w3.org/TR/2001/REC-SVG-20010904/DTD/svg10.dtd'>
<svg xmlns:xlink="http://www.w3.org/1999/xlink" style="fill-opacity:1; color-rendering:auto; color-interpolation:auto; text-rendering:auto; stroke:black; stroke-linecap:square; stroke-miterlimit:10; shape-rendering:auto; stroke-opacity:1; fill:black; stroke-dasharray:none; font-weight:normal; stroke-width:1; font-family:'Dialog'; font-style:normal; stroke-linejoin:miter; font-size:12px; stroke-dashoffset:0; image-rendering:auto;" width="580" height="430" xmlns="http://www.w3.org/2000/svg"
><!--Generated by the Batik Graphics2D SVG Generator--><defs id="genericDefs"
  /><g
  ><defs id="defs1"
    ><clipPath clipPathUnits="userSpaceOnUse" id="clipPath1"
      ><path d="M0 0 L580 0 L580 430 L0 430 L0 0 Z"
      /></clipPath
    ></defs
    ><g style="fill:white; stroke:white;"
    ><rect x="0" y="0" width="580" style="clip-path:url(#clipPath1); stroke:none;" height="430"
    /></g
    ><g style="fill:white; text-rendering:optimizeSpeed; color-rendering:optimizeSpeed; image-rendering:optimizeSpeed; shape-rendering:crispEdges; stroke:white; color-interpolation:sRGB;"
    ><rect x="0" width="580" height="430" y="0" style="stroke:none;"
      /><path style="stroke:none;" d="M49 384 L567 384 L567 8 L49 8 Z"
    /></g
    ><g style="stroke-linecap:butt; fill-opacity:0.149; fill:rgb(38,38,38); text-rendering:geometricPrecision; image-rendering:optimizeQuality; color-rendering:optimizeQuality; stroke-linejoin:round; stroke:rgb(38,38,38); color-interpolation:linearRGB; stroke-width:0.6667; stroke-opacity:0.149;"
    ><line y2="8" style="fill:none;" x1="49" x2="49" y1="384"
      /><line y2="8" style="fill:none;" x1="123" x2="123" y1="384"
      /><line y2="8" style="fill:none;" x1="197" x2="197" y1="384"
      /><line y2="8" style="fill:none;" x1="271" x2="271" y1="384"
      /><line y2="8" style="fill:none;" x1="345" x2="345" y1="384"
      /><line y2="8" style="fill:none;" x1="419" x2="419" y1="384"
      /><line y2="8" style="fill:none;" x1="493" x2="493" y1="384"
      /><line y2="8" style="fill:none;" x1="567" x2="567" y1="384"
      /><line y2="384" style="fill:none;" x1="567" x2="49" y1="384"
      /><line y2="337" style="fill:none;" x1="567" x2="49" y1="337"
      /><line y2="290" style="fill:none;" x1="567" x2="49" y1="290"
      /><line y2="243" style="fill:none;" x1="567" x2="49" y1="243"
      /><line y2="196" style="fill:none;" x1="567" x2="49" y1="196"
      /><line y2="149" style="fill:none;" x1="567" x2="49" y1="149"
      /><line y2="102" style="fill:none;" x1="567" x2="49" y1="102"
      /><line y2="55" style="fill:none;" x1="567" x2="49" y1="55"
      /><line y2="8" style="fill:none;" x1="567" x2="49" y1="8"
      /><line x1="49" x2="567" y1="384" style="stroke-linecap:square; fill-opacity:1; fill:none; stroke-opacity:1;" y2="384"
      /><line x1="49" x2="567" y1="8" style="stroke-linecap:square; fill-opacity:1; fill:none; stroke-opacity:1;" y2="8"
      /><line x1="49" x2="49" y1="384" style="stroke-linecap:square; fill-opacity:1; fill:none; stroke-opacity:1;" y2="378.82"
      /><line x1="123" x2="123" y1="384" style="stroke-linecap:square; fill-opacity:1; fill:none; stroke-opacity:1;" y2="378.82"
      /><line x1="197" x2="197" y1="384" style="stroke-linecap:square; fill-opacity:1; fill:none; stroke-opacity:1;" y2="378.82"
      /><line x1="271" x2="271" y1="384" style="stroke-linecap:square; fill-opacity:1; fill:none; stroke-opacity:1;" y2="378.82"
      /><line x1="345" x2="345" y1="384" style="stroke-linecap:square; fill-opacity:1; fill:none; stroke-opacity:1;" y2="378.82"
      /><line x1="419" x2="419" y1="384" style="stroke-linecap:square; fill-opacity:1; fill:none; stroke-opacity:1;" y2="378.82"
      /><line x1="493" x2="493" y1="384" style="stroke-linecap:square; fill-opacity:1; fill:none; stroke-opacity:1;" y2="378.82"
      /><line x1="567" x2="567" y1="384" style="stroke-linecap:square; fill-opacity:1; fill:none; stroke-opacity:1;" y2="378.82"
      /><line x1="49" x2="49" y1="8" style="stroke-linecap:square; fill-opacity:1; fill:none; stroke-opacity:1;" y2="13.18"
      /><line x1="123" x2="123" y1="8" style="stroke-linecap:square; fill-opacity:1; fill:none; stroke-opacity:1;" y2="13.18"
      /><line x1="197" x2="197" y1="8" style="stroke-linecap:square; fill-opacity:1; fill:none; stroke-opacity:1;" y2="13.18"
      /><line x1="271" x2="271" y1="8" style="stroke-linecap:square; fill-opacity:1; fill:none; stroke-opacity:1;" y2="13.18"
      /><line x1="345" x2="345" y1="8" style="stroke-linecap:square; fill-opacity:1; fill:none; stroke-opacity:1;" y2="13.18"
      /><line x1="419" x2="419" y1="8" style="stroke-linecap:square; fill-opacity:1; fill:none; stroke-opacity:1;" y2="13.18"
      /><line x1="493" x2="493" y1="8" style="stroke-linecap:square; fill-opacity:1; fill:none; stroke-opacity:1;" y2="13.18"
      /><line x1="567" x2="567" y1="8" style="stroke-linecap:square; fill-opacity:1; fill:none; stroke-opacity:1;" y2="13.18"
    /></g
    ><g transform="translate(49,389.3333)" style="font-size:13.3333px; fill:rgb(38,38,38); text-rendering:geometricPrecision; image-rendering:optimizeQuality; color-rendering:optimizeQuality; font-family:'SansSerif'; stroke:rgb(38,38,38); color-interpolation:linearRGB;"
    ><path style="stroke:none;" d="M-10.3594 8.9219 L-6.9375 8.9219 L-6.9375 9.9531 L-10.3594 9.9531 L-10.3594 8.9219 ZM-1.2901 4.6406 L-4.5244 9.7031 L-1.2901 9.7031 L-1.2901 4.6406 ZM-1.6182 3.5156 L-0.0088 3.5156 L-0.0088 9.7031 L1.3506 9.7031 L1.3506 10.7656 L-0.0088 10.7656 L-0.0088 13 L-1.2901 13 L-1.2901 10.7656 L-5.5557 10.7656 L-5.5557 9.5312 L-1.6182 3.5156 ZM6.3985 4.3594 Q5.4141 4.3594 4.9141 5.3359 Q4.4141 6.3125 4.4141 8.2656 Q4.4141 10.2188 4.9141 11.1953 Q5.4141 12.1719 6.3985 12.1719 Q7.3985 12.1719 7.8985 11.1953 Q8.3985 10.2188 8.3985 8.2656 Q8.3985 6.3125 7.8985 5.3359 Q7.3985 4.3594 6.3985 4.3594 ZM6.3985 3.3438 Q7.9922 3.3438 8.836 4.6094 Q9.6797 5.875 9.6797 8.2656 Q9.6797 10.6562 8.836 11.9219 Q7.9922 13.1875 6.3985 13.1875 Q4.8204 13.1875 3.9766 11.9219 Q3.1329 10.6562 3.1329 8.2656 Q3.1329 5.875 3.9766 4.6094 Q4.8204 3.3438 6.3985 3.3438 Z"
    /></g
    ><g transform="translate(123,389.3333)" style="font-size:13.3333px; fill:rgb(38,38,38); text-rendering:geometricPrecision; image-rendering:optimizeQuality; color-rendering:optimizeQuality; font-family:'SansSerif'; stroke:rgb(38,38,38); color-interpolation:linearRGB;"
    ><path style="stroke:none;" d="M-10.3594 8.9219 L-6.9375 8.9219 L-6.9375 9.9531 L-10.3594 9.9531 L-10.3594 8.9219 ZM-3.6963 11.9219 L0.7724 11.9219 L0.7724 13 L-5.2432 13 L-5.2432 11.9219 Q-4.5088 11.1719 -3.251 9.8984 Q-1.9932 8.625 -1.6651 8.25 Q-1.0557 7.5625 -0.8135 7.0781 Q-0.5713 6.5938 -0.5713 6.1406 Q-0.5713 5.375 -1.0948 4.9062 Q-1.6182 4.4375 -2.4776 4.4375 Q-3.0869 4.4375 -3.751 4.6406 Q-4.4151 4.8438 -5.1807 5.2812 L-5.1807 3.9844 Q-4.3994 3.6719 -3.7276 3.5078 Q-3.0557 3.3438 -2.5088 3.3438 Q-1.0244 3.3438 -0.1494 4.0859 Q0.7256 4.8281 0.7256 6.0625 Q0.7256 6.6406 0.5068 7.1641 Q0.2881 7.6875 -0.2901 8.3906 Q-0.4463 8.5781 -1.2979 9.4609 Q-2.1494 10.3438 -3.6963 11.9219 ZM6.3985 4.3594 Q5.4141 4.3594 4.9141 5.3359 Q4.4141 6.3125 4.4141 8.2656 Q4.4141 10.2188 4.9141 11.1953 Q5.4141 12.1719 6.3985 12.1719 Q7.3985 12.1719 7.8985 11.1953 Q8.3985 10.2188 8.3985 8.2656 Q8.3985 6.3125 7.8985 5.3359 Q7.3985 4.3594 6.3985 4.3594 ZM6.3985 3.3438 Q7.9922 3.3438 8.836 4.6094 Q9.6797 5.875 9.6797 8.2656 Q9.6797 10.6562 8.836 11.9219 Q7.9922 13.1875 6.3985 13.1875 Q4.8204 13.1875 3.9766 11.9219 Q3.1329 10.6562 3.1329 8.2656 Q3.1329 5.875 3.9766 4.6094 Q4.8204 3.3438 6.3985 3.3438 Z"
    /></g
    ><g transform="translate(197,389.3333)" style="font-size:13.3333px; fill:rgb(38,38,38); text-rendering:geometricPrecision; image-rendering:optimizeQuality; color-rendering:optimizeQuality; font-family:'SansSerif'; stroke:rgb(38,38,38); color-interpolation:linearRGB;"
    ><path style="stroke:none;" d="M-0.375 4.3594 Q-1.3594 4.3594 -1.8594 5.3359 Q-2.3594 6.3125 -2.3594 8.2656 Q-2.3594 10.2188 -1.8594 11.1953 Q-1.3594 12.1719 -0.375 12.1719 Q0.625 12.1719 1.125 11.1953 Q1.625 10.2188 1.625 8.2656 Q1.625 6.3125 1.125 5.3359 Q0.625 4.3594 -0.375 4.3594 ZM-0.375 3.3438 Q1.2188 3.3438 2.0625 4.6094 Q2.9062 5.875 2.9062 8.2656 Q2.9062 10.6562 2.0625 11.9219 Q1.2188 13.1875 -0.375 13.1875 Q-1.9531 13.1875 -2.7969 11.9219 Q-3.6406 10.6562 -3.6406 8.2656 Q-3.6406 5.875 -2.7969 4.6094 Q-1.9531 3.3438 -0.375 3.3438 Z"
    /></g
    ><g transform="translate(271,389.3333)" style="font-size:13.3333px; fill:rgb(38,38,38); text-rendering:geometricPrecision; image-rendering:optimizeQuality; color-rendering:optimizeQuality; font-family:'SansSerif'; stroke:rgb(38,38,38); color-interpolation:linearRGB;"
    ><path style="stroke:none;" d="M-6 11.9219 L-1.5312 11.9219 L-1.5312 13 L-7.5469 13 L-7.5469 11.9219 Q-6.8125 11.1719 -5.5547 9.8984 Q-4.2969 8.625 -3.9688 8.25 Q-3.3594 7.5625 -3.1172 7.0781 Q-2.875 6.5938 -2.875 6.1406 Q-2.875 5.375 -3.3984 4.9062 Q-3.9219 4.4375 -4.7812 4.4375 Q-5.3906 4.4375 -6.0547 4.6406 Q-6.7188 4.8438 -7.4844 5.2812 L-7.4844 3.9844 Q-6.7031 3.6719 -6.0312 3.5078 Q-5.3594 3.3438 -4.8125 3.3438 Q-3.3281 3.3438 -2.4531 4.0859 Q-1.5781 4.8281 -1.5781 6.0625 Q-1.5781 6.6406 -1.7969 7.1641 Q-2.0156 7.6875 -2.5938 8.3906 Q-2.75 8.5781 -3.6016 9.4609 Q-4.4531 10.3438 -6 11.9219 ZM4.0948 4.3594 Q3.1104 4.3594 2.6104 5.3359 Q2.1104 6.3125 2.1104 8.2656 Q2.1104 10.2188 2.6104 11.1953 Q3.1104 12.1719 4.0948 12.1719 Q5.0948 12.1719 5.5948 11.1953 Q6.0948 10.2188 6.0948 8.2656 Q6.0948 6.3125 5.5948 5.3359 Q5.0948 4.3594 4.0948 4.3594 ZM4.0948 3.3438 Q5.6886 3.3438 6.5323 4.6094 Q7.3761 5.875 7.3761 8.2656 Q7.3761 10.6562 6.5323 11.9219 Q5.6886 13.1875 4.0948 13.1875 Q2.5167 13.1875 1.6729 11.9219 Q0.8292 10.6562 0.8292 8.2656 Q0.8292 5.875 1.6729 4.6094 Q2.5167 3.3438 4.0948 3.3438 Z"
    /></g
    ><g transform="translate(345,389.3333)" style="font-size:13.3333px; fill:rgb(38,38,38); text-rendering:geometricPrecision; image-rendering:optimizeQuality; color-rendering:optimizeQuality; font-family:'SansSerif'; stroke:rgb(38,38,38); color-interpolation:linearRGB;"
    ><path style="stroke:none;" d="M-3.5938 4.6406 L-6.8281 9.7031 L-3.5938 9.7031 L-3.5938 4.6406 ZM-3.9219 3.5156 L-2.3125 3.5156 L-2.3125 9.7031 L-0.9531 9.7031 L-0.9531 10.7656 L-2.3125 10.7656 L-2.3125 13 L-3.5938 13 L-3.5938 10.7656 L-7.8594 10.7656 L-7.8594 9.5312 L-3.9219 3.5156 ZM4.0948 4.3594 Q3.1104 4.3594 2.6104 5.3359 Q2.1104 6.3125 2.1104 8.2656 Q2.1104 10.2188 2.6104 11.1953 Q3.1104 12.1719 4.0948 12.1719 Q5.0948 12.1719 5.5948 11.1953 Q6.0948 10.2188 6.0948 8.2656 Q6.0948 6.3125 5.5948 5.3359 Q5.0948 4.3594 4.0948 4.3594 ZM4.0948 3.3438 Q5.6886 3.3438 6.5323 4.6094 Q7.3761 5.875 7.3761 8.2656 Q7.3761 10.6562 6.5323 11.9219 Q5.6886 13.1875 4.0948 13.1875 Q2.5167 13.1875 1.6729 11.9219 Q0.8292 10.6562 0.8292 8.2656 Q0.8292 5.875 1.6729 4.6094 Q2.5167 3.3438 4.0948 3.3438 Z"
    /></g
    ><g transform="translate(419,389.3333)" style="font-size:13.3333px; fill:rgb(38,38,38); text-rendering:geometricPrecision; image-rendering:optimizeQuality; color-rendering:optimizeQuality; font-family:'SansSerif'; stroke:rgb(38,38,38); color-interpolation:linearRGB;"
    ><path style="stroke:none;" d="M-4.2031 7.75 Q-5.0781 7.75 -5.5781 8.3438 Q-6.0781 8.9375 -6.0781 9.9531 Q-6.0781 10.9844 -5.5781 11.5781 Q-5.0781 12.1719 -4.2031 12.1719 Q-3.3438 12.1719 -2.8438 11.5781 Q-2.3438 10.9844 -2.3438 9.9531 Q-2.3438 8.9375 -2.8438 8.3438 Q-3.3438 7.75 -4.2031 7.75 ZM-1.6562 3.7344 L-1.6562 4.9062 Q-2.1406 4.6719 -2.6328 4.5547 Q-3.125 4.4375 -3.6094 4.4375 Q-4.875 4.4375 -5.5469 5.2891 Q-6.2188 6.1406 -6.3125 7.875 Q-5.9375 7.3281 -5.375 7.0312 Q-4.8125 6.7344 -4.125 6.7344 Q-2.7031 6.7344 -1.875 7.6016 Q-1.0469 8.4688 -1.0469 9.9531 Q-1.0469 11.4219 -1.9141 12.3047 Q-2.7812 13.1875 -4.2031 13.1875 Q-5.8594 13.1875 -6.7266 11.9219 Q-7.5938 10.6562 -7.5938 8.2656 Q-7.5938 6.0312 -6.5234 4.6875 Q-5.4531 3.3438 -3.6562 3.3438 Q-3.1875 3.3438 -2.6953 3.4453 Q-2.2031 3.5469 -1.6562 3.7344 ZM4.0948 4.3594 Q3.1104 4.3594 2.6104 5.3359 Q2.1104 6.3125 2.1104 8.2656 Q2.1104 10.2188 2.6104 11.1953 Q3.1104 12.1719 4.0948 12.1719 Q5.0948 12.1719 5.5948 11.1953 Q6.0948 10.2188 6.0948 8.2656 Q6.0948 6.3125 5.5948 5.3359 Q5.0948 4.3594 4.0948 4.3594 ZM4.0948 3.3438 Q5.6886 3.3438 6.5323 4.6094 Q7.3761 5.875 7.3761 8.2656 Q7.3761 10.6562 6.5323 11.9219 Q5.6886 13.1875 4.0948 13.1875 Q2.5167 13.1875 1.6729 11.9219 Q0.8292 10.6562 0.8292 8.2656 Q0.8292 5.875 1.6729 4.6094 Q2.5167 3.3438 4.0948 3.3438 Z"
    /></g
    ><g transform="translate(493,389.3333)" style="font-size:13.3333px; fill:rgb(38,38,38); text-rendering:geometricPrecision; image-rendering:optimizeQuality; color-rendering:optimizeQuality; font-family:'SansSerif'; stroke:rgb(38,38,38); color-interpolation:linearRGB;"
    ><path style="stroke:none;" d="M-4.375 8.5 Q-5.2812 8.5 -5.8047 8.9922 Q-6.3281 9.4844 -6.3281 10.3281 Q-6.3281 11.1875 -5.8047 11.6797 Q-5.2812 12.1719 -4.375 12.1719 Q-3.4531 12.1719 -2.9297 11.6797 Q-2.4062 11.1875 -2.4062 10.3281 Q-2.4062 9.4844 -2.9297 8.9922 Q-3.4531 8.5 -4.375 8.5 ZM-5.6562 7.9531 Q-6.4688 7.75 -6.9297 7.1875 Q-7.3906 6.625 -7.3906 5.8125 Q-7.3906 4.6719 -6.5859 4.0078 Q-5.7812 3.3438 -4.375 3.3438 Q-2.9531 3.3438 -2.1484 4.0078 Q-1.3438 4.6719 -1.3438 5.8125 Q-1.3438 6.625 -1.8047 7.1875 Q-2.2656 7.75 -3.0781 7.9531 Q-2.1562 8.1719 -1.6406 8.7969 Q-1.125 9.4219 -1.125 10.3281 Q-1.125 11.7188 -1.9609 12.4531 Q-2.7969 13.1875 -4.375 13.1875 Q-5.9375 13.1875 -6.7812 12.4531 Q-7.625 11.7188 -7.625 10.3281 Q-7.625 9.4219 -7.1016 8.7969 Q-6.5781 8.1719 -5.6562 7.9531 ZM-6.125 5.9219 Q-6.125 6.6719 -5.6641 7.0781 Q-5.2031 7.4844 -4.375 7.4844 Q-3.5469 7.4844 -3.0781 7.0781 Q-2.6094 6.6719 -2.6094 5.9219 Q-2.6094 5.1875 -3.0781 4.7734 Q-3.5469 4.3594 -4.375 4.3594 Q-5.2031 4.3594 -5.6641 4.7734 Q-6.125 5.1875 -6.125 5.9219 ZM4.0948 4.3594 Q3.1104 4.3594 2.6104 5.3359 Q2.1104 6.3125 2.1104 8.2656 Q2.1104 10.2188 2.6104 11.1953 Q3.1104 12.1719 4.0948 12.1719 Q5.0948 12.1719 5.5948 11.1953 Q6.0948 10.2188 6.0948 8.2656 Q6.0948 6.3125 5.5948 5.3359 Q5.0948 4.3594 4.0948 4.3594 ZM4.0948 3.3438 Q5.6886 3.3438 6.5323 4.6094 Q7.3761 5.875 7.3761 8.2656 Q7.3761 10.6562 6.5323 11.9219 Q5.6886 13.1875 4.0948 13.1875 Q2.5167 13.1875 1.6729 11.9219 Q0.8292 10.6562 0.8292 8.2656 Q0.8292 5.875 1.6729 4.6094 Q2.5167 3.3438 4.0948 3.3438 Z"
    /></g
    ><g transform="translate(567,389.3333)" style="font-size:13.3333px; fill:rgb(38,38,38); text-rendering:geometricPrecision; image-rendering:optimizeQuality; color-rendering:optimizeQuality; font-family:'SansSerif'; stroke:rgb(38,38,38); color-interpolation:linearRGB;"
    ><path style="stroke:none;" d="M-11.3906 11.9219 L-9.2969 11.9219 L-9.2969 4.6875 L-11.5781 5.1406 L-11.5781 3.9844 L-9.3125 3.5156 L-8.0156 3.5156 L-8.0156 11.9219 L-5.9219 11.9219 L-5.9219 13 L-11.3906 13 L-11.3906 11.9219 ZM-0.4052 4.3594 Q-1.3896 4.3594 -1.8896 5.3359 Q-2.3896 6.3125 -2.3896 8.2656 Q-2.3896 10.2188 -1.8896 11.1953 Q-1.3896 12.1719 -0.4052 12.1719 Q0.5948 12.1719 1.0948 11.1953 Q1.5948 10.2188 1.5948 8.2656 Q1.5948 6.3125 1.0948 5.3359 Q0.5948 4.3594 -0.4052 4.3594 ZM-0.4052 3.3438 Q1.1886 3.3438 2.0323 4.6094 Q2.8761 5.875 2.8761 8.2656 Q2.8761 10.6562 2.0323 11.9219 Q1.1886 13.1875 -0.4052 13.1875 Q-1.9833 13.1875 -2.8271 11.9219 Q-3.6708 10.6562 -3.6708 8.2656 Q-3.6708 5.875 -2.8271 4.6094 Q-1.9833 3.3438 -0.4052 3.3438 ZM8.0646 4.3594 Q7.0803 4.3594 6.5803 5.3359 Q6.0803 6.3125 6.0803 8.2656 Q6.0803 10.2188 6.5803 11.1953 Q7.0803 12.1719 8.0646 12.1719 Q9.0646 12.1719 9.5646 11.1953 Q10.0646 10.2188 10.0646 8.2656 Q10.0646 6.3125 9.5646 5.3359 Q9.0646 4.3594 8.0646 4.3594 ZM8.0646 3.3438 Q9.6584 3.3438 10.5021 4.6094 Q11.3459 5.875 11.3459 8.2656 Q11.3459 10.6562 10.5021 11.9219 Q9.6584 13.1875 8.0646 13.1875 Q6.4865 13.1875 5.6428 11.9219 Q4.799 10.6562 4.799 8.2656 Q4.799 5.875 5.6428 4.6094 Q6.4865 3.3438 8.0646 3.3438 Z"
    /></g
    ><g transform="translate(308.0002,407.6)" style="font-size:18.6667px; fill:rgb(38,38,38); text-rendering:geometricPrecision; image-rendering:optimizeQuality; color-rendering:optimizeQuality; font-family:'mwb_cmr10'; stroke:rgb(38,38,38); color-interpolation:linearRGB;"
    ><path style="stroke:none;" d="M-20.6479 0.4146 L-20.6479 -0.2417 L-13.7886 -0.2417 L-13.7886 0.4146 L-20.6479 0.4146 Z"
      /><path style="stroke:none;" d="M-24.7248 15.4299 Q-24.7248 15.3831 -24.6858 15.2659 Q-24.6467 15.1487 -24.5998 15.0784 Q-24.553 15.0081 -24.4592 15.0081 Q-22.8186 15.0081 -22.303 14.9143 Q-21.7873 14.7893 -21.678 14.3674 L-19.0842 3.9299 Q-19.0061 3.6956 -19.0061 3.5237 Q-19.0061 3.3674 -19.678 3.3674 L-20.7717 3.3674 Q-22.053 3.3674 -22.7405 3.7581 Q-23.428 4.1487 -23.7561 4.7893 Q-24.0842 5.4299 -24.5842 6.8831 Q-24.6467 7.0549 -24.7873 7.0549 L-24.9436 7.0549 Q-25.1467 7.0549 -25.1467 6.8049 L-23.7873 2.8831 Q-23.7561 2.6956 -23.5998 2.6956 L-12.3811 2.6956 Q-12.178 2.6956 -12.178 2.9456 L-12.8186 6.8831 Q-12.8186 6.9456 -12.8811 7.0002 Q-12.9436 7.0549 -13.0061 7.0549 L-13.178 7.0549 Q-13.3655 7.0549 -13.3655 6.8049 Q-13.1623 5.4612 -13.1623 4.9143 Q-13.1623 4.2424 -13.4358 3.8987 Q-13.7092 3.5549 -14.1545 3.4612 Q-14.5998 3.3674 -15.3186 3.3674 L-16.4436 3.3674 Q-16.9592 3.3674 -17.1311 3.4612 Q-17.303 3.5549 -17.428 4.0237 L-20.0373 14.4456 Q-20.0373 14.4768 -20.0452 14.5159 Q-20.053 14.5549 -20.0686 14.6174 Q-20.0686 14.8518 -19.7873 14.9143 Q-19.2873 15.0081 -17.678 15.0081 Q-17.4905 15.0081 -17.4905 15.2581 Q-17.553 15.5237 -17.592 15.6018 Q-17.6311 15.6799 -17.803 15.6799 L-24.5373 15.6799 Q-24.7248 15.6799 -24.7248 15.4299 Z"
      /><path style="stroke:none;" d="M-4.6638 20.4299 L-4.6638 1.4299 L-2.0701 1.4299 L-2.0701 2.1956 L-3.9138 2.1956 L-3.9138 19.6643 L-2.0701 19.6643 L-2.0701 20.4299 L-4.6638 20.4299 Z"
      /><path style="stroke:none;" d="M1.5214 8.1716 Q0.8495 8.1716 0.2714 7.8356 Q-0.3068 7.4997 -0.6505 6.9059 Q-0.9943 6.3122 -0.9943 5.6559 Q-0.9943 4.9997 -0.6505 4.4059 Q-0.3068 3.8122 0.2714 3.4763 Q0.8495 3.1403 1.5214 3.1403 Q2.1932 3.1403 2.7714 3.4841 Q3.3495 3.8278 3.6854 4.4138 Q4.0214 4.9997 4.0214 5.6559 Q4.0214 6.3122 3.6854 6.8981 Q3.3495 7.4841 2.7714 7.8278 Q2.1932 8.1716 1.5214 8.1716 ZM1.5214 7.6559 Q2.3339 7.6559 2.9198 7.0622 Q3.5057 6.4684 3.5057 5.6559 Q3.5057 5.1403 3.2401 4.6716 Q2.9745 4.2028 2.5135 3.9294 Q2.0526 3.6559 1.5214 3.6559 Q1.1151 3.6559 0.7557 3.8122 Q0.3964 3.9684 0.1151 4.2497 Q-0.1661 4.5309 -0.3224 4.8903 Q-0.4786 5.2497 -0.4786 5.6559 Q-0.4786 6.4684 0.1073 7.0622 Q0.6932 7.6559 1.5214 7.6559 Z"
      /><path style="stroke:none;" d="M8.5193 11.5862 Q8.5193 12.7268 8.9568 13.594 Q9.3943 14.4612 10.2302 14.9456 Q11.0662 15.4299 12.2068 15.4299 Q13.4099 15.4299 14.5193 14.8206 Q15.6287 14.2112 16.4099 13.1799 Q17.1912 12.1487 17.488 11.0081 Q17.5193 10.8987 17.6287 10.8987 L17.863 10.8987 Q17.9412 10.8987 17.988 10.9456 Q18.0349 10.9924 18.0349 11.0549 Q18.0349 11.0706 18.0193 11.1174 Q17.6912 12.4299 16.7537 13.5862 Q15.8162 14.7424 14.5193 15.4221 Q13.2224 16.1018 11.8474 16.1018 Q10.363 16.1018 9.1833 15.4299 Q8.0037 14.7581 7.3552 13.5706 Q6.7068 12.3831 6.7068 10.8987 Q6.7068 9.2893 7.4177 7.7268 Q8.1287 6.1643 9.3396 4.9456 Q10.5505 3.7268 12.0896 3.0081 Q13.6287 2.2893 15.2224 2.2893 Q15.8474 2.2893 16.4255 2.4768 Q17.0037 2.6643 17.4958 3.0549 Q17.988 3.4456 18.3005 3.9456 L19.8005 2.3206 Q19.8005 2.2893 19.8943 2.2893 L20.0037 2.2893 Q20.0818 2.2893 20.1287 2.3518 Q20.1755 2.4143 20.1755 2.4768 L18.8787 7.6018 Q18.8787 7.7424 18.738 7.7424 L18.3943 7.7424 Q18.238 7.7424 18.238 7.5237 Q18.3162 7.1018 18.3162 6.5237 Q18.3162 5.6018 18.0037 4.7737 Q17.6912 3.9456 17.0271 3.4456 Q16.363 2.9456 15.4099 2.9456 Q13.863 2.9456 12.5662 3.7268 Q11.2693 4.5081 10.3787 5.7737 Q9.488 7.0393 9.0037 8.5862 Q8.5193 10.1331 8.5193 11.5862 Z"
      /><path style="stroke:none;" d="M20.8365 20.4299 L20.8365 19.6643 L22.6803 19.6643 L22.6803 2.1956 L20.8365 2.1956 L20.8365 1.4299 L23.4459 1.4299 L23.4459 20.4299 L20.8365 20.4299 Z"
    /></g
    ><g style="fill:rgb(38,38,38); text-rendering:geometricPrecision; image-rendering:optimizeQuality; color-rendering:optimizeQuality; stroke-linejoin:round; stroke:rgb(38,38,38); color-interpolation:linearRGB; stroke-width:0.6667;"
    ><line y2="8" style="fill:none;" x1="49" x2="49" y1="384"
      /><line y2="8" style="fill:none;" x1="567" x2="567" y1="384"
      /><line y2="384" style="fill:none;" x1="49" x2="54.18" y1="384"
      /><line y2="337" style="fill:none;" x1="49" x2="54.18" y1="337"
      /><line y2="290" style="fill:none;" x1="49" x2="54.18" y1="290"
      /><line y2="243" style="fill:none;" x1="49" x2="54.18" y1="243"
      /><line y2="196" style="fill:none;" x1="49" x2="54.18" y1="196"
      /><line y2="149" style="fill:none;" x1="49" x2="54.18" y1="149"
      /><line y2="102" style="fill:none;" x1="49" x2="54.18" y1="102"
      /><line y2="55" style="fill:none;" x1="49" x2="54.18" y1="55"
      /><line y2="8" style="fill:none;" x1="49" x2="54.18" y1="8"
      /><line y2="384" style="fill:none;" x1="567" x2="561.82" y1="384"
      /><line y2="337" style="fill:none;" x1="567" x2="561.82" y1="337"
      /><line y2="290" style="fill:none;" x1="567" x2="561.82" y1="290"
      /><line y2="243" style="fill:none;" x1="567" x2="561.82" y1="243"
      /><line y2="196" style="fill:none;" x1="567" x2="561.82" y1="196"
      /><line y2="149" style="fill:none;" x1="567" x2="561.82" y1="149"
      /><line y2="102" style="fill:none;" x1="567" x2="561.82" y1="102"
      /><line y2="55" style="fill:none;" x1="567" x2="561.82" y1="55"
      /><line y2="8" style="fill:none;" x1="567" x2="561.82" y1="8"
    /></g
    ><g transform="translate(43.6667,384)" style="font-size:13.3333px; fill:rgb(38,38,38); text-rendering:geometricPrecision; image-rendering:optimizeQuality; color-rendering:optimizeQuality; font-family:'SansSerif'; stroke:rgb(38,38,38); color-interpolation:linearRGB;"
    ><path style="stroke:none;" d="M-4.875 -4.1406 Q-5.8594 -4.1406 -6.3594 -3.1641 Q-6.8594 -2.1875 -6.8594 -0.2344 Q-6.8594 1.7188 -6.3594 2.6953 Q-5.8594 3.6719 -4.875 3.6719 Q-3.875 3.6719 -3.375 2.6953 Q-2.875 1.7188 -2.875 -0.2344 Q-2.875 -2.1875 -3.375 -3.1641 Q-3.875 -4.1406 -4.875 -4.1406 ZM-4.875 -5.1562 Q-3.2812 -5.1562 -2.4375 -3.8906 Q-1.5938 -2.625 -1.5938 -0.2344 Q-1.5938 2.1562 -2.4375 3.4219 Q-3.2812 4.6875 -4.875 4.6875 Q-6.4531 4.6875 -7.2969 3.4219 Q-8.1406 2.1562 -8.1406 -0.2344 Q-8.1406 -2.625 -7.2969 -3.8906 Q-6.4531 -5.1562 -4.875 -5.1562 Z"
    /></g
    ><g transform="translate(43.6667,337)" style="font-size:13.3333px; fill:rgb(38,38,38); text-rendering:geometricPrecision; image-rendering:optimizeQuality; color-rendering:optimizeQuality; font-family:'SansSerif'; stroke:rgb(38,38,38); color-interpolation:linearRGB;"
    ><path style="stroke:none;" d="M-7.5938 -4.9844 L-2.5625 -4.9844 L-2.5625 -3.8906 L-6.4219 -3.8906 L-6.4219 -1.5781 Q-6.1406 -1.6719 -5.8594 -1.7188 Q-5.5781 -1.7656 -5.3125 -1.7656 Q-3.7188 -1.7656 -2.7891 -0.8984 Q-1.8594 -0.0312 -1.8594 1.4531 Q-1.8594 2.9844 -2.8125 3.8359 Q-3.7656 4.6875 -5.5 4.6875 Q-6.0938 4.6875 -6.7188 4.5859 Q-7.3438 4.4844 -8 4.2812 L-8 2.9844 Q-7.4219 3.2969 -6.8125 3.4531 Q-6.2031 3.6094 -5.5312 3.6094 Q-4.4219 3.6094 -3.7812 3.0312 Q-3.1406 2.4531 -3.1406 1.4531 Q-3.1406 0.4688 -3.7812 -0.1094 Q-4.4219 -0.6875 -5.5312 -0.6875 Q-6.0469 -0.6875 -6.5547 -0.5703 Q-7.0625 -0.4531 -7.5938 -0.2188 L-7.5938 -4.9844 Z"
    /></g
    ><g transform="translate(43.6667,290)" style="font-size:13.3333px; fill:rgb(38,38,38); text-rendering:geometricPrecision; image-rendering:optimizeQuality; color-rendering:optimizeQuality; font-family:'SansSerif'; stroke:rgb(38,38,38); color-interpolation:linearRGB;"
    ><path style="stroke:none;" d="M-15.3906 3.4219 L-13.2969 3.4219 L-13.2969 -3.8125 L-15.5781 -3.3594 L-15.5781 -4.5156 L-13.3125 -4.9844 L-12.0156 -4.9844 L-12.0156 3.4219 L-9.9219 3.4219 L-9.9219 4.5 L-15.3906 4.5 L-15.3906 3.4219 ZM-4.4052 -4.1406 Q-5.3896 -4.1406 -5.8896 -3.1641 Q-6.3896 -2.1875 -6.3896 -0.2344 Q-6.3896 1.7188 -5.8896 2.6953 Q-5.3896 3.6719 -4.4052 3.6719 Q-3.4052 3.6719 -2.9052 2.6953 Q-2.4052 1.7188 -2.4052 -0.2344 Q-2.4052 -2.1875 -2.9052 -3.1641 Q-3.4052 -4.1406 -4.4052 -4.1406 ZM-4.4052 -5.1562 Q-2.8114 -5.1562 -1.9677 -3.8906 Q-1.1239 -2.625 -1.1239 -0.2344 Q-1.1239 2.1562 -1.9677 3.4219 Q-2.8114 4.6875 -4.4052 4.6875 Q-5.9833 4.6875 -6.8271 3.4219 Q-7.6708 2.1562 -7.6708 -0.2344 Q-7.6708 -2.625 -6.8271 -3.8906 Q-5.9833 -5.1562 -4.4052 -5.1562 Z"
    /></g
    ><g transform="translate(43.6667,243)" style="font-size:13.3333px; fill:rgb(38,38,38); text-rendering:geometricPrecision; image-rendering:optimizeQuality; color-rendering:optimizeQuality; font-family:'SansSerif'; stroke:rgb(38,38,38); color-interpolation:linearRGB;"
    ><path style="stroke:none;" d="M-15.3906 3.4219 L-13.2969 3.4219 L-13.2969 -3.8125 L-15.5781 -3.3594 L-15.5781 -4.5156 L-13.3125 -4.9844 L-12.0156 -4.9844 L-12.0156 3.4219 L-9.9219 3.4219 L-9.9219 4.5 L-15.3906 4.5 L-15.3906 3.4219 ZM-7.1239 -4.9844 L-2.0927 -4.9844 L-2.0927 -3.8906 L-5.9521 -3.8906 L-5.9521 -1.5781 Q-5.6708 -1.6719 -5.3896 -1.7188 Q-5.1083 -1.7656 -4.8427 -1.7656 Q-3.2489 -1.7656 -2.3192 -0.8984 Q-1.3896 -0.0312 -1.3896 1.4531 Q-1.3896 2.9844 -2.3427 3.8359 Q-3.2958 4.6875 -5.0302 4.6875 Q-5.6239 4.6875 -6.2489 4.5859 Q-6.8739 4.4844 -7.5302 4.2812 L-7.5302 2.9844 Q-6.9521 3.2969 -6.3427 3.4531 Q-5.7333 3.6094 -5.0614 3.6094 Q-3.9521 3.6094 -3.3114 3.0312 Q-2.6708 2.4531 -2.6708 1.4531 Q-2.6708 0.4688 -3.3114 -0.1094 Q-3.9521 -0.6875 -5.0614 -0.6875 Q-5.5771 -0.6875 -6.0849 -0.5703 Q-6.5927 -0.4531 -7.1239 -0.2188 L-7.1239 -4.9844 Z"
    /></g
    ><g transform="translate(43.6667,196)" style="font-size:13.3333px; fill:rgb(38,38,38); text-rendering:geometricPrecision; image-rendering:optimizeQuality; color-rendering:optimizeQuality; font-family:'SansSerif'; stroke:rgb(38,38,38); color-interpolation:linearRGB;"
    ><path style="stroke:none;" d="M-14.5 3.4219 L-10.0312 3.4219 L-10.0312 4.5 L-16.0469 4.5 L-16.0469 3.4219 Q-15.3125 2.6719 -14.0547 1.3984 Q-12.7969 0.125 -12.4688 -0.25 Q-11.8594 -0.9375 -11.6172 -1.4219 Q-11.375 -1.9062 -11.375 -2.3594 Q-11.375 -3.125 -11.8984 -3.5938 Q-12.4219 -4.0625 -13.2812 -4.0625 Q-13.8906 -4.0625 -14.5547 -3.8594 Q-15.2188 -3.6562 -15.9844 -3.2188 L-15.9844 -4.5156 Q-15.2031 -4.8281 -14.5312 -4.9922 Q-13.8594 -5.1562 -13.3125 -5.1562 Q-11.8281 -5.1562 -10.9531 -4.4141 Q-10.0781 -3.6719 -10.0781 -2.4375 Q-10.0781 -1.8594 -10.2969 -1.3359 Q-10.5156 -0.8125 -11.0938 -0.1094 Q-11.25 0.0781 -12.1016 0.9609 Q-12.9531 1.8438 -14.5 3.4219 ZM-4.4052 -4.1406 Q-5.3896 -4.1406 -5.8896 -3.1641 Q-6.3896 -2.1875 -6.3896 -0.2344 Q-6.3896 1.7188 -5.8896 2.6953 Q-5.3896 3.6719 -4.4052 3.6719 Q-3.4052 3.6719 -2.9052 2.6953 Q-2.4052 1.7188 -2.4052 -0.2344 Q-2.4052 -2.1875 -2.9052 -3.1641 Q-3.4052 -4.1406 -4.4052 -4.1406 ZM-4.4052 -5.1562 Q-2.8114 -5.1562 -1.9677 -3.8906 Q-1.1239 -2.625 -1.1239 -0.2344 Q-1.1239 2.1562 -1.9677 3.4219 Q-2.8114 4.6875 -4.4052 4.6875 Q-5.9833 4.6875 -6.8271 3.4219 Q-7.6708 2.1562 -7.6708 -0.2344 Q-7.6708 -2.625 -6.8271 -3.8906 Q-5.9833 -5.1562 -4.4052 -5.1562 Z"
    /></g
    ><g transform="translate(43.6667,149)" style="font-size:13.3333px; fill:rgb(38,38,38); text-rendering:geometricPrecision; image-rendering:optimizeQuality; color-rendering:optimizeQuality; font-family:'SansSerif'; stroke:rgb(38,38,38); color-interpolation:linearRGB;"
    ><path style="stroke:none;" d="M-14.5 3.4219 L-10.0312 3.4219 L-10.0312 4.5 L-16.0469 4.5 L-16.0469 3.4219 Q-15.3125 2.6719 -14.0547 1.3984 Q-12.7969 0.125 -12.4688 -0.25 Q-11.8594 -0.9375 -11.6172 -1.4219 Q-11.375 -1.9062 -11.375 -2.3594 Q-11.375 -3.125 -11.8984 -3.5938 Q-12.4219 -4.0625 -13.2812 -4.0625 Q-13.8906 -4.0625 -14.5547 -3.8594 Q-15.2188 -3.6562 -15.9844 -3.2188 L-15.9844 -4.5156 Q-15.2031 -4.8281 -14.5312 -4.9922 Q-13.8594 -5.1562 -13.3125 -5.1562 Q-11.8281 -5.1562 -10.9531 -4.4141 Q-10.0781 -3.6719 -10.0781 -2.4375 Q-10.0781 -1.8594 -10.2969 -1.3359 Q-10.5156 -0.8125 -11.0938 -0.1094 Q-11.25 0.0781 -12.1016 0.9609 Q-12.9531 1.8438 -14.5 3.4219 ZM-7.1239 -4.9844 L-2.0927 -4.9844 L-2.0927 -3.8906 L-5.9521 -3.8906 L-5.9521 -1.5781 Q-5.6708 -1.6719 -5.3896 -1.7188 Q-5.1083 -1.7656 -4.8427 -1.7656 Q-3.2489 -1.7656 -2.3192 -0.8984 Q-1.3896 -0.0312 -1.3896 1.4531 Q-1.3896 2.9844 -2.3427 3.8359 Q-3.2958 4.6875 -5.0302 4.6875 Q-5.6239 4.6875 -6.2489 4.5859 Q-6.8739 4.4844 -7.5302 4.2812 L-7.5302 2.9844 Q-6.9521 3.2969 -6.3427 3.4531 Q-5.7333 3.6094 -5.0614 3.6094 Q-3.9521 3.6094 -3.3114 3.0312 Q-2.6708 2.4531 -2.6708 1.4531 Q-2.6708 0.4688 -3.3114 -0.1094 Q-3.9521 -0.6875 -5.0614 -0.6875 Q-5.5771 -0.6875 -6.0849 -0.5703 Q-6.5927 -0.4531 -7.1239 -0.2188 L-7.1239 -4.9844 Z"
    /></g
    ><g transform="translate(43.6667,102)" style="font-size:13.3333px; fill:rgb(38,38,38); text-rendering:geometricPrecision; image-rendering:optimizeQuality; color-rendering:optimizeQuality; font-family:'SansSerif'; stroke:rgb(38,38,38); color-interpolation:linearRGB;"
    ><path style="stroke:none;" d="M-11.7188 -0.6094 Q-10.7969 -0.4062 -10.2812 0.2109 Q-9.7656 0.8281 -9.7656 1.75 Q-9.7656 3.1406 -10.7344 3.9141 Q-11.7031 4.6875 -13.4844 4.6875 Q-14.0781 4.6875 -14.7109 4.5703 Q-15.3438 4.4531 -16.0156 4.2188 L-16.0156 2.9688 Q-15.4688 3.2812 -14.8359 3.4453 Q-14.2031 3.6094 -13.5156 3.6094 Q-12.3125 3.6094 -11.6797 3.1328 Q-11.0469 2.6562 -11.0469 1.75 Q-11.0469 0.9062 -11.6328 0.4375 Q-12.2188 -0.0312 -13.2656 -0.0312 L-14.375 -0.0312 L-14.375 -1.0938 L-13.2188 -1.0938 Q-12.2656 -1.0938 -11.7656 -1.4688 Q-11.2656 -1.8438 -11.2656 -2.5625 Q-11.2656 -3.2812 -11.7812 -3.6719 Q-12.2969 -4.0625 -13.2656 -4.0625 Q-13.7969 -4.0625 -14.3984 -3.9531 Q-15 -3.8438 -15.7188 -3.5938 L-15.7188 -4.75 Q-15 -4.9531 -14.3594 -5.0547 Q-13.7188 -5.1562 -13.1562 -5.1562 Q-11.6875 -5.1562 -10.8359 -4.4922 Q-9.9844 -3.8281 -9.9844 -2.6875 Q-9.9844 -1.9062 -10.4375 -1.3594 Q-10.8906 -0.8125 -11.7188 -0.6094 ZM-4.4052 -4.1406 Q-5.3896 -4.1406 -5.8896 -3.1641 Q-6.3896 -2.1875 -6.3896 -0.2344 Q-6.3896 1.7188 -5.8896 2.6953 Q-5.3896 3.6719 -4.4052 3.6719 Q-3.4052 3.6719 -2.9052 2.6953 Q-2.4052 1.7188 -2.4052 -0.2344 Q-2.4052 -2.1875 -2.9052 -3.1641 Q-3.4052 -4.1406 -4.4052 -4.1406 ZM-4.4052 -5.1562 Q-2.8114 -5.1562 -1.9677 -3.8906 Q-1.1239 -2.625 -1.1239 -0.2344 Q-1.1239 2.1562 -1.9677 3.4219 Q-2.8114 4.6875 -4.4052 4.6875 Q-5.9833 4.6875 -6.8271 3.4219 Q-7.6708 2.1562 -7.6708 -0.2344 Q-7.6708 -2.625 -6.8271 -3.8906 Q-5.9833 -5.1562 -4.4052 -5.1562 Z"
    /></g
    ><g transform="translate(43.6667,55)" style="font-size:13.3333px; fill:rgb(38,38,38); text-rendering:geometricPrecision; image-rendering:optimizeQuality; color-rendering:optimizeQuality; font-family:'SansSerif'; stroke:rgb(38,38,38); color-interpolation:linearRGB;"
    ><path style="stroke:none;" d="M-11.7188 -0.6094 Q-10.7969 -0.4062 -10.2812 0.2109 Q-9.7656 0.8281 -9.7656 1.75 Q-9.7656 3.1406 -10.7344 3.9141 Q-11.7031 4.6875 -13.4844 4.6875 Q-14.0781 4.6875 -14.7109 4.5703 Q-15.3438 4.4531 -16.0156 4.2188 L-16.0156 2.9688 Q-15.4688 3.2812 -14.8359 3.4453 Q-14.2031 3.6094 -13.5156 3.6094 Q-12.3125 3.6094 -11.6797 3.1328 Q-11.0469 2.6562 -11.0469 1.75 Q-11.0469 0.9062 -11.6328 0.4375 Q-12.2188 -0.0312 -13.2656 -0.0312 L-14.375 -0.0312 L-14.375 -1.0938 L-13.2188 -1.0938 Q-12.2656 -1.0938 -11.7656 -1.4688 Q-11.2656 -1.8438 -11.2656 -2.5625 Q-11.2656 -3.2812 -11.7812 -3.6719 Q-12.2969 -4.0625 -13.2656 -4.0625 Q-13.7969 -4.0625 -14.3984 -3.9531 Q-15 -3.8438 -15.7188 -3.5938 L-15.7188 -4.75 Q-15 -4.9531 -14.3594 -5.0547 Q-13.7188 -5.1562 -13.1562 -5.1562 Q-11.6875 -5.1562 -10.8359 -4.4922 Q-9.9844 -3.8281 -9.9844 -2.6875 Q-9.9844 -1.9062 -10.4375 -1.3594 Q-10.8906 -0.8125 -11.7188 -0.6094 ZM-7.1239 -4.9844 L-2.0927 -4.9844 L-2.0927 -3.8906 L-5.9521 -3.8906 L-5.9521 -1.5781 Q-5.6708 -1.6719 -5.3896 -1.7188 Q-5.1083 -1.7656 -4.8427 -1.7656 Q-3.2489 -1.7656 -2.3192 -0.8984 Q-1.3896 -0.0312 -1.3896 1.4531 Q-1.3896 2.9844 -2.3427 3.8359 Q-3.2958 4.6875 -5.0302 4.6875 Q-5.6239 4.6875 -6.2489 4.5859 Q-6.8739 4.4844 -7.5302 4.2812 L-7.5302 2.9844 Q-6.9521 3.2969 -6.3427 3.4531 Q-5.7333 3.6094 -5.0614 3.6094 Q-3.9521 3.6094 -3.3114 3.0312 Q-2.6708 2.4531 -2.6708 1.4531 Q-2.6708 0.4688 -3.3114 -0.1094 Q-3.9521 -0.6875 -5.0614 -0.6875 Q-5.5771 -0.6875 -6.0849 -0.5703 Q-6.5927 -0.4531 -7.1239 -0.2188 L-7.1239 -4.9844 Z"
    /></g
    ><g transform="translate(43.6667,8)" style="font-size:13.3333px; fill:rgb(38,38,38); text-rendering:geometricPrecision; image-rendering:optimizeQuality; color-rendering:optimizeQuality; font-family:'SansSerif'; stroke:rgb(38,38,38); color-interpolation:linearRGB;"
    ><path style="stroke:none;" d="M-12.0938 -3.8594 L-15.3281 1.2031 L-12.0938 1.2031 L-12.0938 -3.8594 ZM-12.4219 -4.9844 L-10.8125 -4.9844 L-10.8125 1.2031 L-9.4531 1.2031 L-9.4531 2.2656 L-10.8125 2.2656 L-10.8125 4.5 L-12.0938 4.5 L-12.0938 2.2656 L-16.3594 2.2656 L-16.3594 1.0312 L-12.4219 -4.9844 ZM-4.4052 -4.1406 Q-5.3896 -4.1406 -5.8896 -3.1641 Q-6.3896 -2.1875 -6.3896 -0.2344 Q-6.3896 1.7188 -5.8896 2.6953 Q-5.3896 3.6719 -4.4052 3.6719 Q-3.4052 3.6719 -2.9052 2.6953 Q-2.4052 1.7188 -2.4052 -0.2344 Q-2.4052 -2.1875 -2.9052 -3.1641 Q-3.4052 -4.1406 -4.4052 -4.1406 ZM-4.4052 -5.1562 Q-2.8114 -5.1562 -1.9677 -3.8906 Q-1.1239 -2.625 -1.1239 -0.2344 Q-1.1239 2.1562 -1.9677 3.4219 Q-2.8114 4.6875 -4.4052 4.6875 Q-5.9833 4.6875 -6.8271 3.4219 Q-7.6708 2.1562 -7.6708 -0.2344 Q-7.6708 -2.625 -6.8271 -3.8906 Q-5.9833 -5.1562 -4.4052 -5.1562 Z"
    /></g
    ><g transform="translate(22.4,195.9998) rotate(-90)" style="font-size:18.6667px; fill:rgb(38,38,38); text-rendering:geometricPrecision; image-rendering:optimizeQuality; color-rendering:optimizeQuality; font-family:'mwb_cmmi10'; stroke:rgb(38,38,38); color-interpolation:linearRGB;"
    ><path style="stroke:none;" d="M-24.3927 -6.4388 Q-25.0489 -6.4388 -25.6114 -6.681 Q-26.1739 -6.9232 -26.5958 -7.3841 Q-27.0177 -7.8451 -27.2208 -8.4154 Q-27.4239 -8.9857 -27.4239 -9.6576 Q-27.4239 -10.8451 -26.8614 -11.9623 Q-26.2989 -13.0794 -25.3302 -13.8998 Q-24.3614 -14.7201 -23.2208 -15.0013 Q-23.7833 -16.0326 -24.0723 -16.7826 Q-24.3614 -17.5326 -24.3614 -18.3138 Q-24.3614 -18.8763 -24.0958 -19.3216 Q-23.8302 -19.7669 -23.3536 -20.0169 Q-22.877 -20.2669 -22.2989 -20.2669 Q-21.7364 -20.2669 -20.0489 -19.8919 Q-19.6114 -19.7826 -19.6114 -19.3763 Q-19.6114 -19.0638 -19.8458 -18.7982 Q-20.0802 -18.5326 -20.3927 -18.5326 Q-20.627 -18.5326 -20.8145 -18.6419 Q-21.002 -18.7513 -21.4005 -19.0248 Q-21.7989 -19.2982 -22.1114 -19.4388 Q-22.4239 -19.5794 -22.7677 -19.5794 Q-23.1583 -19.5794 -23.4708 -19.3451 Q-23.7833 -19.1107 -23.7833 -18.7201 Q-23.7833 -18.1263 -23.252 -17.3373 Q-22.7208 -16.5482 -21.7364 -15.3294 Q-20.6114 -13.9076 -20.6114 -12.1732 Q-20.6114 -11.3294 -20.8536 -10.3294 Q-21.0958 -9.3294 -21.5645 -8.4544 Q-22.0333 -7.5794 -22.7677 -7.0091 Q-23.502 -6.4388 -24.3927 -6.4388 ZM-24.3458 -6.9544 Q-23.6114 -6.9544 -23.0723 -7.7201 Q-22.5333 -8.4857 -22.2598 -9.5482 Q-21.9864 -10.6107 -21.9864 -11.3451 Q-21.9864 -12.7669 -22.9864 -14.5326 Q-23.9864 -14.2513 -24.713 -13.3607 Q-25.4395 -12.4701 -25.8067 -11.3138 Q-26.1739 -10.1576 -26.1739 -9.1107 Q-26.1739 -8.2044 -25.7052 -7.5794 Q-25.2364 -6.9544 -24.3458 -6.9544 Z"
      /><path style="stroke:none;" d="M-19.2995 -4.092 Q-19.2839 -4.1232 -19.2682 -4.2092 Q-19.2526 -4.2951 -19.2135 -4.3342 Q-19.1745 -4.3732 -19.112 -4.3732 Q-18.0026 -4.3732 -17.6276 -4.4357 Q-17.2839 -4.5295 -17.2214 -4.8107 L-15.4401 -11.9513 Q-15.3776 -12.1076 -15.3776 -12.2482 Q-15.3776 -12.342 -15.8307 -12.342 L-16.5964 -12.342 Q-17.4557 -12.342 -17.9323 -12.0763 Q-18.4089 -11.8107 -18.6276 -11.3732 Q-18.8464 -10.9357 -19.2057 -9.9357 Q-19.2526 -9.8263 -19.3307 -9.8263 L-19.4557 -9.8263 Q-19.5807 -9.8263 -19.5807 -9.9826 L-18.6589 -12.6857 Q-18.6276 -12.7951 -18.5339 -12.7951 L-10.8464 -12.7951 Q-10.7214 -12.7951 -10.7214 -12.6232 L-11.1432 -9.9357 Q-11.1432 -9.9045 -11.1901 -9.8654 Q-11.237 -9.8263 -11.2682 -9.8263 L-11.3932 -9.8263 Q-11.5182 -9.8263 -11.5182 -9.9826 Q-11.3776 -10.9045 -11.3776 -11.2951 Q-11.3776 -11.7482 -11.5729 -11.9826 Q-11.7682 -12.217 -12.0729 -12.2795 Q-12.3776 -12.342 -12.862 -12.342 L-13.6276 -12.342 Q-13.9714 -12.342 -14.0964 -12.2795 Q-14.2214 -12.217 -14.2995 -11.9045 L-16.0807 -4.7638 Q-16.0964 -4.7326 -16.0964 -4.7092 Q-16.0964 -4.6857 -16.112 -4.6545 Q-16.112 -4.4826 -15.9089 -4.4357 Q-15.5807 -4.3732 -14.4714 -4.3732 Q-14.3464 -4.3732 -14.3464 -4.2013 Q-14.3932 -4.0295 -14.4167 -3.9748 Q-14.4401 -3.9201 -14.5651 -3.9201 L-19.1589 -3.9201 Q-19.2995 -3.9201 -19.2995 -4.092 Z"
      /><path style="stroke:none;" d="M-2.0742 -1.9701 L-2.0742 -20.9701 L0.5196 -20.9701 L0.5196 -20.2044 L-1.3242 -20.2044 L-1.3242 -2.7357 L0.5196 -2.7357 L0.5196 -1.9701 L-2.0742 -1.9701 Z"
      /><path style="stroke:none;" d="M4.111 -14.2284 Q3.4391 -14.2284 2.861 -14.5644 Q2.2829 -14.9003 1.9391 -15.4941 Q1.5954 -16.0878 1.5954 -16.7441 Q1.5954 -17.4003 1.9391 -17.9941 Q2.2829 -18.5878 2.861 -18.9237 Q3.4391 -19.2597 4.111 -19.2597 Q4.7829 -19.2597 5.361 -18.9159 Q5.9391 -18.5722 6.2751 -17.9862 Q6.611 -17.4003 6.611 -16.7441 Q6.611 -16.0878 6.2751 -15.5019 Q5.9391 -14.9159 5.361 -14.5722 Q4.7829 -14.2284 4.111 -14.2284 ZM4.111 -14.7441 Q4.9235 -14.7441 5.5095 -15.3378 Q6.0954 -15.9316 6.0954 -16.7441 Q6.0954 -17.2597 5.8298 -17.7284 Q5.5641 -18.1972 5.1032 -18.4706 Q4.6423 -18.7441 4.111 -18.7441 Q3.7048 -18.7441 3.3454 -18.5878 Q2.986 -18.4316 2.7048 -18.1503 Q2.4235 -17.8691 2.2673 -17.5097 Q2.111 -17.1503 2.111 -16.7441 Q2.111 -15.9316 2.697 -15.3378 Q3.2829 -14.7441 4.111 -14.7441 Z"
      /><path style="stroke:none;" d="M11.1089 -10.8138 Q11.1089 -9.6732 11.5464 -8.806 Q11.9839 -7.9388 12.8199 -7.4544 Q13.6558 -6.9701 14.7964 -6.9701 Q15.9996 -6.9701 17.1089 -7.5794 Q18.2183 -8.1888 18.9996 -9.2201 Q19.7808 -10.2513 20.0777 -11.3919 Q20.1089 -11.5013 20.2183 -11.5013 L20.4527 -11.5013 Q20.5308 -11.5013 20.5777 -11.4544 Q20.6246 -11.4076 20.6246 -11.3451 Q20.6246 -11.3294 20.6089 -11.2826 Q20.2808 -9.9701 19.3433 -8.8138 Q18.4058 -7.6576 17.1089 -6.9779 Q15.8121 -6.2982 14.4371 -6.2982 Q12.9527 -6.2982 11.773 -6.9701 Q10.5933 -7.6419 9.9449 -8.8294 Q9.2964 -10.0169 9.2964 -11.5013 Q9.2964 -13.1107 10.0074 -14.6732 Q10.7183 -16.2357 11.9292 -17.4544 Q13.1402 -18.6732 14.6792 -19.3919 Q16.2183 -20.1107 17.8121 -20.1107 Q18.4371 -20.1107 19.0152 -19.9232 Q19.5933 -19.7357 20.0855 -19.3451 Q20.5777 -18.9544 20.8902 -18.4544 L22.3902 -20.0794 Q22.3902 -20.1107 22.4839 -20.1107 L22.5933 -20.1107 Q22.6714 -20.1107 22.7183 -20.0482 Q22.7652 -19.9857 22.7652 -19.9232 L21.4683 -14.7982 Q21.4683 -14.6576 21.3277 -14.6576 L20.9839 -14.6576 Q20.8277 -14.6576 20.8277 -14.8763 Q20.9058 -15.2982 20.9058 -15.8763 Q20.9058 -16.7982 20.5933 -17.6263 Q20.2808 -18.4544 19.6167 -18.9544 Q18.9527 -19.4544 17.9996 -19.4544 Q16.4527 -19.4544 15.1558 -18.6732 Q13.8589 -17.8919 12.9683 -16.6263 Q12.0777 -15.3607 11.5933 -13.8138 Q11.1089 -12.2669 11.1089 -10.8138 Z"
      /><path style="stroke:none;" d="M23.4262 -1.9701 L23.4262 -2.7357 L25.27 -2.7357 L25.27 -20.2044 L23.4262 -20.2044 L23.4262 -20.9701 L26.0356 -20.9701 L26.0356 -1.9701 L23.4262 -1.9701 Z"
    /></g
    ><g style="stroke-linecap:butt; fill:rgb(0,114,189); text-rendering:geometricPrecision; image-rendering:optimizeQuality; color-rendering:optimizeQuality; stroke-linejoin:round; stroke:rgb(0,114,189); color-interpolation:linearRGB; stroke-width:0.6667;"
    ><path d="M48.9383 153.1598 L49.0159 153.14 L50.8225 152.6811 L52.6292 152.2221 L54.4358 151.7631 L56.2425 151.3041 L58.0491 150.8451 L59.8557 150.3861 L61.6624 149.9272 L63.469 149.4682 L65.2757 149.0092 L67.0823 148.5502 L68.8889 148.0912 L70.6956 147.6322 L72.5022 147.1732 L74.3089 146.7143 L76.1155 146.2553 L77.9221 145.7963 L79.7288 145.3373 L81.5354 144.8783 L83.3421 144.4193 L85.1487 143.9604 L86.9554 143.5014 L88.762 143.0424 L90.5686 142.5834 L92.3753 142.1244 L94.1819 141.6654 L95.9886 141.2065 L97.7952 140.7475 L99.6018 140.2885 L101.4085 139.8295 L103.2151 139.3705 L105.0218 138.9115 L106.8284 138.4525 L108.635 137.9936 L110.4417 137.5346 L112.2483 137.0756 L114.055 136.6166 L115.8616 136.1576 L117.6682 135.6986 L119.4749 135.2397 L121.2815 134.7807 L123.0882 134.3217 L124.8948 133.8627 L126.7014 133.4037 L128.5081 132.9447 L130.3147 132.4857 L132.1214 132.0268 L133.928 131.5678 L135.7346 131.1088 L137.5413 130.6498 L139.3479 130.1908 L141.1546 129.7318 L142.9612 129.2729 L144.7679 128.8139 L146.5745 128.3549 L148.3811 127.8959 L150.1878 127.4369 L151.9944 126.9779 L153.8011 126.5189 L155.6077 126.06 L157.4143 125.601 L159.221 125.142 L161.0276 124.683 L162.8343 124.224 L164.6409 123.765 L166.4475 123.3061 L168.2542 122.8471 L170.0608 122.3881 L171.8675 121.9291 L173.6741 121.4701 L175.4807 121.0111 L177.2874 120.5521 L179.094 120.0932 L180.9007 119.6342 L182.7073 119.1752 L184.5139 118.7162 L186.3206 118.2572 L188.1272 117.7982 L189.9339 117.3393 L191.7405 116.8803 L193.5471 116.4213 L195.3538 115.9623 L197.1604 115.5033 L198.9671 115.0443 L200.7737 114.5854 L202.5804 114.1264 L204.387 113.6674 L206.1936 113.2084 L208.0003 112.7494 L209.8069 112.2904 L211.6136 111.8314 L213.4202 111.3725 L215.2268 110.9135 L217.0335 110.4545 L218.8401 109.9955 L220.6468 109.5365 L222.4534 109.0775 L224.26 108.6186 L226.0667 108.1596 L227.8733 107.7006 L229.68 107.2416 L231.4866 106.7826 L233.2932 106.3236 L235.0999 105.8646 L236.9065 105.4057 L238.7132 104.9467 L240.5198 104.4877 L242.3264 104.0287 L244.1331 103.5697 L245.9397 103.1107 L247.7464 102.6518 L249.553 102.1928 L251.3596 101.7338 L253.1663 101.2748 L254.9729 100.8158 L256.7796 100.3568 L258.5862 99.8979 L260.3929 99.4389 L262.1995 98.9799 L264.0061 98.5209 L265.8128 98.0619 L267.6194 97.6029 L269.4261 97.1439 L271.2327 96.685 L273.0393 96.226 L274.846 95.767 L276.6526 95.308 L278.4593 94.849 L280.2659 94.39 L282.0725 93.9311 L283.8792 93.4721 L285.6858 93.0131 L287.4925 92.5541 L289.2991 92.0951 L291.1057 91.6361 L292.9124 91.1771 L294.719 90.7182 L296.5257 90.2592 L298.3323 89.8002 L300.1389 89.3412 L301.9456 88.8822 L303.7522 88.4232 L305.5589 87.9643 L307.3655 87.5053 L309.1721 87.0463 L310.9788 86.5873 L312.7854 86.1283 L314.5921 85.6693 L316.3987 85.2104 L318.2054 84.7514 L320.012 84.2924 L321.8186 83.8334 L323.6253 83.3744 L325.4319 82.9154 L327.2386 82.4564 L329.0452 81.9975 L330.8518 81.5385 L332.6585 81.0795 L334.4651 80.6205 L336.2718 80.1615 L338.0784 79.7025 L339.885 79.2436 L341.6917 78.7846 L343.4983 78.3256 L345.305 77.8666 L347.1116 77.4076 L348.9182 76.9486 L350.7249 76.4896 L352.5315 76.0307 L354.3382 75.5717 L356.1448 75.1127 L357.9514 74.6537 L359.7581 74.1947 L361.5647 73.7357 L363.3714 73.2768 L365.178 72.8178 L366.9846 72.3588 L368.7913 71.8998 L370.5979 71.4408 L372.4046 70.9818 L374.2112 70.5229 L376.0179 70.0639 L377.8245 69.6049 L379.6311 69.1459 L381.4378 68.6869 L383.2444 68.2279 L385.0511 67.7689 L386.8577 67.31 L388.6643 66.851 L390.471 66.392 L392.2776 65.933 L394.0843 65.474 L395.8909 65.015 L397.6975 64.5561 L399.5042 64.0971 L401.3108 63.6381 L403.1175 63.1791 L404.9241 62.7201 L406.7307 62.2611 L408.5374 61.8021 L410.344 61.3432 L412.1507 60.8842 L413.9573 60.4252 L415.7639 59.9662 L417.5706 59.5072 L419.3772 59.0482 L421.1839 58.5893 L422.9905 58.1303 L424.7971 57.6713 L426.6038 57.2123 L428.4104 56.7533 L430.2171 56.2943 L432.0237 55.8354 L433.8304 55.3764 L435.637 54.9174 L437.4436 54.4584 L439.2503 53.9994 L441.0569 53.5404 L442.8636 53.0814 L444.6702 52.6225 L446.4768 52.1635 L448.2835 51.7045 L450.0901 51.2455 L451.8968 50.7865 L453.7034 50.3275 L455.51 49.8686 L457.3167 49.4096 L459.1233 48.9506 L460.93 48.4916 L462.7366 48.0326 L464.5432 47.5736 L466.3499 47.1146 L468.1565 46.6557 L469.9632 46.1967 L471.7698 45.7377 L473.5764 45.2787 L475.3831 44.8197 L477.1897 44.3607 L478.9964 43.9018 L480.803 43.4428 L482.6096 42.9838 L484.4163 42.5248 L486.2229 42.0658 L488.0296 41.6068 L489.8362 41.1479 L491.6429 40.6889 L493.4495 40.2299 L495.2561 39.7709 L497.0628 39.3119 L498.8694 38.8529 L500.6761 38.3939 L502.4827 37.935 L504.2893 37.476 L506.096 37.017 L507.9026 36.558 L509.7093 36.099 L511.5159 35.64 L513.3225 35.1811 L515.1292 34.7221 L516.9358 34.2631 L518.7424 33.8041 L520.5491 33.3451 L522.3557 32.8861 L524.1624 32.4271 L525.969 31.9682 L527.7756 31.5092 L529.5823 31.0502 L531.3889 30.5912 L533.1956 30.1322 L535.0022 29.6732 L536.8088 29.2143 L538.6155 28.7553 L540.4221 28.2963 L542.2288 27.8373 L544.0354 27.3783 L545.842 26.9193 L547.6487 26.4604 L549.4553 26.0014 L551.262 25.5424 L553.0686 25.0834 L554.8752 24.6244 L556.6819 24.1654 L558.4885 23.7064 L560.2952 23.2475 L562.1018 22.7885 L563.9084 22.3295 L565.7151 21.8705 L567.0618 21.5284" style="fill:none; fill-rule:evenodd;"
      /><path d="M48.9383 381.7051 L49.0159 381.7051 L50.8225 381.7051 L52.6292 381.7051 L54.4358 381.7051 L56.2425 381.7051 L58.0491 381.7051 L59.8557 381.7051 L61.6624 381.7051 L63.469 381.7051 L65.2757 381.7051 L67.0823 381.7051 L68.8889 381.7051 L70.6956 381.7051 L72.5022 381.7051 L74.3089 381.7051 L76.1155 381.7051 L77.9221 381.7051 L79.7288 381.7051 L81.5354 381.7051 L83.3421 381.7051 L85.1487 381.7051 L86.9554 381.7051 L88.762 381.7051 L90.5686 381.7051 L92.3753 381.7051 L94.1819 381.7051 L95.9886 381.7051 L97.7952 381.7051 L99.6018 381.7051 L101.4085 381.7051 L103.2151 381.7051 L105.0218 381.7051 L106.8284 381.7051 L108.635 381.7051 L110.4417 381.7051 L112.2483 381.7051 L114.055 381.7051 L115.8616 381.7051 L117.6682 381.7051 L119.4749 381.7051 L121.2815 381.7051 L123.0882 381.7051 L124.8948 381.7051 L126.7014 381.7051 L128.5081 381.7051 L130.3147 381.7051 L132.1214 381.7051 L133.928 381.7051 L135.7346 381.7051 L137.5413 381.7051 L139.3479 381.7051 L141.1546 381.7051 L142.9612 381.7051 L144.7679 381.7051 L146.5745 381.7051 L148.3811 381.7051 L150.1878 381.7051 L151.9944 381.7051 L153.8011 381.7051 L155.6077 381.7051 L157.4143 381.7051 L159.221 381.7051 L161.0276 381.7051 L162.8343 381.7051 L164.6409 381.7051 L166.4475 381.7051 L168.2542 381.7051 L170.0608 381.7051 L171.8675 381.7051 L173.6741 381.7051 L175.4807 381.7051 L177.2874 381.7051 L179.094 381.7051 L180.9007 381.7051 L182.7073 381.7051 L184.5139 381.7051 L186.3206 381.7051 L188.1272 381.7051 L189.9339 381.7051 L191.7405 381.7051 L193.5471 381.7051 L195.3538 381.7051 L197.1604 381.7051 L198.9671 381.7051 L200.7737 381.7051 L202.5804 381.7051 L204.387 381.7051 L206.1936 381.7051 L208.0003 381.7051 L209.8069 381.7051 L211.6136 381.7051 L213.4202 381.7051 L215.2268 381.7051 L217.0335 381.7051 L218.8401 381.7051 L220.6468 381.7051 L222.4534 381.7051 L224.26 381.7051 L226.0667 381.7051 L227.8733 381.7051 L229.68 381.7051 L231.4866 381.7051 L233.2932 381.7051 L235.0999 381.7051 L236.9065 381.7051 L238.7132 381.7051 L240.5198 381.7051 L242.3264 381.7051 L244.1331 381.7051 L245.9397 381.7051 L247.7464 381.7051 L249.553 381.7051 L251.3596 381.7051 L253.1663 381.7051 L254.9729 381.7051 L256.7796 381.7051 L258.5862 381.7051 L260.3929 381.7051 L262.1995 381.7051 L264.0061 381.7051 L265.8128 381.7051 L267.6194 381.7051 L269.4261 381.7051 L271.2327 381.7051 L273.0393 381.7051 L274.846 381.7051 L276.6526 381.7051 L278.4593 381.7051 L280.2659 381.7051 L282.0725 381.7051 L283.8792 381.7051 L285.6858 381.7051 L287.4925 381.7051 L289.2991 381.7051 L291.1057 381.7051 L292.9124 381.7051 L294.719 381.7051 L296.5257 381.7051 L298.3323 381.7051 L300.1389 381.7051 L301.9456 381.7051 L303.7522 381.7051 L305.5589 381.7051 L307.3655 381.7051 L309.1721 381.7051 L310.9788 381.7051 L312.7854 381.7051 L314.5921 381.7051 L316.3987 381.7051 L318.2054 381.7051 L320.012 381.7051 L321.8186 381.7051 L323.6253 381.7051 L325.4319 381.7051 L327.2386 381.7051 L329.0452 381.7051 L330.8518 381.7051 L332.6585 381.7051 L334.4651 381.7051 L336.2718 381.7051 L338.0784 381.7051 L339.885 381.7051 L341.6917 381.7051 L343.4983 381.7051 L345.305 381.7051 L347.1116 381.7051 L348.9182 381.7051 L350.7249 381.7051 L352.5315 381.7051 L354.3382 381.7051 L356.1448 381.7051 L357.9514 381.7051 L359.7581 381.7051 L361.5647 381.7051 L363.3714 381.7051 L365.178 381.7051 L366.9846 381.7051 L368.7913 381.7051 L370.5979 381.7051 L372.4046 381.7051 L374.2112 381.7051 L376.0179 381.7051 L377.8245 381.7051 L379.6311 381.7051 L381.4378 381.7051 L383.2444 381.7051 L385.0511 381.7051 L386.8577 381.7051 L388.6643 381.7051 L390.471 381.7051 L392.2776 381.7051 L394.0843 381.7051 L395.8909 381.7051 L397.6975 381.7051 L399.5042 381.7051 L401.3108 381.7051 L403.1175 381.7051 L404.9241 381.7051 L406.7307 381.7051 L408.5374 381.7051 L410.344 381.7051 L412.1507 381.7051 L413.9573 381.7051 L415.7639 381.7051 L417.5706 381.7051 L419.3772 381.7051 L421.1839 381.7051 L422.9905 381.7051 L424.7971 381.7051 L426.6038 381.7051 L428.4104 381.7051 L430.2171 381.7051 L432.0237 381.7051 L433.8304 381.7051 L435.637 381.7051 L437.4436 381.7051 L439.2503 381.7051 L441.0569 381.7051 L442.8636 381.7051 L444.6702 381.7051 L446.4768 381.7051 L448.2835 381.7051 L450.0901 381.7051 L451.8968 381.7051 L453.7034 381.7051 L455.51 381.7051 L457.3167 381.7051 L459.1233 381.7051 L460.93 381.7051 L462.7366 381.7051 L464.5432 381.7051 L466.3499 381.7051 L468.1565 381.7051 L469.9632 381.7051 L471.7698 381.7051 L473.5764 381.7051 L475.3831 381.7051 L477.1897 381.7051 L478.9964 381.7051 L480.803 381.7051 L482.6096 381.7051 L484.4163 381.7051 L486.2229 381.7051 L488.0296 381.7051 L489.8362 381.7051 L491.6429 381.7051 L493.4495 381.7051 L495.2561 381.7051 L497.0628 381.7051 L498.8694 381.7051 L500.6761 381.7051 L502.4827 381.7051 L504.2893 381.7051 L506.096 381.7051 L507.9026 381.7051 L509.7093 381.7051 L511.5159 381.7051 L513.3225 381.7051 L515.1292 381.7051 L516.9358 381.7051 L518.7424 381.7051 L520.5491 381.7051 L522.3557 381.7051 L524.1624 381.7051 L525.969 381.7051 L527.7756 381.7051 L529.5823 381.7051 L531.3889 381.7051 L533.1956 381.7051 L535.0022 381.7051 L536.8088 381.7051 L538.6155 381.7051 L540.4221 381.7051 L542.2288 381.7051 L544.0354 381.7051 L545.842 381.7051 L547.6487 381.7051 L549.4553 381.7051 L551.262 381.7051 L553.0686 381.7051 L554.8752 381.7051 L556.6819 381.7051 L558.4885 381.7051 L560.2952 381.7051 L562.1018 381.7051 L563.9084 381.7051 L565.7151 381.7051 L567.0618 381.7051" style="fill:none; fill-rule:evenodd; stroke:rgb(217,83,25);"
      /><path d="M48.9383 164.8547 L49.0159 164.835 L50.8225 164.376 L52.6292 163.917 L54.4358 163.458 L56.2425 162.999 L58.0491 162.54 L59.8557 162.0811 L61.6624 161.6221 L63.469 161.1631 L65.2757 160.7041 L67.0823 160.2451 L68.8889 159.7861 L70.6956 159.3271 L72.5022 158.8682 L74.3089 158.4092 L76.1155 157.9502 L77.9221 157.4912 L79.7288 157.0322 L81.5354 156.5732 L83.3421 156.1143 L85.1487 155.6553 L86.9554 155.1963 L88.762 154.7373 L90.5686 154.2783 L92.3753 153.8193 L94.1819 153.3604 L95.9886 152.9014 L97.7952 152.4424 L99.6018 151.9834 L101.4085 151.5244 L103.2151 151.0654 L105.0218 150.6064 L106.8284 150.1475 L108.635 149.6885 L110.4417 149.2295 L112.2483 148.7705 L114.055 148.3115 L115.8616 147.8525 L117.6682 147.3936 L119.4749 146.9346 L121.2815 146.4756 L123.0882 146.0166 L124.8948 145.5576 L126.7014 145.0986 L128.5081 144.6396 L130.3147 144.1807 L132.1214 143.7217 L133.928 143.2627 L135.7346 142.8037 L137.5413 142.3447 L139.3479 141.8857 L141.1546 141.4268 L142.9612 140.9678 L144.7679 140.5088 L146.5745 140.0498 L148.3811 139.5908 L150.1878 139.1318 L151.9944 138.6729 L153.8011 138.2139 L155.6077 137.7549 L157.4143 137.2959 L159.221 136.8369 L161.0276 136.3779 L162.8343 135.9189 L164.6409 135.46 L166.4475 135.001 L168.2542 134.542 L170.0608 134.083 L171.8675 133.624 L173.6741 133.165 L175.4807 132.7061 L177.2874 132.2471 L179.094 131.7881 L180.9007 131.3291 L182.7073 130.8701 L184.5139 130.4111 L186.3206 129.9521 L188.1272 129.4932 L189.9339 129.0342 L191.7405 128.5752 L193.5471 128.1162 L195.3538 127.6572 L197.1604 127.1982 L198.9671 126.7393 L200.7737 126.2803 L202.5804 125.8213 L204.387 125.3623 L206.1936 124.9033 L208.0003 124.4443 L209.8069 123.9854 L211.6136 123.5264 L213.4202 123.0674 L215.2268 122.6084 L217.0335 122.1494 L218.8401 121.6904 L220.6468 121.2314 L222.4534 120.7725 L224.26 120.3135 L226.0667 119.8545 L227.8733 119.3955 L229.68 118.9365 L231.4866 118.4775 L233.2932 118.0186 L235.0999 117.5596 L236.9065 117.1006 L238.7132 116.6416 L240.5198 116.1826 L242.3264 115.7236 L244.1331 115.2646 L245.9397 114.8057 L247.7464 114.3467 L249.553 113.8877 L251.3596 113.4287 L253.1663 112.9697 L254.9729 112.5107 L256.7796 112.0518 L258.5862 111.5928 L260.3929 111.1338 L262.1995 110.6748 L264.0061 110.2158 L265.8128 109.7568 L267.6194 109.2979 L269.4261 108.8389 L271.2327 108.3799 L273.0393 107.9209 L274.846 107.4619 L276.6526 107.0029 L278.4593 106.5439 L280.2659 106.085 L282.0725 105.626 L283.8792 105.167 L285.6858 104.708 L287.4925 104.249 L289.2991 103.79 L291.1057 103.3311 L292.9124 102.8721 L294.719 102.4131 L296.5257 101.9541 L298.3323 101.4951 L300.1389 101.0361 L301.9456 100.5771 L303.7522 100.1182 L305.5589 99.6592 L307.3655 99.2002 L309.1721 98.7412 L310.9788 98.2822 L312.7854 97.8232 L314.5921 97.3643 L316.3987 96.9053 L318.2054 96.4463 L320.012 95.9873 L321.8186 95.5283 L323.6253 95.0693 L325.4319 94.6104 L327.2386 94.1514 L329.0452 93.6924 L330.8518 93.2334 L332.6585 92.7744 L334.4651 92.3154 L336.2718 91.8564 L338.0784 91.3975 L339.885 90.9385 L341.6917 90.4795 L343.4983 90.0205 L345.305 89.5615 L347.1116 89.1025 L348.9182 88.6436 L350.7249 88.1846 L352.5315 87.7256 L354.3382 87.2666 L356.1448 86.8076 L357.9514 86.3486 L359.7581 85.8896 L361.5647 85.4307 L363.3714 84.9717 L365.178 84.5127 L366.9846 84.0537 L368.7913 83.5947 L370.5979 83.1357 L372.4046 82.6768 L374.2112 82.2178 L376.0179 81.7588 L377.8245 81.2998 L379.6311 80.8408 L381.4378 80.3818 L383.2444 79.9229 L385.0511 79.4639 L386.8577 79.0049 L388.6643 78.5459 L390.471 78.0869 L392.2776 77.6279 L394.0843 77.1689 L395.8909 76.71 L397.6975 76.251 L399.5042 75.792 L401.3108 75.333 L403.1175 74.874 L404.9241 74.415 L406.7307 73.9561 L408.5374 73.4971 L410.344 73.0381 L412.1507 72.5791 L413.9573 72.1201 L415.7639 71.6611 L417.5706 71.2021 L419.3772 70.7432 L421.1839 70.2842 L422.9905 69.8252 L424.7971 69.3662 L426.6038 68.9072 L428.4104 68.4482 L430.2171 67.9893 L432.0237 67.5303 L433.8304 67.0713 L435.637 66.6123 L437.4436 66.1533 L439.2503 65.6943 L441.0569 65.2354 L442.8636 64.7764 L444.6702 64.3174 L446.4768 63.8584 L448.2835 63.3994 L450.0901 62.9404 L451.8968 62.4814 L453.7034 62.0225 L455.51 61.5635 L457.3167 61.1045 L459.1233 60.6455 L460.93 60.1865 L462.7366 59.7275 L464.5432 59.2686 L466.3499 58.8096 L468.1565 58.3506 L469.9632 57.8916 L471.7698 57.4326 L473.5764 56.9736 L475.3831 56.5146 L477.1897 56.0557 L478.9964 55.5967 L480.803 55.1377 L482.6096 54.6787 L484.4163 54.2197 L486.2229 53.7607 L488.0296 53.3018 L489.8362 52.8428 L491.6429 52.3838 L493.4495 51.9248 L495.2561 51.4658 L497.0628 51.0068 L498.8694 50.5479 L500.6761 50.0889 L502.4827 49.6299 L504.2893 49.1709 L506.096 48.7119 L507.9026 48.2529 L509.7093 47.7939 L511.5159 47.335 L513.3225 46.876 L515.1292 46.417 L516.9358 45.958 L518.7424 45.499 L520.5491 45.04 L522.3557 44.5811 L524.1624 44.1221 L525.969 43.6631 L527.7756 43.2041 L529.5823 42.7451 L531.3889 42.2861 L533.1956 41.8271 L535.0022 41.3682 L536.8088 40.9092 L538.6155 40.4502 L540.4221 39.9912 L542.2288 39.5322 L544.0354 39.0732 L545.842 38.6143 L547.6487 38.1553 L549.4553 37.6963 L551.262 37.2373 L553.0686 36.7783 L554.8752 36.3193 L556.6819 35.8604 L558.4885 35.4014 L560.2952 34.9424 L562.1018 34.4834 L563.9084 34.0244 L565.7151 33.5654 L567.0618 33.2233" style="fill:none; fill-rule:evenodd; stroke:rgb(237,177,32);"
      /><path d="M48.9383 374.6 L49.0159 374.6 L50.8225 374.6 L52.6292 374.6 L54.4358 374.6 L56.2425 374.6 L58.0491 374.6 L59.8557 374.6 L61.6624 374.6 L63.469 374.6 L65.2757 374.6 L67.0823 374.6 L68.8889 374.6 L70.6956 374.6 L72.5022 374.6 L74.3089 374.6 L76.1155 374.6 L77.9221 374.6 L79.7288 374.6 L81.5354 374.6 L83.3421 374.6 L85.1487 374.6 L86.9554 374.6 L88.762 374.6 L90.5686 374.6 L92.3753 374.6 L94.1819 374.6 L95.9886 374.6 L97.7952 374.6 L99.6018 374.6 L101.4085 374.6 L103.2151 374.6 L105.0218 374.6 L106.8284 374.6 L108.635 374.6 L110.4417 374.6 L112.2483 374.6 L114.055 374.6 L115.8616 374.6 L117.6682 374.6 L119.4749 374.6 L121.2815 374.6 L123.0882 374.6 L124.8948 374.6 L126.7014 374.6 L128.5081 374.6 L130.3147 374.6 L132.1214 374.6 L133.928 374.6 L135.7346 374.6 L137.5413 374.6 L139.3479 374.6 L141.1546 374.6 L142.9612 374.6 L144.7679 374.6 L146.5745 374.6 L148.3811 374.6 L150.1878 374.6 L151.9944 374.6 L153.8011 374.6 L155.6077 374.6 L157.4143 374.6 L159.221 374.6 L161.0276 374.6 L162.8343 374.6 L164.6409 374.6 L166.4475 374.6 L168.2542 374.6 L170.0608 374.6 L171.8675 374.6 L173.6741 374.6 L175.4807 374.6 L177.2874 374.6 L179.094 374.6 L180.9007 374.6 L182.7073 374.6 L184.5139 374.6 L186.3206 374.6 L188.1272 374.6 L189.9339 374.6 L191.7405 374.6 L193.5471 374.6 L195.3538 374.6 L197.1604 374.6 L198.9671 374.6 L200.7737 374.6 L202.5804 374.6 L204.387 374.6 L206.1936 374.6 L208.0003 374.6 L209.8069 374.6 L211.6136 374.6 L213.4202 374.6 L215.2268 374.6 L217.0335 374.6 L218.8401 374.6 L220.6468 374.6 L222.4534 374.6 L224.26 374.6 L226.0667 374.6 L227.8733 374.6 L229.68 374.6 L231.4866 374.6 L233.2932 374.6 L235.0999 374.6 L236.9065 374.6 L238.7132 374.6 L240.5198 374.6 L242.3264 374.6 L244.1331 374.6 L245.9397 374.6 L247.7464 374.6 L249.553 374.6 L251.3596 374.6 L253.1663 374.6 L254.9729 374.6 L256.7796 374.6 L258.5862 374.6 L260.3929 374.6 L262.1995 374.6 L264.0061 374.6 L265.8128 374.6 L267.6194 374.6 L269.4261 374.6 L271.2327 374.6 L273.0393 374.6 L274.846 374.6 L276.6526 374.6 L278.4593 374.6 L280.2659 374.6 L282.0725 374.6 L283.8792 374.6 L285.6858 374.6 L287.4925 374.6 L289.2991 374.6 L291.1057 374.6 L292.9124 374.6 L294.719 374.6 L296.5257 374.6 L298.3323 374.6 L300.1389 374.6 L301.9456 374.6 L303.7522 374.6 L305.5589 374.6 L307.3655 374.6 L309.1721 374.6 L310.9788 374.6 L312.7854 374.6 L314.5921 374.6 L316.3987 374.6 L318.2054 374.6 L320.012 374.6 L321.8186 374.6 L323.6253 374.6 L325.4319 374.6 L327.2386 374.6 L329.0452 374.6 L330.8518 374.6 L332.6585 374.6 L334.4651 374.6 L336.2718 374.6 L338.0784 374.6 L339.885 374.6 L341.6917 374.6 L343.4983 374.6 L345.305 374.6 L347.1116 374.6 L348.9182 374.6 L350.7249 374.6 L352.5315 374.6 L354.3382 374.6 L356.1448 374.6 L357.9514 374.6 L359.7581 374.6 L361.5647 374.6 L363.3714 374.6 L365.178 374.6 L366.9846 374.6 L368.7913 374.6 L370.5979 374.6 L372.4046 374.6 L374.2112 374.6 L376.0179 374.6 L377.8245 374.6 L379.6311 374.6 L381.4378 374.6 L383.2444 374.6 L385.0511 374.6 L386.8577 374.6 L388.6643 374.6 L390.471 374.6 L392.2776 374.6 L394.0843 374.6 L395.8909 374.6 L397.6975 374.6 L399.5042 374.6 L401.3108 374.6 L403.1175 374.6 L404.9241 374.6 L406.7307 374.6 L408.5374 374.6 L410.344 374.6 L412.1507 374.6 L413.9573 374.6 L415.7639 374.6 L417.5706 374.6 L419.3772 374.6 L421.1839 374.6 L422.9905 374.6 L424.7971 374.6 L426.6038 374.6 L428.4104 374.6 L430.2171 374.6 L432.0237 374.6 L433.8304 374.6 L435.637 374.6 L437.4436 374.6 L439.2503 374.6 L441.0569 374.6 L442.8636 374.6 L444.6702 374.6 L446.4768 374.6 L448.2835 374.6 L450.0901 374.6 L451.8968 374.6 L453.7034 374.6 L455.51 374.6 L457.3167 374.6 L459.1233 374.6 L460.93 374.6 L462.7366 374.6 L464.5432 374.6 L466.3499 374.6 L468.1565 374.6 L469.9632 374.6 L471.7698 374.6 L473.5764 374.6 L475.3831 374.6 L477.1897 374.6 L478.9964 374.6 L480.803 374.6 L482.6096 374.6 L484.4163 374.6 L486.2229 374.6 L488.0296 374.6 L489.8362 374.6 L491.6429 374.6 L493.4495 374.6 L495.2561 374.6 L497.0628 374.6 L498.8694 374.6 L500.6761 374.6 L502.4827 374.6 L504.2893 374.6 L506.096 374.6 L507.9026 374.6 L509.7093 374.6 L511.5159 374.6 L513.3225 374.6 L515.1292 374.6 L516.9358 374.6 L518.7424 374.6 L520.5491 374.6 L522.3557 374.6 L524.1624 374.6 L525.969 374.6 L527.7756 374.6 L529.5823 374.6 L531.3889 374.6 L533.1956 374.6 L535.0022 374.6 L536.8088 374.6 L538.6155 374.6 L540.4221 374.6 L542.2288 374.6 L544.0354 374.6 L545.842 374.6 L547.6487 374.6 L549.4553 374.6 L551.262 374.6 L553.0686 374.6 L554.8752 374.6 L556.6819 374.6 L558.4885 374.6 L560.2952 374.6 L562.1018 374.6 L563.9084 374.6 L565.7151 374.6 L567.0618 374.6" style="fill:none; fill-rule:evenodd; stroke:rgb(77,190,238);"
    /></g
    ><g style="fill-opacity:0.702; color-rendering:optimizeQuality; color-interpolation:linearRGB; text-rendering:geometricPrecision; stroke:rgb(38,38,38); stroke-linecap:butt; stroke-miterlimit:1; stroke-opacity:0.702; fill:rgb(38,38,38); stroke-dasharray:10,6; stroke-width:0.6667; stroke-linejoin:bevel; image-rendering:optimizeQuality;"
    ><line y2="8" style="fill:none;" x1="289.5" x2="289.5" y1="384"
    /></g
    ><g style="fill:white; text-rendering:optimizeSpeed; color-rendering:optimizeSpeed; image-rendering:optimizeSpeed; shape-rendering:crispEdges; stroke:white; color-interpolation:sRGB;"
    ><path style="stroke:none;" d="M556 373 L556 255 L427 255 L427 373 Z"
    /></g
    ><g transform="translate(473.9984,268.2)" style="font-size:18.6667px; text-rendering:geometricPrecision; color-rendering:optimizeQuality; image-rendering:optimizeQuality; font-family:'mwa_cmr10'; color-interpolation:linearRGB;"
    ><path style="stroke:none;" d="M0.6094 4.4799 L0.6094 3.8081 Q2.3125 3.8081 2.7031 2.6831 L6.6875 -8.9107 Q6.75 -9.1138 7 -9.1138 L7.2344 -9.1138 Q7.4844 -9.1138 7.5469 -8.9107 L11.7031 3.2143 Q11.8906 3.6049 12.3828 3.7065 Q12.875 3.8081 13.625 3.8081 L13.625 4.4799 L8.3281 4.4799 L8.3281 3.8081 Q9.9062 3.8081 9.9062 3.3081 L9.9062 3.2143 L8.875 0.2456 L4.2656 0.2456 L3.4062 2.6831 Q3.3906 2.7612 3.3906 2.8862 Q3.3906 3.3549 3.8359 3.5815 Q4.2812 3.8081 4.8125 3.8081 L4.8125 4.4799 L0.6094 4.4799 ZM4.4844 -0.4263 L8.6406 -0.4263 L6.5625 -6.4888 L4.4844 -0.4263 Z"
    /></g
    ><g transform="translate(473.9984,268.2)" style="font-size:18.6667px; text-rendering:geometricPrecision; color-rendering:optimizeQuality; image-rendering:optimizeQuality; font-family:'mwa_cmr10'; color-interpolation:linearRGB;"
    ><path style="stroke:none;" d="M14.5782 4.4799 L14.5782 3.8081 Q15.2344 3.8081 15.6485 3.7065 Q16.0625 3.6049 16.0625 3.2143 L16.0625 -6.7701 Q16.0625 -7.2701 15.9141 -7.4966 Q15.7657 -7.7232 15.4766 -7.7779 Q15.1875 -7.8326 14.5782 -7.8326 L14.5782 -8.5044 L17.4063 -8.7076 L17.4063 3.2143 Q17.4063 3.6049 17.8203 3.7065 Q18.2344 3.8081 18.875 3.8081 L18.875 4.4799 L14.5782 4.4799 Z"
      /><path style="stroke:none;" d="M19.7634 4.4799 L19.7634 3.8081 Q20.4196 3.8081 20.8337 3.7065 Q21.2477 3.6049 21.2477 3.2143 L21.2477 -6.7701 Q21.2477 -7.2701 21.0993 -7.4966 Q20.9509 -7.7232 20.6618 -7.7779 Q20.3727 -7.8326 19.7634 -7.8326 L19.7634 -8.5044 L22.5915 -8.7076 L22.5915 3.2143 Q22.5915 3.6049 23.0055 3.7065 Q23.4196 3.8081 24.0602 3.8081 L24.0602 4.4799 L19.7634 4.4799 Z"
    /></g
    ><g style="stroke-linecap:butt; fill:rgb(0,114,189); text-rendering:geometricPrecision; image-rendering:optimizeQuality; color-rendering:optimizeQuality; stroke-linejoin:round; stroke:rgb(0,114,189); color-interpolation:linearRGB; stroke-width:0.6667;"
    ><line y2="268.2" style="fill:none;" x1="430.9998" x2="470.9985" y1="268.2"
    /></g
    ><g transform="translate(473.9984,291.1)" style="font-size:18.6667px; text-rendering:geometricPrecision; color-rendering:optimizeQuality; image-rendering:optimizeQuality; font-family:'mwb_cmmi10'; color-interpolation:linearRGB;"
    ><path style="stroke:none;" d="M3.7969 4.7612 Q3.1406 4.7612 2.5781 4.519 Q2.0156 4.2768 1.5938 3.8159 Q1.1719 3.3549 0.9688 2.7846 Q0.7656 2.2143 0.7656 1.5424 Q0.7656 0.3549 1.3281 -0.7623 Q1.8906 -1.8794 2.8594 -2.6998 Q3.8281 -3.5201 4.9688 -3.8013 Q4.4062 -4.8326 4.1172 -5.5826 Q3.8281 -6.3326 3.8281 -7.1138 Q3.8281 -7.6763 4.0938 -8.1216 Q4.3594 -8.5669 4.8359 -8.8169 Q5.3125 -9.0669 5.8906 -9.0669 Q6.4531 -9.0669 8.1406 -8.6919 Q8.5781 -8.5826 8.5781 -8.1763 Q8.5781 -7.8638 8.3438 -7.5982 Q8.1094 -7.3326 7.7969 -7.3326 Q7.5625 -7.3326 7.375 -7.4419 Q7.1875 -7.5513 6.7891 -7.8248 Q6.3906 -8.0982 6.0781 -8.2388 Q5.7656 -8.3794 5.4219 -8.3794 Q5.0312 -8.3794 4.7188 -8.1451 Q4.4062 -7.9107 4.4062 -7.5201 Q4.4062 -6.9263 4.9375 -6.1373 Q5.4688 -5.3482 6.4531 -4.1294 Q7.5781 -2.7076 7.5781 -0.9732 Q7.5781 -0.1294 7.3359 0.8706 Q7.0938 1.8706 6.625 2.7456 Q6.1562 3.6206 5.4219 4.1909 Q4.6875 4.7612 3.7969 4.7612 ZM3.8438 4.2456 Q4.5781 4.2456 5.1172 3.4799 Q5.6562 2.7143 5.9297 1.6518 Q6.2031 0.5893 6.2031 -0.1451 Q6.2031 -1.5669 5.2031 -3.3326 Q4.2031 -3.0513 3.4766 -2.1607 Q2.75 -1.2701 2.3828 -0.1138 Q2.0156 1.0424 2.0156 2.0893 Q2.0156 2.9956 2.4844 3.6206 Q2.9531 4.2456 3.8438 4.2456 Z"
    /></g
    ><g transform="translate(473.9984,291.1)" style="font-size:13.0667px; text-rendering:geometricPrecision; color-rendering:optimizeQuality; image-rendering:optimizeQuality; font-family:'mwa_cmmi10'; color-interpolation:linearRGB;"
    ><path style="stroke:none;" d="M8.9057 7.2799 Q8.7807 7.2799 8.7807 7.108 Q8.7807 7.0768 8.8041 6.9987 Q8.8275 6.9205 8.8588 6.8737 Q8.89 6.8268 8.9369 6.8268 Q10.1869 6.8268 10.39 6.0299 L12.1557 -1.0795 Q11.7963 -1.142 11.015 -1.142 Q10.89 -1.142 10.89 -1.3138 Q10.89 -1.3451 10.9135 -1.4232 Q10.9369 -1.5013 10.9682 -1.5482 Q10.9994 -1.5951 11.0463 -1.5951 L13.2963 -1.5951 Q13.39 -1.5951 13.4213 -1.517 L16.3119 5.358 L17.7494 -0.4076 Q17.7807 -0.5482 17.7807 -0.5951 Q17.7807 -1.142 16.765 -1.142 Q16.64 -1.142 16.64 -1.3138 Q16.6869 -1.4857 16.7104 -1.5404 Q16.7338 -1.5951 16.8588 -1.5951 L19.64 -1.5951 Q19.7807 -1.5951 19.7807 -1.4232 Q19.765 -1.392 19.7494 -1.3138 Q19.7338 -1.2357 19.6947 -1.1888 Q19.6557 -1.142 19.6088 -1.142 Q18.3588 -1.142 18.1557 -0.3451 L16.2963 7.1705 Q16.2494 7.2799 16.1557 7.2799 L15.9994 7.2799 Q15.9213 7.2799 15.89 7.1862 L12.5775 -0.6732 L12.5463 -0.7513 Q12.5307 -0.7826 12.5307 -0.7982 L10.7963 6.0924 Q10.7963 6.1237 10.7885 6.1705 Q10.7807 6.2174 10.765 6.2799 Q10.765 6.608 11.0541 6.7174 Q11.3432 6.8268 11.7807 6.8268 Q11.9057 6.8268 11.9057 6.9987 Q11.8588 7.1705 11.8275 7.2252 Q11.7963 7.2799 11.6869 7.2799 L8.9057 7.2799 Z"
    /></g
    ><g style="stroke-linecap:butt; fill:rgb(217,83,25); text-rendering:geometricPrecision; image-rendering:optimizeQuality; color-rendering:optimizeQuality; stroke-linejoin:round; stroke:rgb(217,83,25); color-interpolation:linearRGB; stroke-width:0.6667;"
    ><line y2="291.1" style="fill:none;" x1="430.9998" x2="470.9985" y1="291.1"
    /></g
    ><g transform="translate(473.9984,314)" style="font-size:18.6667px; text-rendering:geometricPrecision; color-rendering:optimizeQuality; image-rendering:optimizeQuality; font-family:'mwb_cmmi10'; color-interpolation:linearRGB;"
    ><path style="stroke:none;" d="M3.7969 4.7612 Q3.1406 4.7612 2.5781 4.519 Q2.0156 4.2768 1.5938 3.8159 Q1.1719 3.3549 0.9688 2.7846 Q0.7656 2.2143 0.7656 1.5424 Q0.7656 0.3549 1.3281 -0.7623 Q1.8906 -1.8794 2.8594 -2.6998 Q3.8281 -3.5201 4.9688 -3.8013 Q4.4062 -4.8326 4.1172 -5.5826 Q3.8281 -6.3326 3.8281 -7.1138 Q3.8281 -7.6763 4.0938 -8.1216 Q4.3594 -8.5669 4.8359 -8.8169 Q5.3125 -9.0669 5.8906 -9.0669 Q6.4531 -9.0669 8.1406 -8.6919 Q8.5781 -8.5826 8.5781 -8.1763 Q8.5781 -7.8638 8.3438 -7.5982 Q8.1094 -7.3326 7.7969 -7.3326 Q7.5625 -7.3326 7.375 -7.4419 Q7.1875 -7.5513 6.7891 -7.8248 Q6.3906 -8.0982 6.0781 -8.2388 Q5.7656 -8.3794 5.4219 -8.3794 Q5.0312 -8.3794 4.7188 -8.1451 Q4.4062 -7.9107 4.4062 -7.5201 Q4.4062 -6.9263 4.9375 -6.1373 Q5.4688 -5.3482 6.4531 -4.1294 Q7.5781 -2.7076 7.5781 -0.9732 Q7.5781 -0.1294 7.3359 0.8706 Q7.0938 1.8706 6.625 2.7456 Q6.1562 3.6206 5.4219 4.1909 Q4.6875 4.7612 3.7969 4.7612 ZM3.8438 4.2456 Q4.5781 4.2456 5.1172 3.4799 Q5.6562 2.7143 5.9297 1.6518 Q6.2031 0.5893 6.2031 -0.1451 Q6.2031 -1.5669 5.2031 -3.3326 Q4.2031 -3.0513 3.4766 -2.1607 Q2.75 -1.2701 2.3828 -0.1138 Q2.0156 1.0424 2.0156 2.0893 Q2.0156 2.9956 2.4844 3.6206 Q2.9531 4.2456 3.8438 4.2456 Z"
    /></g
    ><g transform="translate(473.9984,314)" style="font-size:13.0667px; text-rendering:geometricPrecision; color-rendering:optimizeQuality; image-rendering:optimizeQuality; font-family:'mwa_cmmi10'; color-interpolation:linearRGB;"
    ><path style="stroke:none;" d="M11.1557 7.4205 L10.1244 -0.8607 Q10.0307 -1.142 9.14 -1.142 Q9.015 -1.142 9.015 -1.3138 Q9.0463 -1.4545 9.0775 -1.5248 Q9.1088 -1.5951 9.2338 -1.5951 L12.4057 -1.5951 Q12.4682 -1.5951 12.4994 -1.5482 Q12.5307 -1.5013 12.5307 -1.4232 Q12.4838 -1.142 12.3588 -1.142 Q11.3432 -1.142 11.2807 -0.7982 L12.14 5.9987 L16.1557 -0.392 Q16.265 -0.6107 16.265 -0.7357 Q16.265 -0.9545 16.0541 -1.0482 Q15.8432 -1.142 15.5775 -1.142 Q15.4369 -1.142 15.4369 -1.3138 Q15.4682 -1.4232 15.4916 -1.4779 Q15.515 -1.5326 15.5463 -1.5638 Q15.5775 -1.5951 15.6713 -1.5951 L18.1713 -1.5951 Q18.2963 -1.5951 18.2963 -1.4232 Q18.2494 -1.142 18.1244 -1.142 Q17.14 -1.142 16.5932 -0.2826 Q16.5619 -0.267 16.5463 -0.267 L11.7494 7.4205 Q11.6557 7.5612 11.515 7.5612 L11.3275 7.5612 Q11.1713 7.5612 11.1557 7.4205 Z"
      /><path style="stroke:none;" d="M16.3248 9.2399 Q16.231 9.2399 16.231 9.1149 Q16.2779 8.9274 16.356 8.9274 Q16.7154 8.9274 16.981 8.7789 Q17.2466 8.6305 17.4341 8.3336 Q17.4498 8.318 17.4498 8.318 L20.6685 2.8961 Q20.7466 2.8024 20.8404 2.8024 L20.9654 2.8024 Q20.981 2.8024 21.0123 2.8102 Q21.0435 2.818 21.0591 2.8414 Q21.0748 2.8649 21.0748 2.8961 L21.6216 8.7086 Q21.6216 8.7399 21.6685 8.8336 Q21.7466 8.9274 22.3404 8.9274 Q22.4341 8.9274 22.4341 9.0368 Q22.4029 9.1618 22.3794 9.2008 Q22.356 9.2399 22.2779 9.2399 L20.0279 9.2399 Q19.9341 9.2399 19.9341 9.1149 Q19.981 8.9274 20.0591 8.9274 Q20.7779 8.9274 20.8091 8.6774 L20.6841 7.193 L18.4654 7.193 L17.731 8.4118 Q17.6685 8.5055 17.6685 8.6305 Q17.6685 8.7868 17.8248 8.8571 Q17.981 8.9274 18.1529 8.9274 Q18.2466 8.9274 18.2466 9.0368 Q18.2154 9.1618 18.1998 9.2008 Q18.1841 9.2399 18.106 9.2399 L16.3248 9.2399 ZM18.6373 6.8805 L20.6373 6.8805 L20.3716 3.9586 L18.6373 6.8805 Z"
      /><path style="stroke:none;" d="M23.356 9.2399 Q23.2779 9.2399 23.2779 9.1149 Q23.2779 9.0993 23.2857 9.0446 Q23.2935 8.9899 23.3248 8.9586 Q23.356 8.9274 23.3873 8.9274 Q23.9341 8.9274 24.1529 8.8649 Q24.2623 8.818 24.3248 8.6149 L25.5591 3.6774 Q25.5748 3.5836 25.5748 3.5524 Q25.5748 3.4586 25.4654 3.443 Q25.2935 3.4118 24.8248 3.4118 Q24.731 3.4118 24.731 3.2868 Q24.731 3.2711 24.7466 3.2164 Q24.7623 3.1618 24.7857 3.1305 Q24.8091 3.0993 24.8404 3.0993 L27.5748 3.0993 Q27.9029 3.0993 28.2544 3.1696 Q28.606 3.2399 28.8951 3.4039 Q29.1841 3.568 29.3794 3.8336 Q29.5748 4.0993 29.5748 4.443 Q29.5748 4.8961 29.2701 5.2555 Q28.9654 5.6149 28.5123 5.8571 Q28.0591 6.0993 27.6216 6.193 Q27.981 6.318 28.1998 6.5993 Q28.4185 6.8805 28.4185 7.2399 Q28.4185 7.2868 28.4185 7.3102 Q28.4185 7.3336 28.4185 7.3649 L28.3404 8.1618 Q28.3404 8.3493 28.3326 8.4664 Q28.3248 8.5836 28.3248 8.6618 Q28.3248 8.9118 28.3951 9.0602 Q28.4654 9.2086 28.6841 9.2086 Q28.9654 9.2086 29.1763 8.943 Q29.3873 8.6774 29.4498 8.3805 Q29.4966 8.3024 29.5435 8.3024 L29.6216 8.3024 Q29.7154 8.3024 29.7154 8.4118 Q29.6529 8.6774 29.5044 8.9118 Q29.356 9.1461 29.1373 9.2946 Q28.9185 9.443 28.6685 9.443 Q28.1373 9.443 27.7701 9.2086 Q27.4029 8.9743 27.4029 8.4586 Q27.4029 8.2711 27.4341 8.1305 L27.6373 7.3336 Q27.6685 7.2243 27.6685 7.0836 Q27.6685 6.7086 27.4185 6.4899 Q27.1685 6.2711 26.7779 6.2711 L25.6685 6.2711 L25.0748 8.6618 Q25.0591 8.7243 25.0591 8.7868 Q25.0591 8.8805 25.1685 8.8805 Q25.3404 8.9274 25.8091 8.9274 Q25.9029 8.9274 25.9029 9.0368 Q25.8716 9.1618 25.856 9.2008 Q25.8404 9.2399 25.7466 9.2399 L23.356 9.2399 ZM25.731 6.0524 L26.731 6.0524 Q27.6998 6.0524 28.1998 5.5524 Q28.4341 5.318 28.5669 4.9664 Q28.6998 4.6149 28.6998 4.2555 Q28.6998 3.9274 28.5044 3.7399 Q28.3091 3.5524 28.0201 3.4821 Q27.731 3.4118 27.3873 3.4118 L26.7779 3.4118 Q26.5279 3.4118 26.4498 3.4508 Q26.3716 3.4899 26.3091 3.7086 L25.731 6.0524 Z"
      /><path style="stroke:none;" d="M30.4992 9.2399 Q30.4054 9.2399 30.4054 9.1149 Q30.421 9.0993 30.4289 9.0446 Q30.4367 8.9899 30.4601 8.9586 Q30.4835 8.9274 30.5304 8.9274 Q31.0773 8.9274 31.296 8.8649 Q31.4054 8.818 31.4679 8.6149 L32.7023 3.6774 Q32.7179 3.5836 32.7179 3.5524 Q32.7179 3.4586 32.6086 3.443 Q32.4367 3.4118 31.9523 3.4118 Q31.8742 3.4118 31.8742 3.2868 Q31.8742 3.2711 31.8898 3.2164 Q31.9054 3.1618 31.9289 3.1305 Q31.9523 3.0993 31.9835 3.0993 L36.8586 3.0993 Q36.9523 3.0993 36.9523 3.2086 L36.7336 5.068 Q36.7336 5.0993 36.7023 5.1227 Q36.6711 5.1461 36.6398 5.1461 L36.5617 5.1461 Q36.4836 5.1461 36.4836 5.0368 Q36.5304 4.5993 36.5304 4.3805 Q36.5304 4.0211 36.4054 3.8258 Q36.2804 3.6305 36.0773 3.5446 Q35.8742 3.4586 35.6242 3.4352 Q35.3742 3.4118 34.9679 3.4118 L33.9523 3.4118 Q33.7023 3.4118 33.6242 3.4508 Q33.5461 3.4899 33.4836 3.7086 L32.9367 5.8961 L33.6398 5.8961 Q34.0929 5.8961 34.3273 5.8336 Q34.5617 5.7711 34.7023 5.568 Q34.8429 5.3649 34.9523 4.9274 Q34.9523 4.8961 34.9757 4.8649 Q34.9992 4.8336 35.0304 4.8336 L35.1242 4.8336 Q35.2023 4.8336 35.2023 4.9586 L34.6554 7.1774 Q34.6242 7.2555 34.5617 7.2555 L34.4836 7.2555 Q34.3898 7.2555 34.3898 7.1461 Q34.4836 6.7868 34.4836 6.6149 Q34.4836 6.3493 34.2414 6.2789 Q33.9992 6.2086 33.6086 6.2086 L32.8586 6.2086 L32.2492 8.6618 Q32.2023 8.7711 32.2023 8.8493 Q32.2023 8.9274 32.5148 8.9274 L33.6086 8.9274 Q34.2492 8.9274 34.6554 8.8258 Q35.0617 8.7243 35.3273 8.4977 Q35.5929 8.2711 35.7882 7.9352 Q35.9836 7.5993 36.2648 6.943 Q36.2804 6.8805 36.3429 6.8805 L36.4211 6.8805 Q36.4523 6.8805 36.4836 6.9118 Q36.5148 6.943 36.5148 6.9743 Q36.5148 7.0055 36.4992 7.0211 L35.5773 9.193 Q35.5617 9.2399 35.4992 9.2399 L30.4992 9.2399 Z"
      /><path style="stroke:none;" d="M37.9269 9.2399 Q37.8332 9.2399 37.8332 9.1149 Q37.8488 9.0993 37.8566 9.0446 Q37.8644 8.9899 37.8878 8.9586 Q37.9113 8.9274 37.9582 8.9274 Q38.505 8.9274 38.7238 8.8649 Q38.8332 8.818 38.8957 8.6149 L40.13 3.6774 Q40.1457 3.5836 40.1457 3.5524 Q40.1457 3.4586 40.0363 3.443 Q39.8644 3.4118 39.38 3.4118 Q39.3019 3.4118 39.3019 3.2868 Q39.3019 3.2711 39.3175 3.2164 Q39.3332 3.1618 39.3566 3.1305 Q39.38 3.0993 39.4113 3.0993 L44.1613 3.0993 Q44.255 3.0993 44.255 3.2086 L44.0363 5.068 Q44.0363 5.0993 44.005 5.1227 Q43.9738 5.1461 43.9425 5.1461 L43.8644 5.1461 Q43.7707 5.1461 43.7707 5.0368 Q43.8332 4.6305 43.8332 4.3649 Q43.8332 3.9274 43.6378 3.7164 Q43.4425 3.5055 43.1535 3.4586 Q42.8644 3.4118 42.3332 3.4118 L41.38 3.4118 Q41.13 3.4118 41.0519 3.4508 Q40.9738 3.4899 40.9113 3.7086 L40.3332 6.0055 L41.005 6.0055 Q41.3488 6.0055 41.5519 5.9743 Q41.755 5.943 41.8878 5.8414 Q42.0207 5.7399 42.1144 5.5446 Q42.2082 5.3493 42.2863 5.0368 Q42.3019 4.9586 42.38 4.9586 L42.4582 4.9586 Q42.5519 4.9586 42.5519 5.068 L41.9894 7.3024 Q41.9582 7.3805 41.9113 7.3805 L41.8175 7.3805 Q41.7394 7.3805 41.7394 7.2555 Q41.755 7.1618 41.7707 7.0993 Q41.7863 7.0368 41.8019 6.9196 Q41.8175 6.8024 41.8175 6.7243 Q41.8175 6.4586 41.591 6.3883 Q41.3644 6.318 41.005 6.318 L40.255 6.318 L39.6769 8.6618 Q39.6613 8.7399 39.6613 8.7399 Q39.6613 8.8493 39.7238 8.8649 Q39.9582 8.9274 40.6457 8.9274 Q40.7238 8.9274 40.7238 9.0368 Q40.6925 9.1618 40.6769 9.2008 Q40.6613 9.2399 40.5675 9.2399 L37.9269 9.2399 Z"
    /></g
    ><g style="stroke-linecap:butt; fill:rgb(237,177,32); text-rendering:geometricPrecision; image-rendering:optimizeQuality; color-rendering:optimizeQuality; stroke-linejoin:round; stroke:rgb(237,177,32); color-interpolation:linearRGB; stroke-width:0.6667;"
    ><line y2="314" style="fill:none;" x1="430.9998" x2="470.9985" y1="314"
    /></g
    ><g transform="translate(473.9984,336.9)" style="font-size:18.6667px; text-rendering:geometricPrecision; color-rendering:optimizeQuality; image-rendering:optimizeQuality; font-family:'mwb_cmmi10'; color-interpolation:linearRGB;"
    ><path style="stroke:none;" d="M3.7969 4.7612 Q3.1406 4.7612 2.5781 4.519 Q2.0156 4.2768 1.5938 3.8159 Q1.1719 3.3549 0.9688 2.7846 Q0.7656 2.2143 0.7656 1.5424 Q0.7656 0.3549 1.3281 -0.7623 Q1.8906 -1.8794 2.8594 -2.6998 Q3.8281 -3.5201 4.9688 -3.8013 Q4.4062 -4.8326 4.1172 -5.5826 Q3.8281 -6.3326 3.8281 -7.1138 Q3.8281 -7.6763 4.0938 -8.1216 Q4.3594 -8.5669 4.8359 -8.8169 Q5.3125 -9.0669 5.8906 -9.0669 Q6.4531 -9.0669 8.1406 -8.6919 Q8.5781 -8.5826 8.5781 -8.1763 Q8.5781 -7.8638 8.3438 -7.5982 Q8.1094 -7.3326 7.7969 -7.3326 Q7.5625 -7.3326 7.375 -7.4419 Q7.1875 -7.5513 6.7891 -7.8248 Q6.3906 -8.0982 6.0781 -8.2388 Q5.7656 -8.3794 5.4219 -8.3794 Q5.0312 -8.3794 4.7188 -8.1451 Q4.4062 -7.9107 4.4062 -7.5201 Q4.4062 -6.9263 4.9375 -6.1373 Q5.4688 -5.3482 6.4531 -4.1294 Q7.5781 -2.7076 7.5781 -0.9732 Q7.5781 -0.1294 7.3359 0.8706 Q7.0938 1.8706 6.625 2.7456 Q6.1562 3.6206 5.4219 4.1909 Q4.6875 4.7612 3.7969 4.7612 ZM3.8438 4.2456 Q4.5781 4.2456 5.1172 3.4799 Q5.6562 2.7143 5.9297 1.6518 Q6.2031 0.5893 6.2031 -0.1451 Q6.2031 -1.5669 5.2031 -3.3326 Q4.2031 -3.0513 3.4766 -2.1607 Q2.75 -1.2701 2.3828 -0.1138 Q2.0156 1.0424 2.0156 2.0893 Q2.0156 2.9956 2.4844 3.6206 Q2.9531 4.2456 3.8438 4.2456 Z"
    /></g
    ><g transform="translate(473.9984,336.9)" style="font-size:13.0667px; text-rendering:geometricPrecision; color-rendering:optimizeQuality; image-rendering:optimizeQuality; font-family:'mwa_cmmi10'; color-interpolation:linearRGB;"
    ><path style="stroke:none;" d="M9.0932 7.5612 Q9.0463 7.5612 9.015 7.5221 Q8.9838 7.483 8.9838 7.4362 L9.7338 4.4049 Q9.765 4.3268 9.8432 4.3268 L9.9994 4.3268 Q10.0463 4.3268 10.0775 4.3658 Q10.1088 4.4049 10.1088 4.4674 Q9.9994 4.9049 9.9994 5.2487 Q9.9994 6.2018 10.6479 6.6549 Q11.2963 7.108 12.2807 7.108 Q12.7025 7.108 13.1166 6.8971 Q13.5307 6.6862 13.8354 6.3502 Q14.14 6.0143 14.3275 5.6002 Q14.515 5.1862 14.515 4.7643 Q14.515 4.2955 14.2729 3.944 Q14.0307 3.5924 13.6088 3.483 L12.015 3.0612 Q11.3744 2.8893 10.9916 2.3737 Q10.6088 1.858 10.6088 1.2174 Q10.6088 0.4362 11.0775 -0.2904 Q11.5463 -1.017 12.2885 -1.4545 Q13.0307 -1.892 13.8119 -1.892 Q14.4057 -1.892 14.9057 -1.6732 Q15.4057 -1.4545 15.6713 -0.9701 L16.4057 -1.8451 Q16.4838 -1.892 16.4994 -1.892 L16.5775 -1.892 Q16.6244 -1.892 16.6557 -1.8451 Q16.6869 -1.7982 16.6869 -1.7513 L15.9369 1.2643 Q15.9213 1.358 15.8432 1.358 L15.6713 1.358 Q15.5619 1.358 15.5619 1.2174 Q15.6244 0.7955 15.6244 0.4987 Q15.6244 -0.1107 15.4213 -0.556 Q15.2182 -1.0013 14.8041 -1.2357 Q14.39 -1.4701 13.765 -1.4701 Q13.2494 -1.4701 12.7338 -1.1732 Q12.2182 -0.8763 11.8979 -0.3763 Q11.5775 0.1237 11.5775 0.6549 Q11.5775 1.0768 11.8275 1.3971 Q12.0775 1.7174 12.4838 1.8268 L14.0619 2.2487 Q14.4994 2.358 14.8197 2.6471 Q15.14 2.9362 15.3041 3.3346 Q15.4682 3.733 15.4682 4.2018 Q15.4682 4.8112 15.2104 5.4127 Q14.9525 6.0143 14.4838 6.5143 Q14.015 7.0143 13.4213 7.2877 Q12.8275 7.5612 12.2182 7.5612 Q10.6713 7.5612 9.9994 6.6549 L9.2807 7.5299 Q9.2025 7.5612 9.1713 7.5612 L9.0932 7.5612 Z"
    /></g
    ><g style="stroke-linecap:butt; fill:rgb(77,190,238); text-rendering:geometricPrecision; image-rendering:optimizeQuality; color-rendering:optimizeQuality; stroke-linejoin:round; stroke:rgb(77,190,238); color-interpolation:linearRGB; stroke-width:0.6667;"
    ><line y2="336.9" style="fill:none;" x1="430.9998" x2="470.9985" y1="336.9"
    /></g
    ><g transform="translate(473.9984,359.8)" style="font-size:18.6667px; text-rendering:geometricPrecision; color-rendering:optimizeQuality; image-rendering:optimizeQuality; font-family:'mwb_cmr10'; color-interpolation:linearRGB;"
    ><path style="stroke:none;" d="M4.9519 -10.7854 L4.9519 -11.4417 L11.8113 -11.4417 L11.8113 -10.7854 L4.9519 -10.7854 Z"
    /></g
    ><g transform="translate(473.9984,359.8)" style="font-size:18.6667px; text-rendering:geometricPrecision; color-rendering:optimizeQuality; image-rendering:optimizeQuality; font-family:'mwa_cmmi10'; color-interpolation:linearRGB;"
    ><path style="stroke:none;" d="M0.875 4.2299 Q0.875 4.1831 0.9141 4.0659 Q0.9531 3.9487 1 3.8784 Q1.0469 3.8081 1.1406 3.8081 Q2.7812 3.8081 3.2969 3.7143 Q3.8125 3.5893 3.9219 3.1674 L6.5156 -7.2701 Q6.5938 -7.5044 6.5938 -7.6763 Q6.5938 -7.8326 5.9219 -7.8326 L4.8281 -7.8326 Q3.5469 -7.8326 2.8594 -7.4419 Q2.1719 -7.0513 1.8438 -6.4107 Q1.5156 -5.7701 1.0156 -4.3169 Q0.9531 -4.1451 0.8125 -4.1451 L0.6562 -4.1451 Q0.4531 -4.1451 0.4531 -4.3951 L1.8125 -8.3169 Q1.8438 -8.5044 2 -8.5044 L13.2188 -8.5044 Q13.4219 -8.5044 13.4219 -8.2544 L12.7812 -4.3169 Q12.7812 -4.2544 12.7188 -4.1998 Q12.6562 -4.1451 12.5938 -4.1451 L12.4219 -4.1451 Q12.2344 -4.1451 12.2344 -4.3951 Q12.4375 -5.7388 12.4375 -6.2857 Q12.4375 -6.9576 12.1641 -7.3013 Q11.8906 -7.6451 11.4453 -7.7388 Q11 -7.8326 10.2812 -7.8326 L9.1562 -7.8326 Q8.6406 -7.8326 8.4688 -7.7388 Q8.2969 -7.6451 8.1719 -7.1763 L5.5625 3.2456 Q5.5625 3.2768 5.5547 3.3159 Q5.5469 3.3549 5.5312 3.4174 Q5.5312 3.6518 5.8125 3.7143 Q6.3125 3.8081 7.9219 3.8081 Q8.1094 3.8081 8.1094 4.0581 Q8.0469 4.3237 8.0078 4.4018 Q7.9688 4.4799 7.7969 4.4799 L1.0625 4.4799 Q0.875 4.4799 0.875 4.2299 Z"
      /><path style="stroke:none;" d="M20.1079 1.9487 Q19.9516 1.9487 19.8501 1.8315 Q19.7485 1.7143 19.7485 1.5737 Q19.7485 1.4174 19.8501 1.3081 Q19.9516 1.1987 20.1079 1.1987 L32.0454 1.1987 Q32.186 1.1987 32.2876 1.3081 Q32.3891 1.4174 32.3891 1.5737 Q32.3891 1.7143 32.2876 1.8315 Q32.186 1.9487 32.0454 1.9487 L20.1079 1.9487 ZM20.1079 -1.7388 Q19.9516 -1.7388 19.8501 -1.8482 Q19.7485 -1.9576 19.7485 -2.1138 Q19.7485 -2.2544 19.8501 -2.3794 Q19.9516 -2.5044 20.1079 -2.5044 L32.0454 -2.5044 Q32.186 -2.5044 32.2876 -2.3794 Q32.3891 -2.2544 32.3891 -2.1138 Q32.3891 -1.9576 32.2876 -1.8482 Q32.186 -1.7388 32.0454 -1.7388 L20.1079 -1.7388 Z"
      /><path style="stroke:none;" d="M39.3428 4.4799 L39.3428 3.9643 Q39.3428 3.9174 39.374 3.8706 L42.3271 0.6049 Q42.999 -0.1294 43.4131 -0.6138 Q43.8271 -1.0982 44.2334 -1.7388 Q44.6396 -2.3794 44.874 -3.0435 Q45.1084 -3.7076 45.1084 -4.4576 Q45.1084 -5.2388 44.8271 -5.9498 Q44.5459 -6.6607 43.9756 -7.0826 Q43.4053 -7.5044 42.5928 -7.5044 Q41.7646 -7.5044 41.1084 -7.0123 Q40.4521 -6.5201 40.1865 -5.7232 Q40.249 -5.7388 40.3896 -5.7388 Q40.8115 -5.7388 41.1162 -5.4576 Q41.4209 -5.1763 41.4209 -4.7076 Q41.4209 -4.2857 41.1162 -3.981 Q40.8115 -3.6763 40.3896 -3.6763 Q39.9365 -3.6763 39.6396 -3.9888 Q39.3428 -4.3013 39.3428 -4.7076 Q39.3428 -5.4263 39.6084 -6.0513 Q39.874 -6.6763 40.3818 -7.1685 Q40.8896 -7.6607 41.5224 -7.9185 Q42.1553 -8.1763 42.874 -8.1763 Q43.9521 -8.1763 44.8896 -7.7154 Q45.8271 -7.2544 46.374 -6.4185 Q46.9209 -5.5826 46.9209 -4.4576 Q46.9209 -3.6294 46.5615 -2.8873 Q46.2021 -2.1451 45.6396 -1.5357 Q45.0771 -0.9263 44.1943 -0.1607 Q43.3115 0.6049 43.0303 0.8706 L40.874 2.9331 L42.7021 2.9331 Q44.0459 2.9331 44.9521 2.9096 Q45.8584 2.8862 45.9209 2.8393 Q46.1396 2.6049 46.374 1.0893 L46.9209 1.0893 L46.3896 4.4799 L39.3428 4.4799 Z"
      /><path style="stroke:none;" d="M49.3792 2.3237 Q49.5667 2.8706 49.973 3.3237 Q50.3792 3.7768 50.9261 4.0346 Q51.473 4.2924 52.0667 4.2924 Q53.4417 4.2924 53.9652 3.2299 Q54.4886 2.1674 54.4886 0.6362 Q54.4886 -0.0201 54.4652 -0.4732 Q54.4417 -0.9263 54.3324 -1.3326 Q54.1605 -2.0044 53.723 -2.5044 Q53.2855 -3.0044 52.6449 -3.0044 Q52.0042 -3.0044 51.5433 -2.8091 Q51.0824 -2.6138 50.7933 -2.356 Q50.5042 -2.0982 50.2855 -1.8091 Q50.0667 -1.5201 50.0042 -1.5044 L49.7855 -1.5044 Q49.7386 -1.5044 49.6761 -1.5669 Q49.6136 -1.6294 49.6136 -1.6763 L49.6136 -8.0201 Q49.6136 -8.0669 49.6683 -8.1216 Q49.723 -8.1763 49.7855 -8.1763 L49.848 -8.1763 Q51.1292 -7.5669 52.5667 -7.5669 Q53.973 -7.5669 55.2855 -8.1763 L55.3324 -8.1763 Q55.4105 -8.1763 55.4652 -8.1294 Q55.5199 -8.0826 55.5199 -8.0201 L55.5199 -7.8482 Q55.5199 -7.7544 55.473 -7.7544 Q54.8324 -6.8951 53.8558 -6.4107 Q52.8792 -5.9263 51.8167 -5.9263 Q51.0667 -5.9263 50.2699 -6.1451 L50.2699 -2.5513 Q50.8949 -3.0669 51.3949 -3.2857 Q51.8949 -3.5044 52.6605 -3.5044 Q53.7074 -3.5044 54.5355 -2.8951 Q55.3636 -2.2857 55.8089 -1.3169 Q56.2542 -0.3482 56.2542 0.6518 Q56.2542 1.7924 55.6917 2.769 Q55.1292 3.7456 54.1683 4.3237 Q53.2074 4.9018 52.0667 4.9018 Q51.1449 4.9018 50.3558 4.4174 Q49.5667 3.9331 49.1214 3.1127 Q48.6761 2.2924 48.6761 1.3862 Q48.6761 0.9487 48.9496 0.6831 Q49.223 0.4174 49.6449 0.4174 Q50.0667 0.4174 50.348 0.6909 Q50.6292 0.9643 50.6292 1.3862 Q50.6292 1.7924 50.348 2.0737 Q50.0667 2.3549 49.6449 2.3549 Q49.5824 2.3549 49.4964 2.3393 Q49.4105 2.3237 49.3792 2.3237 Z"
      /><path style="stroke:none;" d="M60.3064 -3.0284 Q59.6345 -3.0284 59.0564 -3.3644 Q58.4782 -3.7003 58.1345 -4.2941 Q57.7907 -4.8878 57.7907 -5.5441 Q57.7907 -6.2003 58.1345 -6.7941 Q58.4782 -7.3878 59.0564 -7.7237 Q59.6345 -8.0597 60.3064 -8.0597 Q60.9782 -8.0597 61.5564 -7.7159 Q62.1345 -7.3722 62.4704 -6.7862 Q62.8064 -6.2003 62.8064 -5.5441 Q62.8064 -4.8878 62.4704 -4.3019 Q62.1345 -3.7159 61.5564 -3.3722 Q60.9782 -3.0284 60.3064 -3.0284 ZM60.3064 -3.5441 Q61.1189 -3.5441 61.7048 -4.1378 Q62.2907 -4.7316 62.2907 -5.5441 Q62.2907 -6.0597 62.0251 -6.5284 Q61.7595 -6.9972 61.2985 -7.2706 Q60.8376 -7.5441 60.3064 -7.5441 Q59.9001 -7.5441 59.5407 -7.3878 Q59.1814 -7.2316 58.9001 -6.9503 Q58.6189 -6.6691 58.4626 -6.3097 Q58.3064 -5.9503 58.3064 -5.5441 Q58.3064 -4.7316 58.8923 -4.1378 Q59.4782 -3.5441 60.3064 -3.5441 Z"
      /><path style="stroke:none;" d="M68.8511 2.4487 Q69.5074 3.2768 70.484 3.7534 Q71.4605 4.2299 72.5074 4.2299 Q73.3824 4.2299 74.1324 3.8784 Q74.8824 3.5268 75.4449 2.9096 Q76.0074 2.2924 76.3121 1.5034 Q76.6168 0.7143 76.6168 -0.1607 Q76.6168 -0.3013 76.773 -0.3013 L77.0074 -0.3013 Q77.1636 -0.3013 77.1636 -0.1294 Q77.1636 0.8706 76.7808 1.7924 Q76.398 2.7143 75.7027 3.4174 Q75.0074 4.1206 74.1011 4.5112 Q73.1949 4.9018 72.2105 4.9018 Q70.8511 4.9018 69.6324 4.3471 Q68.4136 3.7924 67.5074 2.8315 Q66.6011 1.8706 66.0933 0.6127 Q65.5855 -0.6451 65.5855 -2.0201 Q65.5855 -3.3794 66.0933 -4.6373 Q66.6011 -5.8951 67.5074 -6.8638 Q68.4136 -7.8326 69.6324 -8.3716 Q70.8511 -8.9107 72.2105 -8.9107 Q73.1949 -8.9107 74.0855 -8.4888 Q74.9761 -8.0669 75.6324 -7.3013 L76.7418 -8.8638 Q76.8511 -8.9107 76.8668 -8.9107 L77.0074 -8.9107 Q77.0699 -8.9107 77.1168 -8.8638 Q77.1636 -8.8169 77.1636 -8.7544 L77.1636 -3.6294 Q77.1636 -3.4576 77.0074 -3.4576 L76.6636 -3.4576 Q76.4918 -3.4576 76.4918 -3.6294 Q76.4918 -4.1763 76.273 -4.856 Q76.0543 -5.5357 75.7183 -6.1373 Q75.3824 -6.7388 74.9293 -7.2076 Q73.8668 -8.2544 72.4761 -8.2544 Q71.4293 -8.2544 70.4683 -7.7779 Q69.5074 -7.3013 68.8511 -6.4732 Q68.1636 -5.5826 67.8902 -4.4419 Q67.6168 -3.3013 67.6168 -2.0201 Q67.6168 -0.7232 67.8902 0.4174 Q68.1636 1.5581 68.8511 2.4487 Z"
    /></g
    ><g style="fill-opacity:0.702; color-rendering:optimizeQuality; color-interpolation:linearRGB; text-rendering:geometricPrecision; stroke:rgb(38,38,38); stroke-linecap:butt; stroke-miterlimit:1; stroke-opacity:0.702; fill:rgb(38,38,38); stroke-dasharray:10,6; stroke-width:0.6667; stroke-linejoin:bevel; image-rendering:optimizeQuality;"
    ><line y2="359.8" style="fill:none;" x1="430.9998" x2="470.9985" y1="359.8"
    /></g
    ><g style="stroke-linecap:butt; fill:rgb(38,38,38); text-rendering:geometricPrecision; color-rendering:optimizeQuality; image-rendering:optimizeQuality; stroke:rgb(38,38,38); color-interpolation:linearRGB; stroke-width:0.6667;"
    ><path d="M427 373 L427 255 L556 255 L556 373 Z" style="fill:none; fill-rule:evenodd;"
    /></g
  ></g
></svg
>
