<?xml version="1.0"?>
<!DOCTYPE svg PUBLIC '-//W3C//DTD SVG 1.0//EN'
          'http://www.w3.org/TR/2001/REC-SVG-20010904/DTD/svg10.dtd'>
<svg xmlns:xlink="http://www.w3.org/1999/xlink" style="fill-opacity:1; color-rendering:auto; color-interpolation:auto; text-rendering:auto; stroke:black; stroke-linecap:square; stroke-miterlimit:10; shape-rendering:auto; stroke-opacity:1; fill:black; stroke-dasharray:none; font-weight:normal; stroke-width:1; font-family:'Dialog'; font-style:normal; stroke-linejoin:miter; font-size:12px; stroke-dashoffset:0; image-rendering:auto;" width="560" height="420" xmlns="http://www.w3.org/2000/svg"
><!--Generated by the Batik Graphics2D SVG Generator--><defs id="genericDefs"
  /><g
  ><defs id="defs1"
    ><clipPath clipPathUnits="userSpaceOnUse" id="clipPath1"
      ><path d="M0 0 L560 0 L560 420 L0 420 L0 0 Z"
      /></clipPath
    ></defs
    ><g style="fill:white; stroke:white;"
    ><rect x="0" y="0" width="560" style="clip-path:url(#clipPath1); stroke:none;" height="420"
    /></g
    ><g style="fill:white; text-rendering:optimizeSpeed; color-rendering:optimizeSpeed; image-rendering:optimizeSpeed; shape-rendering:crispEdges; stroke:white; color-interpolation:sRGB;"
    ><rect x="0" width="560" height="420" y="0" style="stroke:none;"
      /><path style="stroke:none;" d="M54 374 L547 374 L547 27 L54 27 Z"
    /></g
    ><g style="stroke-linecap:butt; fill-opacity:0.149; fill:rgb(38,38,38); text-rendering:geometricPrecision; image-rendering:optimizeQuality; color-rendering:optimizeQuality; stroke-linejoin:round; stroke:rgb(38,38,38); color-interpolation:linearRGB; stroke-width:0.6667; stroke-opacity:0.149;"
    ><line y2="27" style="fill:none;" x1="54" x2="54" y1="374"
      /><line y2="27" style="fill:none;" x1="136.1667" x2="136.1667" y1="374"
      /><line y2="27" style="fill:none;" x1="218.3333" x2="218.3333" y1="374"
      /><line y2="27" style="fill:none;" x1="300.5" x2="300.5" y1="374"
      /><line y2="27" style="fill:none;" x1="382.6667" x2="382.6667" y1="374"
      /><line y2="27" style="fill:none;" x1="464.8333" x2="464.8333" y1="374"
      /><line y2="27" style="fill:none;" x1="547" x2="547" y1="374"
      /><line y2="374" style="fill:none;" x1="547" x2="54" y1="374"
      /><line y2="324.4286" style="fill:none;" x1="547" x2="54" y1="324.4286"
      /><line y2="274.8571" style="fill:none;" x1="547" x2="54" y1="274.8571"
      /><line y2="225.2857" style="fill:none;" x1="547" x2="54" y1="225.2857"
      /><line y2="175.7143" style="fill:none;" x1="547" x2="54" y1="175.7143"
      /><line y2="126.1429" style="fill:none;" x1="547" x2="54" y1="126.1429"
      /><line y2="76.5714" style="fill:none;" x1="547" x2="54" y1="76.5714"
      /><line y2="27" style="fill:none;" x1="547" x2="54" y1="27"
    /></g
    ><g transform="translate(300.5,23.5)" style="font-size:18.6667px; text-rendering:geometricPrecision; color-rendering:optimizeQuality; image-rendering:optimizeQuality; font-family:'mwa_cmr10'; color-interpolation:linearRGB;"
    ><path style="stroke:none;" d="M-115.0648 -6.7201 L-115.0648 -7.3919 Q-113.1117 -7.3919 -113.1117 -8.5169 L-113.1117 -18.4232 Q-113.1117 -19.0326 -115.0648 -19.0326 L-115.0648 -19.7044 L-111.471 -19.7044 Q-111.2523 -19.7044 -111.1742 -19.4857 L-107.0335 -8.7357 L-102.8929 -19.4857 Q-102.8148 -19.7044 -102.596 -19.7044 L-99.0023 -19.7044 L-99.0023 -19.0326 Q-100.9554 -19.0326 -100.9554 -18.4232 L-100.9554 -7.9857 Q-100.9554 -7.3919 -99.0023 -7.3919 L-99.0023 -6.7201 L-104.5335 -6.7201 L-104.5335 -7.3919 Q-102.5648 -7.3919 -102.5648 -7.9857 L-102.5648 -19.0482 L-107.2523 -6.9388 Q-107.3304 -6.7201 -107.5648 -6.7201 Q-107.7992 -6.7201 -107.8929 -6.9388 L-112.5023 -18.9076 L-112.5023 -8.5169 Q-112.5023 -7.3919 -110.5492 -7.3919 L-110.5492 -6.7201 L-115.0648 -6.7201 Z"
      /><path style="stroke:none;" d="M-93.8911 -6.5013 Q-95.0474 -6.5013 -96.0161 -7.1107 Q-96.9849 -7.7201 -97.5396 -8.7357 Q-98.0943 -9.7513 -98.0943 -10.8919 Q-98.0943 -12.0013 -97.5865 -13.0013 Q-97.0786 -14.0013 -96.1802 -14.6185 Q-95.2818 -15.2357 -94.1568 -15.2357 Q-93.2974 -15.2357 -92.649 -14.9466 Q-92.0005 -14.6576 -91.5865 -14.1341 Q-91.1724 -13.6107 -90.9536 -12.9076 Q-90.7349 -12.2044 -90.7349 -11.3607 Q-90.7349 -11.1107 -90.938 -11.1107 L-96.438 -11.1107 L-96.438 -10.9076 Q-96.438 -9.3294 -95.8052 -8.1966 Q-95.1724 -7.0638 -93.7193 -7.0638 Q-93.1411 -7.0638 -92.649 -7.3216 Q-92.1568 -7.5794 -91.7896 -8.0482 Q-91.4224 -8.5169 -91.2818 -9.0326 Q-91.2661 -9.1107 -91.2193 -9.1576 Q-91.1724 -9.2044 -91.0943 -9.2044 L-90.938 -9.2044 Q-90.7349 -9.2044 -90.7349 -8.9701 Q-91.0161 -7.8919 -91.9068 -7.1966 Q-92.7974 -6.5013 -93.8911 -6.5013 ZM-96.4224 -11.5794 L-92.0786 -11.5794 Q-92.0786 -12.2982 -92.2818 -13.0326 Q-92.4849 -13.7669 -92.9458 -14.2513 Q-93.4068 -14.7357 -94.1568 -14.7357 Q-95.2349 -14.7357 -95.8286 -13.7279 Q-96.4224 -12.7201 -96.4224 -11.5794 Z"
      /><path style="stroke:none;" d="M-89.5636 -8.5794 Q-89.5636 -9.7201 -88.673 -10.431 Q-87.7823 -11.1419 -86.5402 -11.431 Q-85.298 -11.7201 -84.173 -11.7201 L-84.173 -12.5013 Q-84.173 -13.0482 -84.4152 -13.5638 Q-84.6573 -14.0794 -85.1105 -14.4076 Q-85.5636 -14.7357 -86.1105 -14.7357 Q-87.3761 -14.7357 -88.0323 -14.1732 Q-87.673 -14.1732 -87.4308 -13.8998 Q-87.1886 -13.6263 -87.1886 -13.2669 Q-87.1886 -12.8763 -87.462 -12.6107 Q-87.7355 -12.3451 -88.0948 -12.3451 Q-88.4855 -12.3451 -88.7511 -12.6107 Q-89.0167 -12.8763 -89.0167 -13.2669 Q-89.0167 -14.2669 -88.1105 -14.7513 Q-87.2042 -15.2357 -86.1105 -15.2357 Q-85.3448 -15.2357 -84.5636 -14.9076 Q-83.7823 -14.5794 -83.2823 -13.9701 Q-82.7823 -13.3607 -82.7823 -12.5326 L-82.7823 -8.2669 Q-82.7823 -7.8919 -82.6261 -7.5794 Q-82.4698 -7.2669 -82.1417 -7.2669 Q-81.8292 -7.2669 -81.673 -7.5794 Q-81.5167 -7.8919 -81.5167 -8.2669 L-81.5167 -9.4701 L-80.9542 -9.4701 L-80.9542 -8.2669 Q-80.9542 -7.8294 -81.1808 -7.4466 Q-81.4073 -7.0638 -81.7823 -6.8373 Q-82.1573 -6.6107 -82.5948 -6.6107 Q-83.1417 -6.6107 -83.548 -7.0404 Q-83.9542 -7.4701 -84.0011 -8.0638 Q-84.3605 -7.3451 -85.0402 -6.9232 Q-85.7198 -6.5013 -86.5011 -6.5013 Q-87.2355 -6.5013 -87.9308 -6.7201 Q-88.6261 -6.9388 -89.0948 -7.3919 Q-89.5636 -7.8451 -89.5636 -8.5794 ZM-88.0323 -8.5794 Q-88.0323 -7.9232 -87.5402 -7.4623 Q-87.048 -7.0013 -86.3761 -7.0013 Q-85.7667 -7.0013 -85.2667 -7.3138 Q-84.7667 -7.6263 -84.4698 -8.1498 Q-84.173 -8.6732 -84.173 -9.2669 L-84.173 -11.2357 Q-85.0323 -11.2357 -85.9386 -10.9544 Q-86.8448 -10.6732 -87.4386 -10.0716 Q-88.0323 -9.4701 -88.0323 -8.5794 Z"
      /><path style="stroke:none;" d="M-80.3709 -6.6576 L-80.3709 -9.7669 Q-80.3709 -9.9076 -80.199 -9.9076 L-79.9646 -9.9076 Q-79.8552 -9.9076 -79.824 -9.7669 Q-79.2927 -7.0013 -77.2615 -7.0013 Q-76.3552 -7.0013 -75.7459 -7.4154 Q-75.1365 -7.8294 -75.1365 -8.6732 Q-75.1365 -9.2826 -75.6131 -9.7201 Q-76.0896 -10.1576 -76.7302 -10.3138 L-78.0115 -10.5638 Q-78.6521 -10.7044 -79.1756 -10.9935 Q-79.699 -11.2826 -80.0349 -11.7591 Q-80.3709 -12.2357 -80.3709 -12.8607 Q-80.3709 -13.7044 -79.9256 -14.2357 Q-79.4802 -14.7669 -78.7771 -15.0013 Q-78.074 -15.2357 -77.2615 -15.2357 Q-76.2771 -15.2357 -75.5584 -14.7201 L-75.0115 -15.1888 Q-75.0115 -15.2357 -74.9177 -15.2357 L-74.7771 -15.2357 Q-74.7302 -15.2357 -74.6834 -15.1888 Q-74.6365 -15.1419 -74.6365 -15.0794 L-74.6365 -12.5951 Q-74.6365 -12.4232 -74.7771 -12.4232 L-75.0115 -12.4232 Q-75.1834 -12.4232 -75.1834 -12.5951 Q-75.1834 -13.5794 -75.7302 -14.1888 Q-76.2771 -14.7982 -77.2771 -14.7982 Q-78.1365 -14.7982 -78.7615 -14.4779 Q-79.3865 -14.1576 -79.3865 -13.3919 Q-79.3865 -12.8607 -78.9334 -12.5248 Q-78.4802 -12.1888 -77.8709 -12.0326 L-76.5896 -11.7982 Q-75.9334 -11.6419 -75.3787 -11.2904 Q-74.824 -10.9388 -74.4881 -10.3998 Q-74.1521 -9.8607 -74.1521 -9.1888 Q-74.1521 -8.5013 -74.3943 -7.9935 Q-74.6365 -7.4857 -75.0584 -7.1576 Q-75.4802 -6.8294 -76.0506 -6.6654 Q-76.6209 -6.5013 -77.2615 -6.5013 Q-78.449 -6.5013 -79.2927 -7.2982 L-79.9802 -6.5482 Q-79.9802 -6.5013 -80.0896 -6.5013 L-80.199 -6.5013 Q-80.3709 -6.5013 -80.3709 -6.6576 Z"
      /><path style="stroke:none;" d="M-71.586 -8.9857 L-71.586 -13.1732 Q-71.586 -13.6888 -71.7345 -13.9154 Q-71.8829 -14.1419 -72.172 -14.1966 Q-72.461 -14.2513 -73.0704 -14.2513 L-73.0704 -14.9076 L-70.1954 -15.1107 L-70.1954 -8.9857 Q-70.1954 -8.2357 -70.086 -7.8294 Q-69.9767 -7.4232 -69.6329 -7.2123 Q-69.2892 -7.0013 -68.5235 -7.0013 Q-67.5079 -7.0013 -66.8985 -7.8607 Q-66.2892 -8.7201 -66.2892 -9.7982 L-66.2892 -13.1732 Q-66.2892 -13.6888 -66.4532 -13.9154 Q-66.6173 -14.1419 -66.8985 -14.1966 Q-67.1798 -14.2513 -67.7735 -14.2513 L-67.7735 -14.9076 L-64.9142 -15.1107 L-64.9142 -8.4388 Q-64.9142 -7.9388 -64.7579 -7.7123 Q-64.6017 -7.4857 -64.3126 -7.4388 Q-64.0235 -7.3919 -63.4298 -7.3919 L-63.4298 -6.7201 L-66.2423 -6.5013 L-66.2423 -8.1107 Q-66.586 -7.3919 -67.2188 -6.9466 Q-67.8517 -6.5013 -68.6173 -6.5013 Q-69.9767 -6.5013 -70.7813 -7.0873 Q-71.586 -7.6732 -71.586 -8.9857 Z"
      /><path style="stroke:none;" d="M-62.7781 -6.7201 L-62.7781 -7.3919 Q-62.1219 -7.3919 -61.7078 -7.4935 Q-61.2938 -7.5951 -61.2938 -7.9857 L-61.2938 -13.1732 Q-61.2938 -13.6888 -61.4422 -13.9154 Q-61.5906 -14.1419 -61.8797 -14.1966 Q-62.1688 -14.2513 -62.7781 -14.2513 L-62.7781 -14.9076 L-60.0594 -15.1107 L-60.0594 -13.2669 Q-59.7469 -14.0794 -59.1844 -14.5951 Q-58.6219 -15.1107 -57.8094 -15.1107 Q-57.2469 -15.1107 -56.8016 -14.7826 Q-56.3563 -14.4544 -56.3563 -13.9076 Q-56.3563 -13.5638 -56.5984 -13.306 Q-56.8406 -13.0482 -57.2 -13.0482 Q-57.5594 -13.0482 -57.8094 -13.2982 Q-58.0594 -13.5482 -58.0594 -13.9076 Q-58.0594 -14.4076 -57.7 -14.6263 L-57.8094 -14.6263 Q-58.575 -14.6263 -59.0594 -14.0716 Q-59.5438 -13.5169 -59.7547 -12.6888 Q-59.9656 -11.8607 -59.9656 -11.1107 L-59.9656 -7.9857 Q-59.9656 -7.3919 -58.1063 -7.3919 L-58.1063 -6.7201 L-62.7781 -6.7201 Z"
      /><path style="stroke:none;" d="M-51.217 -6.5013 Q-52.3733 -6.5013 -53.342 -7.1107 Q-54.3108 -7.7201 -54.8654 -8.7357 Q-55.4201 -9.7513 -55.4201 -10.8919 Q-55.4201 -12.0013 -54.9123 -13.0013 Q-54.4045 -14.0013 -53.5061 -14.6185 Q-52.6076 -15.2357 -51.4826 -15.2357 Q-50.6233 -15.2357 -49.9748 -14.9466 Q-49.3264 -14.6576 -48.9123 -14.1341 Q-48.4983 -13.6107 -48.2795 -12.9076 Q-48.0608 -12.2044 -48.0608 -11.3607 Q-48.0608 -11.1107 -48.2639 -11.1107 L-53.7639 -11.1107 L-53.7639 -10.9076 Q-53.7639 -9.3294 -53.1311 -8.1966 Q-52.4983 -7.0638 -51.0451 -7.0638 Q-50.467 -7.0638 -49.9748 -7.3216 Q-49.4826 -7.5794 -49.1154 -8.0482 Q-48.7483 -8.5169 -48.6076 -9.0326 Q-48.592 -9.1107 -48.5451 -9.1576 Q-48.4983 -9.2044 -48.4201 -9.2044 L-48.2639 -9.2044 Q-48.0608 -9.2044 -48.0608 -8.9701 Q-48.342 -7.8919 -49.2326 -7.1966 Q-50.1233 -6.5013 -51.217 -6.5013 ZM-53.7483 -11.5794 L-49.4045 -11.5794 Q-49.4045 -12.2982 -49.6076 -13.0326 Q-49.8108 -13.7669 -50.2717 -14.2513 Q-50.7326 -14.7357 -51.4826 -14.7357 Q-52.5608 -14.7357 -53.1545 -13.7279 Q-53.7483 -12.7201 -53.7483 -11.5794 Z"
      /><path style="stroke:none;" d="M-47.0926 -6.7201 L-47.0926 -7.3919 Q-46.4363 -7.3919 -46.0223 -7.4935 Q-45.6082 -7.5951 -45.6082 -7.9857 L-45.6082 -13.1732 Q-45.6082 -13.6888 -45.7566 -13.9154 Q-45.9051 -14.1419 -46.1941 -14.1966 Q-46.4832 -14.2513 -47.0926 -14.2513 L-47.0926 -14.9076 L-44.327 -15.1107 L-44.327 -13.2669 Q-43.952 -14.0794 -43.202 -14.5951 Q-42.452 -15.1107 -41.577 -15.1107 Q-39.3895 -15.1107 -39.0145 -13.3294 Q-38.6238 -14.1263 -37.8895 -14.6185 Q-37.1551 -15.1107 -36.2957 -15.1107 Q-35.4207 -15.1107 -34.8348 -14.8373 Q-34.2488 -14.5638 -33.952 -13.9935 Q-33.6551 -13.4232 -33.6551 -12.5482 L-33.6551 -7.9857 Q-33.6551 -7.5951 -33.2332 -7.4935 Q-32.8113 -7.3919 -32.1707 -7.3919 L-32.1707 -6.7201 L-36.5145 -6.7201 L-36.5145 -7.3919 Q-35.8738 -7.3919 -35.452 -7.4935 Q-35.0301 -7.5951 -35.0301 -7.9857 L-35.0301 -12.5013 Q-35.0301 -13.4544 -35.3035 -14.0404 Q-35.577 -14.6263 -36.4051 -14.6263 Q-37.4988 -14.6263 -38.2176 -13.7435 Q-38.9363 -12.8607 -38.9363 -11.7357 L-38.9363 -7.9857 Q-38.9363 -7.5951 -38.5145 -7.4935 Q-38.0926 -7.3919 -37.452 -7.3919 L-37.452 -6.7201 L-41.7957 -6.7201 L-41.7957 -7.3919 Q-41.1551 -7.3919 -40.7332 -7.4935 Q-40.3113 -7.5951 -40.3113 -7.9857 L-40.3113 -12.5013 Q-40.3113 -13.4232 -40.5848 -14.0248 Q-40.8582 -14.6263 -41.6863 -14.6263 Q-42.7957 -14.6263 -43.5066 -13.7435 Q-44.2176 -12.8607 -44.2176 -11.7357 L-44.2176 -7.9857 Q-44.2176 -7.5951 -43.7957 -7.4935 Q-43.3738 -7.3919 -42.7332 -7.3919 L-42.7332 -6.7201 L-47.0926 -6.7201 Z"
      /><path style="stroke:none;" d="M-27.3651 -6.5013 Q-28.5214 -6.5013 -29.4901 -7.1107 Q-30.4589 -7.7201 -31.0135 -8.7357 Q-31.5682 -9.7513 -31.5682 -10.8919 Q-31.5682 -12.0013 -31.0604 -13.0013 Q-30.5526 -14.0013 -29.6542 -14.6185 Q-28.7557 -15.2357 -27.6307 -15.2357 Q-26.7714 -15.2357 -26.1229 -14.9466 Q-25.4745 -14.6576 -25.0604 -14.1341 Q-24.6464 -13.6107 -24.4276 -12.9076 Q-24.2089 -12.2044 -24.2089 -11.3607 Q-24.2089 -11.1107 -24.412 -11.1107 L-29.912 -11.1107 L-29.912 -10.9076 Q-29.912 -9.3294 -29.2792 -8.1966 Q-28.6464 -7.0638 -27.1932 -7.0638 Q-26.6151 -7.0638 -26.1229 -7.3216 Q-25.6307 -7.5794 -25.2635 -8.0482 Q-24.8964 -8.5169 -24.7557 -9.0326 Q-24.7401 -9.1107 -24.6932 -9.1576 Q-24.6464 -9.2044 -24.5682 -9.2044 L-24.412 -9.2044 Q-24.2089 -9.2044 -24.2089 -8.9701 Q-24.4901 -7.8919 -25.3807 -7.1966 Q-26.2714 -6.5013 -27.3651 -6.5013 ZM-29.8964 -11.5794 L-25.5526 -11.5794 Q-25.5526 -12.2982 -25.7557 -13.0326 Q-25.9589 -13.7669 -26.4198 -14.2513 Q-26.8807 -14.7357 -27.6307 -14.7357 Q-28.7089 -14.7357 -29.3026 -13.7279 Q-29.8964 -12.7201 -29.8964 -11.5794 Z"
      /><path style="stroke:none;" d="M-23.2407 -6.7201 L-23.2407 -7.3919 Q-22.5844 -7.3919 -22.1704 -7.4935 Q-21.7563 -7.5951 -21.7563 -7.9857 L-21.7563 -13.1732 Q-21.7563 -13.6888 -21.9048 -13.9154 Q-22.0532 -14.1419 -22.3423 -14.1966 Q-22.6313 -14.2513 -23.2407 -14.2513 L-23.2407 -14.9076 L-20.4751 -15.1107 L-20.4751 -13.2669 Q-20.1001 -14.0794 -19.3501 -14.5951 Q-18.6001 -15.1107 -17.7251 -15.1107 Q-16.4126 -15.1107 -15.7485 -14.4857 Q-15.0844 -13.8607 -15.0844 -12.5482 L-15.0844 -7.9857 Q-15.0844 -7.5951 -14.6626 -7.4935 Q-14.2407 -7.3919 -13.6001 -7.3919 L-13.6001 -6.7201 L-17.9438 -6.7201 L-17.9438 -7.3919 Q-17.3032 -7.3919 -16.8813 -7.4935 Q-16.4594 -7.5951 -16.4594 -7.9857 L-16.4594 -12.5013 Q-16.4594 -13.4232 -16.7329 -14.0248 Q-17.0063 -14.6263 -17.8344 -14.6263 Q-18.9438 -14.6263 -19.6548 -13.7435 Q-20.3657 -12.8607 -20.3657 -11.7357 L-20.3657 -7.9857 Q-20.3657 -7.5951 -19.9438 -7.4935 Q-19.5219 -7.3919 -18.8813 -7.3919 L-18.8813 -6.7201 L-23.2407 -6.7201 Z"
      /><path style="stroke:none;" d="M-12.0138 -9.0013 L-12.0138 -14.2513 L-13.5919 -14.2513 L-13.5919 -14.7357 Q-12.3419 -14.7357 -11.756 -15.8919 Q-11.1701 -17.0482 -11.1701 -18.4076 L-10.6232 -18.4076 L-10.6232 -14.9076 L-7.9513 -14.9076 L-7.9513 -14.2513 L-10.6232 -14.2513 L-10.6232 -9.0326 Q-10.6232 -8.2513 -10.3654 -7.6576 Q-10.1076 -7.0638 -9.4201 -7.0638 Q-8.7638 -7.0638 -8.4748 -7.6888 Q-8.1857 -8.3138 -8.1857 -9.0326 L-8.1857 -10.1576 L-7.6388 -10.1576 L-7.6388 -9.0013 Q-7.6388 -8.4076 -7.8576 -7.8294 Q-8.0763 -7.2513 -8.506 -6.8763 Q-8.9357 -6.5013 -9.5451 -6.5013 Q-10.6857 -6.5013 -11.3498 -7.1888 Q-12.0138 -7.8763 -12.0138 -9.0013 Z"
      /><path style="stroke:none;" d="M0.0614 -9.8607 L0.0614 -10.5169 L5.9364 -19.2826 Q5.9989 -19.3763 6.1239 -19.3763 L6.4052 -19.3763 Q6.6239 -19.3763 6.6239 -19.1576 L6.6239 -10.5169 L8.4833 -10.5169 L8.4833 -9.8607 L6.6239 -9.8607 L6.6239 -7.9857 Q6.6239 -7.5951 7.1786 -7.4935 Q7.7333 -7.3919 8.4677 -7.3919 L8.4677 -6.7201 L3.2333 -6.7201 L3.2333 -7.3919 Q3.9677 -7.3919 4.5224 -7.4935 Q5.077 -7.5951 5.077 -7.9857 L5.077 -9.8607 L0.0614 -9.8607 ZM0.6864 -10.5169 L5.1864 -10.5169 L5.1864 -17.2513 L0.6864 -10.5169 Z"
      /><path style="stroke:none;" d="M20.9764 -2.0013 Q19.9139 -2.8451 19.1482 -3.9232 Q18.3826 -5.0013 17.8982 -6.2279 Q17.4139 -7.4544 17.1717 -8.7904 Q16.9295 -10.1263 16.9295 -11.4701 Q16.9295 -12.8294 17.1717 -14.1654 Q17.4139 -15.5013 17.9139 -16.7357 Q18.4139 -17.9701 19.1795 -19.0482 Q19.9451 -20.1263 20.9764 -20.9388 Q20.9764 -20.9701 21.0701 -20.9701 L21.242 -20.9701 Q21.3045 -20.9701 21.3514 -20.9154 Q21.3982 -20.8607 21.3982 -20.7982 Q21.3982 -20.7201 21.3514 -20.6888 Q20.4295 -19.7669 19.8123 -18.7279 Q19.1951 -17.6888 18.8201 -16.5169 Q18.4451 -15.3451 18.2811 -14.0873 Q18.117 -12.8294 18.117 -11.4701 Q18.117 -5.4232 21.3357 -2.2982 Q21.3982 -2.2357 21.3982 -2.1419 Q21.3982 -2.0951 21.3436 -2.0326 Q21.2889 -1.9701 21.242 -1.9701 L21.0701 -1.9701 Q20.9764 -1.9701 20.9764 -2.0013 Z"
      /><path style="stroke:none;" d="M21.8763 -3.0326 Q21.6888 -3.0326 21.6888 -3.2826 Q21.7669 -3.6888 21.9388 -3.6888 Q22.5325 -3.6888 22.7747 -3.7982 Q23.0169 -3.9076 23.1419 -4.3451 L25.2825 -12.8919 Q25.4232 -13.2513 25.4232 -13.8138 Q25.4232 -14.6263 24.8763 -14.6263 Q24.2825 -14.6263 23.9935 -13.9154 Q23.7044 -13.2044 23.4232 -12.1263 Q23.4232 -12.0013 23.2669 -12.0013 L23.0482 -12.0013 Q23.0013 -12.0013 22.9466 -12.0716 Q22.8919 -12.1419 22.8919 -12.1888 Q23.095 -13.0169 23.2825 -13.5951 Q23.47 -14.1732 23.8763 -14.6419 Q24.2825 -15.1107 24.8919 -15.1107 Q25.5325 -15.1107 26.0247 -14.7435 Q26.5169 -14.3763 26.6575 -13.7513 Q27.1732 -14.3607 27.806 -14.7357 Q28.4388 -15.1107 29.1107 -15.1107 Q29.9075 -15.1107 30.4935 -14.6888 Q31.0794 -14.2669 31.3763 -13.5716 Q31.6732 -12.8763 31.6732 -12.0794 Q31.6732 -10.8607 31.0482 -9.5482 Q30.4232 -8.2357 29.3528 -7.3685 Q28.2825 -6.5013 27.0638 -6.5013 Q26.5013 -6.5013 26.0482 -6.8216 Q25.595 -7.1419 25.345 -7.6419 L24.4857 -4.2669 Q24.4388 -3.9857 24.4388 -3.9388 Q24.4388 -3.6888 25.6888 -3.6888 Q25.8763 -3.6888 25.8763 -3.4544 Q25.8138 -3.2044 25.7747 -3.1185 Q25.7357 -3.0326 25.5482 -3.0326 L21.8763 -3.0326 ZM27.0794 -7.0013 Q27.7357 -7.0013 28.2982 -7.5482 Q28.8607 -8.0951 29.22 -8.7669 Q29.4857 -9.2826 29.7122 -10.0169 Q29.9388 -10.7513 30.1028 -11.5873 Q30.2669 -12.4232 30.2669 -12.9232 Q30.2669 -13.3607 30.1497 -13.7357 Q30.0325 -14.1107 29.7669 -14.3685 Q29.5013 -14.6263 29.0638 -14.6263 Q28.3763 -14.6263 27.7591 -14.1263 Q27.1419 -13.6263 26.6419 -12.8919 L26.6419 -12.8294 L25.595 -8.6419 Q25.72 -7.9701 26.095 -7.4857 Q26.47 -7.0013 27.0794 -7.0013 Z"
      /><path style="stroke:none;" d="M38.2499 -7.7826 Q38.0468 -7.7826 37.9843 -8.2669 L37.9843 -8.3763 Q37.9843 -9.2357 38.4061 -9.9466 Q38.828 -10.6576 39.5624 -11.0638 Q40.2968 -11.4701 41.1405 -11.4701 Q42.1561 -11.4701 43.2421 -10.8138 Q44.328 -10.1576 45.3905 -9.5013 Q46.453 -8.8451 47.4686 -8.8451 Q48.4374 -8.8451 49.2655 -9.4466 Q50.0936 -10.0482 50.0936 -11.0013 Q50.1405 -11.4701 50.3593 -11.4701 Q50.5624 -11.4701 50.6249 -11.0013 L50.6249 -10.8919 Q50.6249 -10.0169 50.1952 -9.306 Q49.7655 -8.5951 49.0389 -8.1888 Q48.3124 -7.7826 47.4686 -7.7826 Q46.6718 -7.7826 45.9686 -8.1107 Q45.2655 -8.4388 44.328 -9.0794 Q43.3905 -9.7201 42.6718 -10.0638 Q41.953 -10.4076 41.1405 -10.4076 Q40.5468 -10.4076 39.9218 -10.1341 Q39.2968 -9.8607 38.9061 -9.3763 Q38.5155 -8.8919 38.5155 -8.2669 Q38.4686 -7.7826 38.2499 -7.7826 ZM38.2499 -12.2201 Q38.0468 -12.2201 37.9843 -12.6888 L37.9843 -12.7982 Q37.9843 -13.6576 38.4061 -14.3763 Q38.828 -15.0951 39.5624 -15.4935 Q40.2968 -15.8919 41.1405 -15.8919 Q42.1561 -15.8919 43.2421 -15.2435 Q44.328 -14.5951 45.3905 -13.9388 Q46.453 -13.2826 47.4686 -13.2826 Q48.4374 -13.2826 49.2655 -13.8841 Q50.0936 -14.4857 50.0936 -15.4232 Q50.1405 -15.8919 50.3593 -15.8919 Q50.5624 -15.8919 50.6249 -15.4232 L50.6249 -15.3138 Q50.6249 -14.4544 50.1952 -13.7357 Q49.7655 -13.0169 49.0389 -12.6185 Q48.3124 -12.2201 47.4686 -12.2201 Q46.6718 -12.2201 45.9686 -12.5482 Q45.2655 -12.8763 44.328 -13.5091 Q43.3905 -14.1419 42.6718 -14.4857 Q41.953 -14.8294 41.1405 -14.8294 Q40.5468 -14.8294 39.9218 -14.5638 Q39.2968 -14.2982 38.9061 -13.806 Q38.5155 -13.3138 38.5155 -12.6888 Q38.4686 -12.2201 38.2499 -12.2201 Z"
      /><path style="stroke:none;" d="M61.3754 -6.2982 Q59.0472 -6.2982 58.2113 -8.2201 Q57.3754 -10.1419 57.3754 -12.7826 Q57.3754 -14.4232 57.6722 -15.8841 Q57.9691 -17.3451 58.8676 -18.3607 Q59.766 -19.3763 61.3754 -19.3763 Q62.6254 -19.3763 63.4222 -18.7669 Q64.2191 -18.1576 64.641 -17.181 Q65.0629 -16.2044 65.2113 -15.1029 Q65.3597 -14.0013 65.3597 -12.7826 Q65.3597 -11.1419 65.0629 -9.7201 Q64.766 -8.2982 63.8832 -7.2982 Q63.0004 -6.2982 61.3754 -6.2982 ZM61.3754 -6.7982 Q62.4379 -6.7982 62.9535 -7.8841 Q63.4691 -8.9701 63.5941 -10.2826 Q63.7191 -11.5951 63.7191 -13.0794 Q63.7191 -14.5169 63.5941 -15.7201 Q63.4691 -16.9232 62.9535 -17.8998 Q62.4379 -18.8763 61.3754 -18.8763 Q60.2972 -18.8763 59.7816 -17.8998 Q59.266 -16.9232 59.141 -15.7201 Q59.016 -14.5169 59.016 -13.0794 Q59.016 -12.0326 59.0707 -11.0951 Q59.1254 -10.1576 59.3441 -9.1576 Q59.5629 -8.1576 60.0629 -7.4779 Q60.5629 -6.7982 61.3754 -6.7982 Z"
      /><path style="stroke:none;" d="M67.5525 -7.7669 Q67.5525 -8.1888 67.8728 -8.5013 Q68.1931 -8.8138 68.5994 -8.8138 Q68.865 -8.8138 69.115 -8.6732 Q69.365 -8.5326 69.5056 -8.2826 Q69.6462 -8.0326 69.6462 -7.7669 Q69.6462 -7.3451 69.3416 -7.0326 Q69.0369 -6.7201 68.5994 -6.7201 Q68.1931 -6.7201 67.8728 -7.0326 Q67.5525 -7.3451 67.5525 -7.7669 Z"
      /><path style="stroke:none;" d="M75.8939 -6.2982 Q73.5658 -6.2982 72.7299 -8.2201 Q71.8939 -10.1419 71.8939 -12.7826 Q71.8939 -14.4232 72.1908 -15.8841 Q72.4877 -17.3451 73.3861 -18.3607 Q74.2846 -19.3763 75.8939 -19.3763 Q77.1439 -19.3763 77.9408 -18.7669 Q78.7377 -18.1576 79.1596 -17.181 Q79.5814 -16.2044 79.7299 -15.1029 Q79.8783 -14.0013 79.8783 -12.7826 Q79.8783 -11.1419 79.5814 -9.7201 Q79.2846 -8.2982 78.4017 -7.2982 Q77.5189 -6.2982 75.8939 -6.2982 ZM75.8939 -6.7982 Q76.9564 -6.7982 77.4721 -7.8841 Q77.9877 -8.9701 78.1127 -10.2826 Q78.2377 -11.5951 78.2377 -13.0794 Q78.2377 -14.5169 78.1127 -15.7201 Q77.9877 -16.9232 77.4721 -17.8998 Q76.9564 -18.8763 75.8939 -18.8763 Q74.8158 -18.8763 74.3002 -17.8998 Q73.7846 -16.9232 73.6596 -15.7201 Q73.5346 -14.5169 73.5346 -13.0794 Q73.5346 -12.0326 73.5892 -11.0951 Q73.6439 -10.1576 73.8627 -9.1576 Q74.0814 -8.1576 74.5814 -7.4779 Q75.0814 -6.7982 75.8939 -6.7982 Z"
      /><path style="stroke:none;" d="M85.2273 -6.2982 Q82.8992 -6.2982 82.0632 -8.2201 Q81.2273 -10.1419 81.2273 -12.7826 Q81.2273 -14.4232 81.5242 -15.8841 Q81.8211 -17.3451 82.7195 -18.3607 Q83.6179 -19.3763 85.2273 -19.3763 Q86.4773 -19.3763 87.2742 -18.7669 Q88.0711 -18.1576 88.4929 -17.181 Q88.9148 -16.2044 89.0632 -15.1029 Q89.2117 -14.0013 89.2117 -12.7826 Q89.2117 -11.1419 88.9148 -9.7201 Q88.6179 -8.2982 87.7351 -7.2982 Q86.8523 -6.2982 85.2273 -6.2982 ZM85.2273 -6.7982 Q86.2898 -6.7982 86.8054 -7.8841 Q87.3211 -8.9701 87.4461 -10.2826 Q87.5711 -11.5951 87.5711 -13.0794 Q87.5711 -14.5169 87.4461 -15.7201 Q87.3211 -16.9232 86.8054 -17.8998 Q86.2898 -18.8763 85.2273 -18.8763 Q84.1492 -18.8763 83.6336 -17.8998 Q83.1179 -16.9232 82.9929 -15.7201 Q82.8679 -14.5169 82.8679 -13.0794 Q82.8679 -12.0326 82.9226 -11.0951 Q82.9773 -10.1576 83.1961 -9.1576 Q83.4148 -8.1576 83.9148 -7.4779 Q84.4148 -6.7982 85.2273 -6.7982 Z"
      /><path style="stroke:none;" d="M94.5607 -6.2982 Q92.2325 -6.2982 91.3966 -8.2201 Q90.5607 -10.1419 90.5607 -12.7826 Q90.5607 -14.4232 90.8575 -15.8841 Q91.1544 -17.3451 92.0528 -18.3607 Q92.9513 -19.3763 94.5607 -19.3763 Q95.8107 -19.3763 96.6075 -18.7669 Q97.4044 -18.1576 97.8263 -17.181 Q98.2482 -16.2044 98.3966 -15.1029 Q98.545 -14.0013 98.545 -12.7826 Q98.545 -11.1419 98.2482 -9.7201 Q97.9513 -8.2982 97.0685 -7.2982 Q96.1857 -6.2982 94.5607 -6.2982 ZM94.5607 -6.7982 Q95.6232 -6.7982 96.1388 -7.8841 Q96.6544 -8.9701 96.7794 -10.2826 Q96.9044 -11.5951 96.9044 -13.0794 Q96.9044 -14.5169 96.7794 -15.7201 Q96.6544 -16.9232 96.1388 -17.8998 Q95.6232 -18.8763 94.5607 -18.8763 Q93.4825 -18.8763 92.9669 -17.8998 Q92.4513 -16.9232 92.3263 -15.7201 Q92.2013 -14.5169 92.2013 -13.0794 Q92.2013 -12.0326 92.256 -11.0951 Q92.3107 -10.1576 92.5294 -9.1576 Q92.7482 -8.1576 93.2482 -7.4779 Q93.7482 -6.7982 94.5607 -6.7982 Z"
      /><path style="stroke:none;" d="M103.894 -6.2982 Q102.7221 -6.2982 101.9331 -6.9232 Q101.144 -7.5482 100.7065 -8.5482 Q100.269 -9.5482 100.105 -10.6419 Q99.9409 -11.7357 99.9409 -12.8607 Q99.9409 -14.3607 100.5268 -15.8763 Q101.1128 -17.3919 102.2456 -18.3841 Q103.3784 -19.3763 104.9409 -19.3763 Q105.5971 -19.3763 106.1596 -19.1263 Q106.7221 -18.8763 107.0346 -18.3998 Q107.3471 -17.9232 107.3471 -17.2513 Q107.3471 -16.8607 107.0893 -16.5951 Q106.8315 -16.3294 106.4409 -16.3294 Q106.0659 -16.3294 105.8003 -16.6029 Q105.5346 -16.8763 105.5346 -17.2513 Q105.5346 -17.6263 105.8003 -17.8919 Q106.0659 -18.1576 106.4409 -18.1576 L106.5346 -18.1576 Q106.3003 -18.5013 105.855 -18.6654 Q105.4096 -18.8294 104.9409 -18.8294 Q104.3628 -18.8294 103.8784 -18.5794 Q103.394 -18.3294 103.0034 -17.8998 Q102.6128 -17.4701 102.355 -16.9544 Q102.0971 -16.4388 101.9487 -15.7826 Q101.8003 -15.1263 101.769 -14.5482 Q101.7378 -13.9701 101.7378 -13.1107 Q102.0659 -13.8763 102.6753 -14.3763 Q103.2846 -14.8763 104.0659 -14.8763 Q104.9096 -14.8763 105.605 -14.5326 Q106.3003 -14.1888 106.8003 -13.5794 Q107.3003 -12.9701 107.5659 -12.1888 Q107.8315 -11.4076 107.8315 -10.6107 Q107.8315 -9.5013 107.3315 -8.4935 Q106.8315 -7.4857 105.9331 -6.8919 Q105.0346 -6.2982 103.894 -6.2982 ZM103.894 -6.9076 Q104.6284 -6.9076 105.0737 -7.2435 Q105.519 -7.5794 105.73 -8.1263 Q105.9409 -8.6732 105.9878 -9.2357 Q106.0346 -9.7982 106.0346 -10.6107 Q106.0346 -11.6888 105.9331 -12.4544 Q105.8315 -13.2201 105.3784 -13.7982 Q104.9253 -14.3763 103.9878 -14.3763 Q103.2221 -14.3763 102.7221 -13.8529 Q102.2221 -13.3294 101.9956 -12.5404 Q101.769 -11.7513 101.769 -11.0169 Q101.769 -10.7669 101.7846 -10.6419 Q101.7846 -10.6107 101.7846 -10.5873 Q101.7846 -10.5638 101.769 -10.5482 Q101.769 -9.7201 101.9331 -8.8919 Q102.0971 -8.0638 102.5737 -7.4857 Q103.0503 -6.9076 103.894 -6.9076 Z"
      /><path style="stroke:none;" d="M109.7118 -1.9701 Q109.5399 -1.9701 109.5399 -2.1419 Q109.5399 -2.2201 109.5868 -2.2513 Q112.8211 -5.4232 112.8211 -11.4701 Q112.8211 -17.5169 109.618 -20.6419 Q109.5399 -20.6888 109.5399 -20.7982 Q109.5399 -20.8607 109.5946 -20.9154 Q109.6493 -20.9701 109.7118 -20.9701 L109.8836 -20.9701 Q109.9461 -20.9701 109.9774 -20.9388 Q111.3368 -19.8607 112.2508 -18.3216 Q113.1649 -16.7826 113.5868 -15.0326 Q114.0086 -13.2826 114.0086 -11.4701 Q114.0086 -10.1263 113.7821 -8.8216 Q113.5555 -7.5169 113.0555 -6.2513 Q112.5555 -4.9857 111.7977 -3.9154 Q111.0399 -2.8451 109.9774 -2.0013 Q109.9461 -1.9701 109.8836 -1.9701 L109.7118 -1.9701 Z"
    /></g
    ><g style="fill-opacity:0.6; fill:rgb(0,114,189); text-rendering:optimizeSpeed; image-rendering:optimizeSpeed; color-rendering:optimizeSpeed; shape-rendering:crispEdges; stroke:rgb(0,114,189); color-interpolation:sRGB; stroke-opacity:0.6;"
    ><path style="stroke:none;" d="M218.3333 374 L218.3333 365.0771 L136.1667 365.0771 L136.1667 374 ZM300.5 374 L300.5 208.4314 L218.3333 208.4314 L218.3333 374 ZM382.6667 374 L382.6667 84.5029 L300.5 84.5029 L300.5 374 ZM464.8333 374 L464.8333 344.2571 L382.6667 344.2571 L382.6667 374 ZM547 374 L547 372.0172 L464.8333 372.0172 L464.8333 374 Z"
    /></g
    ><g style="text-rendering:geometricPrecision; stroke-width:0.6667; color-interpolation:linearRGB; color-rendering:optimizeQuality; image-rendering:optimizeQuality;"
    ><path d="M54 374 L54 374 L136.1667 374" style="fill:none; fill-rule:evenodd;"
      /><path d="M136.1667 374 L136.1667 374 L136.1667 365.0771 L218.3333 365.0771" style="fill:none; fill-rule:evenodd;"
      /><path d="M218.3333 374 L218.3333 374 L218.3333 208.4314 L300.5 208.4314" style="fill:none; fill-rule:evenodd;"
      /><path d="M300.5 374 L300.5 374 L300.5 84.5029 L382.6667 84.5029 L382.6667 374 L382.6667 374" style="fill:none; fill-rule:evenodd;"
      /><path d="M382.6667 344.2571 L464.8333 344.2571 L464.8333 374 L464.8333 374" style="fill:none; fill-rule:evenodd;"
      /><path d="M464.8333 372.0172 L547 372.0172 L547 374" style="fill:none; fill-rule:evenodd;"
    /></g
    ><g style="stroke-linecap:butt; fill:rgb(217,83,25); text-rendering:geometricPrecision; image-rendering:optimizeQuality; color-rendering:optimizeQuality; stroke-linejoin:round; stroke:rgb(217,83,25); color-interpolation:linearRGB; stroke-width:0.6667;"
    ><path d="M53.9412 373.9993 L58.1474 373.999 L64.7874 373.9981 L71.4273 373.9964 L78.0673 373.9934 L84.7072 373.9881 L91.3471 373.9788 L97.9871 373.963 L104.627 373.9364 L111.2669 373.8926 L117.9069 373.8216 L124.5468 373.7084 L131.1867 373.5313 L137.8266 373.2593 L144.4666 372.8487 L151.1065 372.24 L157.7464 371.3539 L164.3864 370.0877 L171.0263 368.3112 L177.6662 365.8648 L184.3062 362.5587 L190.9461 358.1751 L197.586 352.4741 L204.226 345.2034 L210.8659 336.1141 L217.5058 324.9801 L224.1408 311.6229 L230.7807 295.9388 L237.4206 277.9265 L244.0606 257.7135 L250.7005 235.5756 L257.3404 211.9482 L263.9804 187.4253 L270.6203 162.7438 L277.2602 138.7532 L283.9002 116.3703 L290.5401 96.5237 L297.18 80.0906 L303.82 67.8327 L310.4599 60.338 L317.0998 57.9741 L323.7398 60.858 L330.3797 68.847 L337.0196 81.55 L343.6596 98.3593 L350.2995 118.4988 L356.9394 141.0835 L363.5794 165.1833 L370.2193 189.8855 L376.8592 214.3502 L383.4941 237.8535 L390.1341 259.8167 L396.774 279.8206 L403.4139 297.6046 L410.0539 313.0552 L416.6938 326.1851 L423.3337 337.1066 L429.9737 346.0044 L436.6136 353.1075 L443.2535 358.6663 L449.8935 362.9321 L456.5334 366.1433 L463.1733 368.5151 L469.8133 370.2342 L476.4532 371.4572 L483.0931 372.3115 L489.7331 372.8973 L496.373 373.2917 L503.0129 373.5526 L509.6529 373.7221 L516.2928 373.8302 L522.9327 373.898 L529.5727 373.9397 L536.2126 373.965 L542.8525 373.98 L547.0588 373.9855" style="fill:none; fill-rule:evenodd;"
      /><line x1="54" x2="547" y1="374" style="stroke-linecap:square; fill:none; stroke:rgb(38,38,38);" y2="374"
      /><line x1="54" x2="547" y1="27" style="stroke-linecap:square; fill:none; stroke:rgb(38,38,38);" y2="27"
      /><line x1="54" x2="54" y1="374" style="stroke-linecap:square; fill:none; stroke:rgb(38,38,38);" y2="369.07"
      /><line x1="136.1667" x2="136.1667" y1="374" style="stroke-linecap:square; fill:none; stroke:rgb(38,38,38);" y2="369.07"
      /><line x1="218.3333" x2="218.3333" y1="374" style="stroke-linecap:square; fill:none; stroke:rgb(38,38,38);" y2="369.07"
      /><line x1="300.5" x2="300.5" y1="374" style="stroke-linecap:square; fill:none; stroke:rgb(38,38,38);" y2="369.07"
      /><line x1="382.6667" x2="382.6667" y1="374" style="stroke-linecap:square; fill:none; stroke:rgb(38,38,38);" y2="369.07"
      /><line x1="464.8333" x2="464.8333" y1="374" style="stroke-linecap:square; fill:none; stroke:rgb(38,38,38);" y2="369.07"
      /><line x1="547" x2="547" y1="374" style="stroke-linecap:square; fill:none; stroke:rgb(38,38,38);" y2="369.07"
      /><line x1="54" x2="54" y1="27" style="stroke-linecap:square; fill:none; stroke:rgb(38,38,38);" y2="31.93"
      /><line x1="136.1667" x2="136.1667" y1="27" style="stroke-linecap:square; fill:none; stroke:rgb(38,38,38);" y2="31.93"
      /><line x1="218.3333" x2="218.3333" y1="27" style="stroke-linecap:square; fill:none; stroke:rgb(38,38,38);" y2="31.93"
      /><line x1="300.5" x2="300.5" y1="27" style="stroke-linecap:square; fill:none; stroke:rgb(38,38,38);" y2="31.93"
      /><line x1="382.6667" x2="382.6667" y1="27" style="stroke-linecap:square; fill:none; stroke:rgb(38,38,38);" y2="31.93"
      /><line x1="464.8333" x2="464.8333" y1="27" style="stroke-linecap:square; fill:none; stroke:rgb(38,38,38);" y2="31.93"
      /><line x1="547" x2="547" y1="27" style="stroke-linecap:square; fill:none; stroke:rgb(38,38,38);" y2="31.93"
    /></g
    ><g transform="translate(54,379.3333)" style="font-size:13.3333px; fill:rgb(38,38,38); text-rendering:geometricPrecision; image-rendering:optimizeQuality; color-rendering:optimizeQuality; font-family:'SansSerif'; stroke:rgb(38,38,38); color-interpolation:linearRGB;"
    ><path style="stroke:none;" d="M-11.9375 3.5156 L-5.8438 3.5156 L-5.8438 4.0625 L-9.2812 13 L-10.625 13 L-7.375 4.6094 L-11.9375 4.6094 L-11.9375 3.5156 ZM-3.1239 3.5156 L1.9073 3.5156 L1.9073 4.6094 L-1.9521 4.6094 L-1.9521 6.9219 Q-1.6708 6.8281 -1.3896 6.7812 Q-1.1083 6.7344 -0.8427 6.7344 Q0.7511 6.7344 1.6808 7.6016 Q2.6104 8.4688 2.6104 9.9531 Q2.6104 11.4844 1.6573 12.3359 Q0.7042 13.1875 -1.0302 13.1875 Q-1.6239 13.1875 -2.2489 13.0859 Q-2.8739 12.9844 -3.5302 12.7812 L-3.5302 11.4844 Q-2.9521 11.7969 -2.3427 11.9531 Q-1.7333 12.1094 -1.0614 12.1094 Q0.0479 12.1094 0.6886 11.5312 Q1.3292 10.9531 1.3292 9.9531 Q1.3292 8.9688 0.6886 8.3906 Q0.0479 7.8125 -1.0614 7.8125 Q-1.5771 7.8125 -2.0849 7.9297 Q-2.5927 8.0469 -3.1239 8.2812 L-3.1239 3.5156 ZM6.4396 11.9219 L10.9084 11.9219 L10.9084 13 L4.8928 13 L4.8928 11.9219 Q5.6271 11.1719 6.8849 9.8984 Q8.1428 8.625 8.4709 8.25 Q9.0803 7.5625 9.3224 7.0781 Q9.5646 6.5938 9.5646 6.1406 Q9.5646 5.375 9.0412 4.9062 Q8.5178 4.4375 7.6584 4.4375 Q7.049 4.4375 6.3849 4.6406 Q5.7209 4.8438 4.9553 5.2812 L4.9553 3.9844 Q5.7365 3.6719 6.4084 3.5078 Q7.0803 3.3438 7.6271 3.3438 Q9.1115 3.3438 9.9865 4.0859 Q10.8615 4.8281 10.8615 6.0625 Q10.8615 6.6406 10.6428 7.1641 Q10.424 7.6875 9.8459 8.3906 Q9.6896 8.5781 8.8381 9.4609 Q7.9865 10.3438 6.4396 11.9219 Z"
    /></g
    ><g transform="translate(136.1667,379.3333)" style="font-size:13.3333px; fill:rgb(38,38,38); text-rendering:geometricPrecision; image-rendering:optimizeQuality; color-rendering:optimizeQuality; font-family:'SansSerif'; stroke:rgb(38,38,38); color-interpolation:linearRGB;"
    ><path style="stroke:none;" d="M-11.9375 3.5156 L-5.8438 3.5156 L-5.8438 4.0625 L-9.2812 13 L-10.625 13 L-7.375 4.6094 L-11.9375 4.6094 L-11.9375 3.5156 ZM-3.1239 3.5156 L1.9073 3.5156 L1.9073 4.6094 L-1.9521 4.6094 L-1.9521 6.9219 Q-1.6708 6.8281 -1.3896 6.7812 Q-1.1083 6.7344 -0.8427 6.7344 Q0.7511 6.7344 1.6808 7.6016 Q2.6104 8.4688 2.6104 9.9531 Q2.6104 11.4844 1.6573 12.3359 Q0.7042 13.1875 -1.0302 13.1875 Q-1.6239 13.1875 -2.2489 13.0859 Q-2.8739 12.9844 -3.5302 12.7812 L-3.5302 11.4844 Q-2.9521 11.7969 -2.3427 11.9531 Q-1.7333 12.1094 -1.0614 12.1094 Q0.0479 12.1094 0.6886 11.5312 Q1.3292 10.9531 1.3292 9.9531 Q1.3292 8.9688 0.6886 8.3906 Q0.0479 7.8125 -1.0614 7.8125 Q-1.5771 7.8125 -2.0849 7.9297 Q-2.5927 8.0469 -3.1239 8.2812 L-3.1239 3.5156 ZM9.2209 7.8906 Q10.1428 8.0938 10.6584 8.7109 Q11.174 9.3281 11.174 10.25 Q11.174 11.6406 10.2053 12.4141 Q9.2365 13.1875 7.4553 13.1875 Q6.8615 13.1875 6.2287 13.0703 Q5.5959 12.9531 4.924 12.7188 L4.924 11.4688 Q5.4709 11.7812 6.1037 11.9453 Q6.7365 12.1094 7.424 12.1094 Q8.6271 12.1094 9.2599 11.6328 Q9.8928 11.1562 9.8928 10.25 Q9.8928 9.4062 9.3068 8.9375 Q8.7209 8.4688 7.674 8.4688 L6.5646 8.4688 L6.5646 7.4062 L7.7209 7.4062 Q8.674 7.4062 9.174 7.0312 Q9.674 6.6562 9.674 5.9375 Q9.674 5.2188 9.1584 4.8281 Q8.6428 4.4375 7.674 4.4375 Q7.1428 4.4375 6.5412 4.5469 Q5.9396 4.6562 5.2209 4.9062 L5.2209 3.75 Q5.9396 3.5469 6.5803 3.4453 Q7.2209 3.3438 7.7834 3.3438 Q9.2521 3.3438 10.1037 4.0078 Q10.9553 4.6719 10.9553 5.8125 Q10.9553 6.5938 10.5021 7.1406 Q10.049 7.6875 9.2209 7.8906 Z"
    /></g
    ><g transform="translate(218.3333,379.3333)" style="font-size:13.3333px; fill:rgb(38,38,38); text-rendering:geometricPrecision; image-rendering:optimizeQuality; color-rendering:optimizeQuality; font-family:'SansSerif'; stroke:rgb(38,38,38); color-interpolation:linearRGB;"
    ><path style="stroke:none;" d="M-11.9375 3.5156 L-5.8438 3.5156 L-5.8438 4.0625 L-9.2812 13 L-10.625 13 L-7.375 4.6094 L-11.9375 4.6094 L-11.9375 3.5156 ZM-3.1239 3.5156 L1.9073 3.5156 L1.9073 4.6094 L-1.9521 4.6094 L-1.9521 6.9219 Q-1.6708 6.8281 -1.3896 6.7812 Q-1.1083 6.7344 -0.8427 6.7344 Q0.7511 6.7344 1.6808 7.6016 Q2.6104 8.4688 2.6104 9.9531 Q2.6104 11.4844 1.6573 12.3359 Q0.7042 13.1875 -1.0302 13.1875 Q-1.6239 13.1875 -2.2489 13.0859 Q-2.8739 12.9844 -3.5302 12.7812 L-3.5302 11.4844 Q-2.9521 11.7969 -2.3427 11.9531 Q-1.7333 12.1094 -1.0614 12.1094 Q0.0479 12.1094 0.6886 11.5312 Q1.3292 10.9531 1.3292 9.9531 Q1.3292 8.9688 0.6886 8.3906 Q0.0479 7.8125 -1.0614 7.8125 Q-1.5771 7.8125 -2.0849 7.9297 Q-2.5927 8.0469 -3.1239 8.2812 L-3.1239 3.5156 ZM8.8459 4.6406 L5.6115 9.7031 L8.8459 9.7031 L8.8459 4.6406 ZM8.5178 3.5156 L10.1271 3.5156 L10.1271 9.7031 L11.4865 9.7031 L11.4865 10.7656 L10.1271 10.7656 L10.1271 13 L8.8459 13 L8.8459 10.7656 L4.5803 10.7656 L4.5803 9.5312 L8.5178 3.5156 Z"
    /></g
    ><g transform="translate(300.5,379.3333)" style="font-size:13.3333px; fill:rgb(38,38,38); text-rendering:geometricPrecision; image-rendering:optimizeQuality; color-rendering:optimizeQuality; font-family:'SansSerif'; stroke:rgb(38,38,38); color-interpolation:linearRGB;"
    ><path style="stroke:none;" d="M-11.9375 3.5156 L-5.8438 3.5156 L-5.8438 4.0625 L-9.2812 13 L-10.625 13 L-7.375 4.6094 L-11.9375 4.6094 L-11.9375 3.5156 ZM-3.1239 3.5156 L1.9073 3.5156 L1.9073 4.6094 L-1.9521 4.6094 L-1.9521 6.9219 Q-1.6708 6.8281 -1.3896 6.7812 Q-1.1083 6.7344 -0.8427 6.7344 Q0.7511 6.7344 1.6808 7.6016 Q2.6104 8.4688 2.6104 9.9531 Q2.6104 11.4844 1.6573 12.3359 Q0.7042 13.1875 -1.0302 13.1875 Q-1.6239 13.1875 -2.2489 13.0859 Q-2.8739 12.9844 -3.5302 12.7812 L-3.5302 11.4844 Q-2.9521 11.7969 -2.3427 11.9531 Q-1.7333 12.1094 -1.0614 12.1094 Q0.0479 12.1094 0.6886 11.5312 Q1.3292 10.9531 1.3292 9.9531 Q1.3292 8.9688 0.6886 8.3906 Q0.0479 7.8125 -1.0614 7.8125 Q-1.5771 7.8125 -2.0849 7.9297 Q-2.5927 8.0469 -3.1239 8.2812 L-3.1239 3.5156 ZM5.3459 3.5156 L10.3771 3.5156 L10.3771 4.6094 L6.5178 4.6094 L6.5178 6.9219 Q6.799 6.8281 7.0803 6.7812 Q7.3615 6.7344 7.6271 6.7344 Q9.2209 6.7344 10.1506 7.6016 Q11.0803 8.4688 11.0803 9.9531 Q11.0803 11.4844 10.1271 12.3359 Q9.174 13.1875 7.4396 13.1875 Q6.8459 13.1875 6.2209 13.0859 Q5.5959 12.9844 4.9396 12.7812 L4.9396 11.4844 Q5.5178 11.7969 6.1271 11.9531 Q6.7365 12.1094 7.4084 12.1094 Q8.5178 12.1094 9.1584 11.5312 Q9.799 10.9531 9.799 9.9531 Q9.799 8.9688 9.1584 8.3906 Q8.5178 7.8125 7.4084 7.8125 Q6.8928 7.8125 6.3849 7.9297 Q5.8771 8.0469 5.3459 8.2812 L5.3459 3.5156 Z"
    /></g
    ><g transform="translate(382.6667,379.3333)" style="font-size:13.3333px; fill:rgb(38,38,38); text-rendering:geometricPrecision; image-rendering:optimizeQuality; color-rendering:optimizeQuality; font-family:'SansSerif'; stroke:rgb(38,38,38); color-interpolation:linearRGB;"
    ><path style="stroke:none;" d="M-11.9375 3.5156 L-5.8438 3.5156 L-5.8438 4.0625 L-9.2812 13 L-10.625 13 L-7.375 4.6094 L-11.9375 4.6094 L-11.9375 3.5156 ZM-3.1239 3.5156 L1.9073 3.5156 L1.9073 4.6094 L-1.9521 4.6094 L-1.9521 6.9219 Q-1.6708 6.8281 -1.3896 6.7812 Q-1.1083 6.7344 -0.8427 6.7344 Q0.7511 6.7344 1.6808 7.6016 Q2.6104 8.4688 2.6104 9.9531 Q2.6104 11.4844 1.6573 12.3359 Q0.7042 13.1875 -1.0302 13.1875 Q-1.6239 13.1875 -2.2489 13.0859 Q-2.8739 12.9844 -3.5302 12.7812 L-3.5302 11.4844 Q-2.9521 11.7969 -2.3427 11.9531 Q-1.7333 12.1094 -1.0614 12.1094 Q0.0479 12.1094 0.6886 11.5312 Q1.3292 10.9531 1.3292 9.9531 Q1.3292 8.9688 0.6886 8.3906 Q0.0479 7.8125 -1.0614 7.8125 Q-1.5771 7.8125 -2.0849 7.9297 Q-2.5927 8.0469 -3.1239 8.2812 L-3.1239 3.5156 ZM8.2365 7.75 Q7.3615 7.75 6.8615 8.3438 Q6.3615 8.9375 6.3615 9.9531 Q6.3615 10.9844 6.8615 11.5781 Q7.3615 12.1719 8.2365 12.1719 Q9.0959 12.1719 9.5959 11.5781 Q10.0959 10.9844 10.0959 9.9531 Q10.0959 8.9375 9.5959 8.3438 Q9.0959 7.75 8.2365 7.75 ZM10.7834 3.7344 L10.7834 4.9062 Q10.299 4.6719 9.8068 4.5547 Q9.3146 4.4375 8.8303 4.4375 Q7.5646 4.4375 6.8928 5.2891 Q6.2209 6.1406 6.1271 7.875 Q6.5021 7.3281 7.0646 7.0312 Q7.6271 6.7344 8.3146 6.7344 Q9.7365 6.7344 10.5646 7.6016 Q11.3928 8.4688 11.3928 9.9531 Q11.3928 11.4219 10.5256 12.3047 Q9.6584 13.1875 8.2365 13.1875 Q6.5803 13.1875 5.7131 11.9219 Q4.8459 10.6562 4.8459 8.2656 Q4.8459 6.0312 5.9162 4.6875 Q6.9865 3.3438 8.7834 3.3438 Q9.2521 3.3438 9.7443 3.4453 Q10.2365 3.5469 10.7834 3.7344 Z"
    /></g
    ><g transform="translate(464.8333,379.3333)" style="font-size:13.3333px; fill:rgb(38,38,38); text-rendering:geometricPrecision; image-rendering:optimizeQuality; color-rendering:optimizeQuality; font-family:'SansSerif'; stroke:rgb(38,38,38); color-interpolation:linearRGB;"
    ><path style="stroke:none;" d="M-11.9375 3.5156 L-5.8438 3.5156 L-5.8438 4.0625 L-9.2812 13 L-10.625 13 L-7.375 4.6094 L-11.9375 4.6094 L-11.9375 3.5156 ZM-3.1239 3.5156 L1.9073 3.5156 L1.9073 4.6094 L-1.9521 4.6094 L-1.9521 6.9219 Q-1.6708 6.8281 -1.3896 6.7812 Q-1.1083 6.7344 -0.8427 6.7344 Q0.7511 6.7344 1.6808 7.6016 Q2.6104 8.4688 2.6104 9.9531 Q2.6104 11.4844 1.6573 12.3359 Q0.7042 13.1875 -1.0302 13.1875 Q-1.6239 13.1875 -2.2489 13.0859 Q-2.8739 12.9844 -3.5302 12.7812 L-3.5302 11.4844 Q-2.9521 11.7969 -2.3427 11.9531 Q-1.7333 12.1094 -1.0614 12.1094 Q0.0479 12.1094 0.6886 11.5312 Q1.3292 10.9531 1.3292 9.9531 Q1.3292 8.9688 0.6886 8.3906 Q0.0479 7.8125 -1.0614 7.8125 Q-1.5771 7.8125 -2.0849 7.9297 Q-2.5927 8.0469 -3.1239 8.2812 L-3.1239 3.5156 ZM5.0021 3.5156 L11.0959 3.5156 L11.0959 4.0625 L7.6584 13 L6.3146 13 L9.5646 4.6094 L5.0021 4.6094 L5.0021 3.5156 Z"
    /></g
    ><g transform="translate(547,379.3333)" style="font-size:13.3333px; fill:rgb(38,38,38); text-rendering:geometricPrecision; image-rendering:optimizeQuality; color-rendering:optimizeQuality; font-family:'SansSerif'; stroke:rgb(38,38,38); color-interpolation:linearRGB;"
    ><path style="stroke:none;" d="M-11.9375 3.5156 L-5.8438 3.5156 L-5.8438 4.0625 L-9.2812 13 L-10.625 13 L-7.375 4.6094 L-11.9375 4.6094 L-11.9375 3.5156 ZM-3.1239 3.5156 L1.9073 3.5156 L1.9073 4.6094 L-1.9521 4.6094 L-1.9521 6.9219 Q-1.6708 6.8281 -1.3896 6.7812 Q-1.1083 6.7344 -0.8427 6.7344 Q0.7511 6.7344 1.6808 7.6016 Q2.6104 8.4688 2.6104 9.9531 Q2.6104 11.4844 1.6573 12.3359 Q0.7042 13.1875 -1.0302 13.1875 Q-1.6239 13.1875 -2.2489 13.0859 Q-2.8739 12.9844 -3.5302 12.7812 L-3.5302 11.4844 Q-2.9521 11.7969 -2.3427 11.9531 Q-1.7333 12.1094 -1.0614 12.1094 Q0.0479 12.1094 0.6886 11.5312 Q1.3292 10.9531 1.3292 9.9531 Q1.3292 8.9688 0.6886 8.3906 Q0.0479 7.8125 -1.0614 7.8125 Q-1.5771 7.8125 -2.0849 7.9297 Q-2.5927 8.0469 -3.1239 8.2812 L-3.1239 3.5156 ZM8.0646 8.5 Q7.1584 8.5 6.6349 8.9922 Q6.1115 9.4844 6.1115 10.3281 Q6.1115 11.1875 6.6349 11.6797 Q7.1584 12.1719 8.0646 12.1719 Q8.9865 12.1719 9.5099 11.6797 Q10.0334 11.1875 10.0334 10.3281 Q10.0334 9.4844 9.5099 8.9922 Q8.9865 8.5 8.0646 8.5 ZM6.7834 7.9531 Q5.9709 7.75 5.5099 7.1875 Q5.049 6.625 5.049 5.8125 Q5.049 4.6719 5.8537 4.0078 Q6.6584 3.3438 8.0646 3.3438 Q9.4865 3.3438 10.2912 4.0078 Q11.0959 4.6719 11.0959 5.8125 Q11.0959 6.625 10.6349 7.1875 Q10.174 7.75 9.3615 7.9531 Q10.2834 8.1719 10.799 8.7969 Q11.3146 9.4219 11.3146 10.3281 Q11.3146 11.7188 10.4787 12.4531 Q9.6428 13.1875 8.0646 13.1875 Q6.5021 13.1875 5.6584 12.4531 Q4.8146 11.7188 4.8146 10.3281 Q4.8146 9.4219 5.3381 8.7969 Q5.8615 8.1719 6.7834 7.9531 ZM6.3146 5.9219 Q6.3146 6.6719 6.7756 7.0781 Q7.2365 7.4844 8.0646 7.4844 Q8.8928 7.4844 9.3615 7.0781 Q9.8303 6.6719 9.8303 5.9219 Q9.8303 5.1875 9.3615 4.7734 Q8.8928 4.3594 8.0646 4.3594 Q7.2365 4.3594 6.7756 4.7734 Q6.3146 5.1875 6.3146 5.9219 Z"
    /></g
    ><g transform="translate(300.5,397.6667)" style="font-size:18.6667px; fill:rgb(38,38,38); text-rendering:geometricPrecision; image-rendering:optimizeQuality; color-rendering:optimizeQuality; font-family:'mwa_cmmi10'; stroke:rgb(38,38,38); color-interpolation:linearRGB;"
    ><path style="stroke:none;" d="M-7.626 15.6799 Q-7.8135 15.6799 -7.8135 15.4299 Q-7.7979 15.3831 -7.7745 15.2659 Q-7.751 15.1487 -7.6963 15.0784 Q-7.6416 15.0081 -7.5635 15.0081 Q-5.751 15.0081 -5.4541 13.8518 L-2.876 3.4612 Q-3.4073 3.3674 -4.5479 3.3674 Q-4.7354 3.3674 -4.7354 3.1174 Q-4.7198 3.0706 -4.6963 2.9534 Q-4.6729 2.8362 -4.6182 2.7659 Q-4.5635 2.6956 -4.4854 2.6956 L-1.2041 2.6956 Q-1.0635 2.6956 -1.0323 2.8206 L3.1865 12.8674 L5.2959 4.4612 Q5.3271 4.2424 5.3271 4.1643 Q5.3271 3.3674 3.874 3.3674 Q3.6865 3.3674 3.6865 3.1174 Q3.749 2.8831 3.788 2.7893 Q3.8271 2.6956 4.0146 2.6956 L8.0771 2.6956 Q8.2646 2.6956 8.2646 2.9456 Q8.249 2.9924 8.2177 3.1096 Q8.1865 3.2268 8.1396 3.2971 Q8.0927 3.3674 8.0146 3.3674 Q6.2021 3.3674 5.9052 4.5237 L3.1709 15.5081 Q3.1084 15.6799 2.9834 15.6799 L2.749 15.6799 Q2.624 15.6799 2.5771 15.5549 L-2.2666 4.0549 L-2.2979 3.9299 Q-2.3448 3.8987 -2.3448 3.8831 L-4.8448 13.9299 Q-4.876 13.9768 -4.8838 14.0471 Q-4.8916 14.1174 -4.9073 14.2112 Q-4.9073 14.7112 -4.4776 14.8596 Q-4.0479 15.0081 -3.4229 15.0081 Q-3.2354 15.0081 -3.2354 15.2581 Q-3.2979 15.5237 -3.3448 15.6018 Q-3.3916 15.6799 -3.5479 15.6799 L-7.626 15.6799 Z"
    /></g
    ><g style="fill:rgb(38,38,38); text-rendering:geometricPrecision; image-rendering:optimizeQuality; color-rendering:optimizeQuality; stroke-linejoin:round; stroke:rgb(38,38,38); color-interpolation:linearRGB; stroke-width:0.6667;"
    ><line y2="27" style="fill:none;" x1="54" x2="54" y1="374"
      /><line y2="27" style="fill:none;" x1="547" x2="547" y1="374"
      /><line y2="374" style="fill:none;" x1="54" x2="58.9298" y1="374"
      /><line y2="324.4286" style="fill:none;" x1="54" x2="58.9298" y1="324.4286"
      /><line y2="274.8571" style="fill:none;" x1="54" x2="58.9298" y1="274.8571"
      /><line y2="225.2857" style="fill:none;" x1="54" x2="58.9298" y1="225.2857"
      /><line y2="175.7143" style="fill:none;" x1="54" x2="58.9298" y1="175.7143"
      /><line y2="126.1429" style="fill:none;" x1="54" x2="58.9298" y1="126.1429"
      /><line y2="76.5714" style="fill:none;" x1="54" x2="58.9298" y1="76.5714"
      /><line y2="27" style="fill:none;" x1="54" x2="58.9298" y1="27"
      /><line y2="374" style="fill:none;" x1="547" x2="542.0702" y1="374"
      /><line y2="324.4286" style="fill:none;" x1="547" x2="542.0702" y1="324.4286"
      /><line y2="274.8571" style="fill:none;" x1="547" x2="542.0702" y1="274.8571"
      /><line y2="225.2857" style="fill:none;" x1="547" x2="542.0702" y1="225.2857"
      /><line y2="175.7143" style="fill:none;" x1="547" x2="542.0702" y1="175.7143"
      /><line y2="126.1429" style="fill:none;" x1="547" x2="542.0702" y1="126.1429"
      /><line y2="76.5714" style="fill:none;" x1="547" x2="542.0702" y1="76.5714"
      /><line y2="27" style="fill:none;" x1="547" x2="542.0702" y1="27"
    /></g
    ><g transform="translate(48.669,374)" style="font-size:13.3333px; fill:rgb(38,38,38); text-rendering:geometricPrecision; image-rendering:optimizeQuality; color-rendering:optimizeQuality; font-family:'SansSerif'; stroke:rgb(38,38,38); color-interpolation:linearRGB;"
    ><path style="stroke:none;" d="M-4.875 -4.1406 Q-5.8594 -4.1406 -6.3594 -3.1641 Q-6.8594 -2.1875 -6.8594 -0.2344 Q-6.8594 1.7188 -6.3594 2.6953 Q-5.8594 3.6719 -4.875 3.6719 Q-3.875 3.6719 -3.375 2.6953 Q-2.875 1.7188 -2.875 -0.2344 Q-2.875 -2.1875 -3.375 -3.1641 Q-3.875 -4.1406 -4.875 -4.1406 ZM-4.875 -5.1562 Q-3.2812 -5.1562 -2.4375 -3.8906 Q-1.5938 -2.625 -1.5938 -0.2344 Q-1.5938 2.1562 -2.4375 3.4219 Q-3.2812 4.6875 -4.875 4.6875 Q-6.4531 4.6875 -7.2969 3.4219 Q-8.1406 2.1562 -8.1406 -0.2344 Q-8.1406 -2.625 -7.2969 -3.8906 Q-6.4531 -5.1562 -4.875 -5.1562 Z"
    /></g
    ><g transform="translate(48.669,324.4286)" style="font-size:13.3333px; fill:rgb(38,38,38); text-rendering:geometricPrecision; image-rendering:optimizeQuality; color-rendering:optimizeQuality; font-family:'SansSerif'; stroke:rgb(38,38,38); color-interpolation:linearRGB;"
    ><path style="stroke:none;" d="M-17.875 -4.1406 Q-18.8594 -4.1406 -19.3594 -3.1641 Q-19.8594 -2.1875 -19.8594 -0.2344 Q-19.8594 1.7188 -19.3594 2.6953 Q-18.8594 3.6719 -17.875 3.6719 Q-16.875 3.6719 -16.375 2.6953 Q-15.875 1.7188 -15.875 -0.2344 Q-15.875 -2.1875 -16.375 -3.1641 Q-16.875 -4.1406 -17.875 -4.1406 ZM-17.875 -5.1562 Q-16.2812 -5.1562 -15.4375 -3.8906 Q-14.5938 -2.625 -14.5938 -0.2344 Q-14.5938 2.1562 -15.4375 3.4219 Q-16.2812 4.6875 -17.875 4.6875 Q-19.4531 4.6875 -20.2969 3.4219 Q-21.1406 2.1562 -21.1406 -0.2344 Q-21.1406 -2.625 -20.2969 -3.8906 Q-19.4531 -5.1562 -17.875 -5.1562 ZM-12.1396 2.8906 L-10.7958 2.8906 L-10.7958 4.5 L-12.1396 4.5 L-12.1396 2.8906 ZM-7.6891 3.4219 L-5.5954 3.4219 L-5.5954 -3.8125 L-7.8766 -3.3594 L-7.8766 -4.5156 L-5.611 -4.9844 L-4.3141 -4.9844 L-4.3141 3.4219 L-2.2204 3.4219 L-2.2204 4.5 L-7.6891 4.5 L-7.6891 3.4219 Z"
    /></g
    ><g transform="translate(48.669,274.8571)" style="font-size:13.3333px; fill:rgb(38,38,38); text-rendering:geometricPrecision; image-rendering:optimizeQuality; color-rendering:optimizeQuality; font-family:'SansSerif'; stroke:rgb(38,38,38); color-interpolation:linearRGB;"
    ><path style="stroke:none;" d="M-17.875 -4.1406 Q-18.8594 -4.1406 -19.3594 -3.1641 Q-19.8594 -2.1875 -19.8594 -0.2344 Q-19.8594 1.7188 -19.3594 2.6953 Q-18.8594 3.6719 -17.875 3.6719 Q-16.875 3.6719 -16.375 2.6953 Q-15.875 1.7188 -15.875 -0.2344 Q-15.875 -2.1875 -16.375 -3.1641 Q-16.875 -4.1406 -17.875 -4.1406 ZM-17.875 -5.1562 Q-16.2812 -5.1562 -15.4375 -3.8906 Q-14.5938 -2.625 -14.5938 -0.2344 Q-14.5938 2.1562 -15.4375 3.4219 Q-16.2812 4.6875 -17.875 4.6875 Q-19.4531 4.6875 -20.2969 3.4219 Q-21.1406 2.1562 -21.1406 -0.2344 Q-21.1406 -2.625 -20.2969 -3.8906 Q-19.4531 -5.1562 -17.875 -5.1562 ZM-12.1396 2.8906 L-10.7958 2.8906 L-10.7958 4.5 L-12.1396 4.5 L-12.1396 2.8906 ZM-6.7985 3.4219 L-2.3298 3.4219 L-2.3298 4.5 L-8.3454 4.5 L-8.3454 3.4219 Q-7.611 2.6719 -6.3532 1.3984 Q-5.0954 0.125 -4.7673 -0.25 Q-4.1579 -0.9375 -3.9157 -1.4219 Q-3.6735 -1.9062 -3.6735 -2.3594 Q-3.6735 -3.125 -4.197 -3.5938 Q-4.7204 -4.0625 -5.5798 -4.0625 Q-6.1891 -4.0625 -6.8532 -3.8594 Q-7.5173 -3.6562 -8.2829 -3.2188 L-8.2829 -4.5156 Q-7.5016 -4.8281 -6.8298 -4.9922 Q-6.1579 -5.1562 -5.611 -5.1562 Q-4.1266 -5.1562 -3.2516 -4.4141 Q-2.3766 -3.6719 -2.3766 -2.4375 Q-2.3766 -1.8594 -2.5954 -1.3359 Q-2.8141 -0.8125 -3.3923 -0.1094 Q-3.5485 0.0781 -4.4001 0.9609 Q-5.2516 1.8438 -6.7985 3.4219 Z"
    /></g
    ><g transform="translate(48.669,225.2857)" style="font-size:13.3333px; fill:rgb(38,38,38); text-rendering:geometricPrecision; image-rendering:optimizeQuality; color-rendering:optimizeQuality; font-family:'SansSerif'; stroke:rgb(38,38,38); color-interpolation:linearRGB;"
    ><path style="stroke:none;" d="M-17.875 -4.1406 Q-18.8594 -4.1406 -19.3594 -3.1641 Q-19.8594 -2.1875 -19.8594 -0.2344 Q-19.8594 1.7188 -19.3594 2.6953 Q-18.8594 3.6719 -17.875 3.6719 Q-16.875 3.6719 -16.375 2.6953 Q-15.875 1.7188 -15.875 -0.2344 Q-15.875 -2.1875 -16.375 -3.1641 Q-16.875 -4.1406 -17.875 -4.1406 ZM-17.875 -5.1562 Q-16.2812 -5.1562 -15.4375 -3.8906 Q-14.5938 -2.625 -14.5938 -0.2344 Q-14.5938 2.1562 -15.4375 3.4219 Q-16.2812 4.6875 -17.875 4.6875 Q-19.4531 4.6875 -20.2969 3.4219 Q-21.1406 2.1562 -21.1406 -0.2344 Q-21.1406 -2.625 -20.2969 -3.8906 Q-19.4531 -5.1562 -17.875 -5.1562 ZM-12.1396 2.8906 L-10.7958 2.8906 L-10.7958 4.5 L-12.1396 4.5 L-12.1396 2.8906 ZM-4.0173 -0.6094 Q-3.0954 -0.4062 -2.5798 0.2109 Q-2.0641 0.8281 -2.0641 1.75 Q-2.0641 3.1406 -3.0329 3.9141 Q-4.0016 4.6875 -5.7829 4.6875 Q-6.3766 4.6875 -7.0095 4.5703 Q-7.6423 4.4531 -8.3141 4.2188 L-8.3141 2.9688 Q-7.7673 3.2812 -7.1345 3.4453 Q-6.5016 3.6094 -5.8141 3.6094 Q-4.611 3.6094 -3.9782 3.1328 Q-3.3454 2.6562 -3.3454 1.75 Q-3.3454 0.9062 -3.9313 0.4375 Q-4.5173 -0.0312 -5.5641 -0.0312 L-6.6735 -0.0312 L-6.6735 -1.0938 L-5.5173 -1.0938 Q-4.5641 -1.0938 -4.0641 -1.4688 Q-3.5641 -1.8438 -3.5641 -2.5625 Q-3.5641 -3.2812 -4.0798 -3.6719 Q-4.5954 -4.0625 -5.5641 -4.0625 Q-6.0954 -4.0625 -6.697 -3.9531 Q-7.2985 -3.8438 -8.0173 -3.5938 L-8.0173 -4.75 Q-7.2985 -4.9531 -6.6579 -5.0547 Q-6.0173 -5.1562 -5.4548 -5.1562 Q-3.986 -5.1562 -3.1345 -4.4922 Q-2.2829 -3.8281 -2.2829 -2.6875 Q-2.2829 -1.9062 -2.736 -1.3594 Q-3.1891 -0.8125 -4.0173 -0.6094 Z"
    /></g
    ><g transform="translate(48.669,175.7143)" style="font-size:13.3333px; fill:rgb(38,38,38); text-rendering:geometricPrecision; image-rendering:optimizeQuality; color-rendering:optimizeQuality; font-family:'SansSerif'; stroke:rgb(38,38,38); color-interpolation:linearRGB;"
    ><path style="stroke:none;" d="M-17.875 -4.1406 Q-18.8594 -4.1406 -19.3594 -3.1641 Q-19.8594 -2.1875 -19.8594 -0.2344 Q-19.8594 1.7188 -19.3594 2.6953 Q-18.8594 3.6719 -17.875 3.6719 Q-16.875 3.6719 -16.375 2.6953 Q-15.875 1.7188 -15.875 -0.2344 Q-15.875 -2.1875 -16.375 -3.1641 Q-16.875 -4.1406 -17.875 -4.1406 ZM-17.875 -5.1562 Q-16.2812 -5.1562 -15.4375 -3.8906 Q-14.5938 -2.625 -14.5938 -0.2344 Q-14.5938 2.1562 -15.4375 3.4219 Q-16.2812 4.6875 -17.875 4.6875 Q-19.4531 4.6875 -20.2969 3.4219 Q-21.1406 2.1562 -21.1406 -0.2344 Q-21.1406 -2.625 -20.2969 -3.8906 Q-19.4531 -5.1562 -17.875 -5.1562 ZM-12.1396 2.8906 L-10.7958 2.8906 L-10.7958 4.5 L-12.1396 4.5 L-12.1396 2.8906 ZM-4.3923 -3.8594 L-7.6266 1.2031 L-4.3923 1.2031 L-4.3923 -3.8594 ZM-4.7204 -4.9844 L-3.111 -4.9844 L-3.111 1.2031 L-1.7516 1.2031 L-1.7516 2.2656 L-3.111 2.2656 L-3.111 4.5 L-4.3923 4.5 L-4.3923 2.2656 L-8.6579 2.2656 L-8.6579 1.0312 L-4.7204 -4.9844 Z"
    /></g
    ><g transform="translate(48.669,126.1429)" style="font-size:13.3333px; fill:rgb(38,38,38); text-rendering:geometricPrecision; image-rendering:optimizeQuality; color-rendering:optimizeQuality; font-family:'SansSerif'; stroke:rgb(38,38,38); color-interpolation:linearRGB;"
    ><path style="stroke:none;" d="M-17.875 -4.1406 Q-18.8594 -4.1406 -19.3594 -3.1641 Q-19.8594 -2.1875 -19.8594 -0.2344 Q-19.8594 1.7188 -19.3594 2.6953 Q-18.8594 3.6719 -17.875 3.6719 Q-16.875 3.6719 -16.375 2.6953 Q-15.875 1.7188 -15.875 -0.2344 Q-15.875 -2.1875 -16.375 -3.1641 Q-16.875 -4.1406 -17.875 -4.1406 ZM-17.875 -5.1562 Q-16.2812 -5.1562 -15.4375 -3.8906 Q-14.5938 -2.625 -14.5938 -0.2344 Q-14.5938 2.1562 -15.4375 3.4219 Q-16.2812 4.6875 -17.875 4.6875 Q-19.4531 4.6875 -20.2969 3.4219 Q-21.1406 2.1562 -21.1406 -0.2344 Q-21.1406 -2.625 -20.2969 -3.8906 Q-19.4531 -5.1562 -17.875 -5.1562 ZM-12.1396 2.8906 L-10.7958 2.8906 L-10.7958 4.5 L-12.1396 4.5 L-12.1396 2.8906 ZM-7.8923 -4.9844 L-2.861 -4.9844 L-2.861 -3.8906 L-6.7204 -3.8906 L-6.7204 -1.5781 Q-6.4391 -1.6719 -6.1579 -1.7188 Q-5.8766 -1.7656 -5.611 -1.7656 Q-4.0173 -1.7656 -3.0876 -0.8984 Q-2.1579 -0.0312 -2.1579 1.4531 Q-2.1579 2.9844 -3.111 3.8359 Q-4.0641 4.6875 -5.7985 4.6875 Q-6.3923 4.6875 -7.0173 4.5859 Q-7.6423 4.4844 -8.2985 4.2812 L-8.2985 2.9844 Q-7.7204 3.2969 -7.111 3.4531 Q-6.5016 3.6094 -5.8298 3.6094 Q-4.7204 3.6094 -4.0798 3.0312 Q-3.4391 2.4531 -3.4391 1.4531 Q-3.4391 0.4688 -4.0798 -0.1094 Q-4.7204 -0.6875 -5.8298 -0.6875 Q-6.3454 -0.6875 -6.8532 -0.5703 Q-7.361 -0.4531 -7.8923 -0.2188 L-7.8923 -4.9844 Z"
    /></g
    ><g transform="translate(48.669,76.5714)" style="font-size:13.3333px; fill:rgb(38,38,38); text-rendering:geometricPrecision; image-rendering:optimizeQuality; color-rendering:optimizeQuality; font-family:'SansSerif'; stroke:rgb(38,38,38); color-interpolation:linearRGB;"
    ><path style="stroke:none;" d="M-17.875 -4.1406 Q-18.8594 -4.1406 -19.3594 -3.1641 Q-19.8594 -2.1875 -19.8594 -0.2344 Q-19.8594 1.7188 -19.3594 2.6953 Q-18.8594 3.6719 -17.875 3.6719 Q-16.875 3.6719 -16.375 2.6953 Q-15.875 1.7188 -15.875 -0.2344 Q-15.875 -2.1875 -16.375 -3.1641 Q-16.875 -4.1406 -17.875 -4.1406 ZM-17.875 -5.1562 Q-16.2812 -5.1562 -15.4375 -3.8906 Q-14.5938 -2.625 -14.5938 -0.2344 Q-14.5938 2.1562 -15.4375 3.4219 Q-16.2812 4.6875 -17.875 4.6875 Q-19.4531 4.6875 -20.2969 3.4219 Q-21.1406 2.1562 -21.1406 -0.2344 Q-21.1406 -2.625 -20.2969 -3.8906 Q-19.4531 -5.1562 -17.875 -5.1562 ZM-12.1396 2.8906 L-10.7958 2.8906 L-10.7958 4.5 L-12.1396 4.5 L-12.1396 2.8906 ZM-5.0016 -0.75 Q-5.8766 -0.75 -6.3766 -0.1562 Q-6.8766 0.4375 -6.8766 1.4531 Q-6.8766 2.4844 -6.3766 3.0781 Q-5.8766 3.6719 -5.0016 3.6719 Q-4.1423 3.6719 -3.6423 3.0781 Q-3.1423 2.4844 -3.1423 1.4531 Q-3.1423 0.4375 -3.6423 -0.1562 Q-4.1423 -0.75 -5.0016 -0.75 ZM-2.4548 -4.7656 L-2.4548 -3.5938 Q-2.9391 -3.8281 -3.4313 -3.9453 Q-3.9235 -4.0625 -4.4079 -4.0625 Q-5.6735 -4.0625 -6.3454 -3.2109 Q-7.0173 -2.3594 -7.111 -0.625 Q-6.736 -1.1719 -6.1735 -1.4688 Q-5.611 -1.7656 -4.9235 -1.7656 Q-3.5016 -1.7656 -2.6735 -0.8984 Q-1.8454 -0.0312 -1.8454 1.4531 Q-1.8454 2.9219 -2.7126 3.8047 Q-3.5798 4.6875 -5.0016 4.6875 Q-6.6579 4.6875 -7.5251 3.4219 Q-8.3923 2.1562 -8.3923 -0.2344 Q-8.3923 -2.4688 -7.322 -3.8125 Q-6.2516 -5.1562 -4.4548 -5.1562 Q-3.986 -5.1562 -3.4938 -5.0547 Q-3.0016 -4.9531 -2.4548 -4.7656 Z"
    /></g
    ><g transform="translate(48.669,27)" style="font-size:13.3333px; fill:rgb(38,38,38); text-rendering:geometricPrecision; image-rendering:optimizeQuality; color-rendering:optimizeQuality; font-family:'SansSerif'; stroke:rgb(38,38,38); color-interpolation:linearRGB;"
    ><path style="stroke:none;" d="M-17.875 -4.1406 Q-18.8594 -4.1406 -19.3594 -3.1641 Q-19.8594 -2.1875 -19.8594 -0.2344 Q-19.8594 1.7188 -19.3594 2.6953 Q-18.8594 3.6719 -17.875 3.6719 Q-16.875 3.6719 -16.375 2.6953 Q-15.875 1.7188 -15.875 -0.2344 Q-15.875 -2.1875 -16.375 -3.1641 Q-16.875 -4.1406 -17.875 -4.1406 ZM-17.875 -5.1562 Q-16.2812 -5.1562 -15.4375 -3.8906 Q-14.5938 -2.625 -14.5938 -0.2344 Q-14.5938 2.1562 -15.4375 3.4219 Q-16.2812 4.6875 -17.875 4.6875 Q-19.4531 4.6875 -20.2969 3.4219 Q-21.1406 2.1562 -21.1406 -0.2344 Q-21.1406 -2.625 -20.2969 -3.8906 Q-19.4531 -5.1562 -17.875 -5.1562 ZM-12.1396 2.8906 L-10.7958 2.8906 L-10.7958 4.5 L-12.1396 4.5 L-12.1396 2.8906 ZM-8.236 -4.9844 L-2.1423 -4.9844 L-2.1423 -4.4375 L-5.5798 4.5 L-6.9235 4.5 L-3.6735 -3.8906 L-8.236 -3.8906 L-8.236 -4.9844 Z"
    /></g
    ><g transform="translate(22.6659,200.4998) rotate(-90)" style="font-size:18.6667px; fill:rgb(38,38,38); text-rendering:geometricPrecision; image-rendering:optimizeQuality; color-rendering:optimizeQuality; font-family:'mwa_cmr10'; stroke:rgb(38,38,38); color-interpolation:linearRGB;"
    ><path style="stroke:none;" d="M-74.9751 -6.7201 L-74.9751 -7.3919 Q-73.0064 -7.3919 -73.0064 -7.9857 L-73.0064 -18.4232 Q-73.0064 -19.0326 -74.9751 -19.0326 L-74.9751 -19.7044 L-69.0064 -19.7044 Q-67.9439 -19.7044 -66.7642 -19.3138 Q-65.5845 -18.9232 -64.7954 -18.1341 Q-64.0064 -17.3451 -64.0064 -16.2513 Q-64.0064 -15.4544 -64.4907 -14.8294 Q-64.9751 -14.2044 -65.7173 -13.7826 Q-66.4595 -13.3607 -67.2407 -13.1732 Q-66.3814 -12.8763 -65.7407 -12.2279 Q-65.1001 -11.5794 -64.9751 -10.7513 L-64.7095 -9.0638 Q-64.522 -7.9232 -64.3189 -7.3607 Q-64.1157 -6.7982 -63.4126 -6.7982 Q-62.8189 -6.7982 -62.5298 -7.3451 Q-62.2407 -7.8919 -62.2407 -8.5482 Q-62.2407 -8.6107 -62.1782 -8.6654 Q-62.1157 -8.7201 -62.0532 -8.7201 L-61.8814 -8.7201 Q-61.6939 -8.7201 -61.6939 -8.4701 Q-61.6939 -7.9388 -61.897 -7.4466 Q-62.1001 -6.9544 -62.4829 -6.6263 Q-62.8657 -6.2982 -63.397 -6.2982 Q-64.772 -6.2982 -65.7642 -6.9857 Q-66.7564 -7.6732 -66.7564 -8.9857 L-66.7564 -10.6732 Q-66.7564 -11.6263 -67.4126 -12.2982 Q-68.0689 -12.9701 -69.022 -12.9701 L-71.3032 -12.9701 L-71.3032 -7.9857 Q-71.3032 -7.3919 -69.3501 -7.3919 L-69.3501 -6.7201 L-74.9751 -6.7201 ZM-71.3032 -13.4701 L-69.272 -13.4701 Q-67.6939 -13.4701 -66.8657 -14.1029 Q-66.0376 -14.7357 -66.0376 -16.2513 Q-66.0376 -17.7669 -66.8579 -18.3998 Q-67.6782 -19.0326 -69.272 -19.0326 L-70.3345 -19.0326 Q-70.6782 -19.0326 -70.8736 -19.0013 Q-71.0689 -18.9701 -71.1861 -18.8373 Q-71.3032 -18.7044 -71.3032 -18.4232 L-71.3032 -13.4701 Z"
      /><path style="stroke:none;" d="M-57.125 -6.5013 Q-58.2812 -6.5013 -59.25 -7.1107 Q-60.2187 -7.7201 -60.7734 -8.7357 Q-61.3281 -9.7513 -61.3281 -10.8919 Q-61.3281 -12.0013 -60.8203 -13.0013 Q-60.3125 -14.0013 -59.4141 -14.6185 Q-58.5156 -15.2357 -57.3906 -15.2357 Q-56.5312 -15.2357 -55.8828 -14.9466 Q-55.2344 -14.6576 -54.8203 -14.1341 Q-54.4062 -13.6107 -54.1875 -12.9076 Q-53.9687 -12.2044 -53.9687 -11.3607 Q-53.9687 -11.1107 -54.1719 -11.1107 L-59.6719 -11.1107 L-59.6719 -10.9076 Q-59.6719 -9.3294 -59.0391 -8.1966 Q-58.4062 -7.0638 -56.9531 -7.0638 Q-56.375 -7.0638 -55.8828 -7.3216 Q-55.3906 -7.5794 -55.0234 -8.0482 Q-54.6562 -8.5169 -54.5156 -9.0326 Q-54.5 -9.1107 -54.4531 -9.1576 Q-54.4062 -9.2044 -54.3281 -9.2044 L-54.1719 -9.2044 Q-53.9687 -9.2044 -53.9687 -8.9701 Q-54.25 -7.8919 -55.1406 -7.1966 Q-56.0312 -6.5013 -57.125 -6.5013 ZM-59.6562 -11.5794 L-55.3125 -11.5794 Q-55.3125 -12.2982 -55.5156 -13.0326 Q-55.7187 -13.7669 -56.1797 -14.2513 Q-56.6406 -14.7357 -57.3906 -14.7357 Q-58.4687 -14.7357 -59.0625 -13.7279 Q-59.6562 -12.7201 -59.6562 -11.5794 Z"
      /><path style="stroke:none;" d="M-52.9849 -6.7201 L-52.9849 -7.3919 Q-52.3287 -7.3919 -51.9146 -7.4935 Q-51.5006 -7.5951 -51.5006 -7.9857 L-51.5006 -17.9701 Q-51.5006 -18.4701 -51.649 -18.6966 Q-51.7974 -18.9232 -52.0865 -18.9779 Q-52.3756 -19.0326 -52.9849 -19.0326 L-52.9849 -19.7044 L-50.1568 -19.9076 L-50.1568 -7.9857 Q-50.1568 -7.5951 -49.7428 -7.4935 Q-49.3287 -7.3919 -48.6881 -7.3919 L-48.6881 -6.7201 L-52.9849 -6.7201 Z"
      /><path style="stroke:none;" d="M-47.6122 -8.5794 Q-47.6122 -9.7201 -46.7216 -10.431 Q-45.831 -11.1419 -44.5888 -11.431 Q-43.3466 -11.7201 -42.2216 -11.7201 L-42.2216 -12.5013 Q-42.2216 -13.0482 -42.4638 -13.5638 Q-42.706 -14.0794 -43.1591 -14.4076 Q-43.6122 -14.7357 -44.1591 -14.7357 Q-45.4247 -14.7357 -46.081 -14.1732 Q-45.7216 -14.1732 -45.4794 -13.8998 Q-45.2372 -13.6263 -45.2372 -13.2669 Q-45.2372 -12.8763 -45.5107 -12.6107 Q-45.7841 -12.3451 -46.1435 -12.3451 Q-46.5341 -12.3451 -46.7997 -12.6107 Q-47.0654 -12.8763 -47.0654 -13.2669 Q-47.0654 -14.2669 -46.1591 -14.7513 Q-45.2529 -15.2357 -44.1591 -15.2357 Q-43.3935 -15.2357 -42.6122 -14.9076 Q-41.831 -14.5794 -41.331 -13.9701 Q-40.831 -13.3607 -40.831 -12.5326 L-40.831 -8.2669 Q-40.831 -7.8919 -40.6747 -7.5794 Q-40.5185 -7.2669 -40.1904 -7.2669 Q-39.8779 -7.2669 -39.7216 -7.5794 Q-39.5654 -7.8919 -39.5654 -8.2669 L-39.5654 -9.4701 L-39.0029 -9.4701 L-39.0029 -8.2669 Q-39.0029 -7.8294 -39.2294 -7.4466 Q-39.456 -7.0638 -39.831 -6.8373 Q-40.206 -6.6107 -40.6435 -6.6107 Q-41.1904 -6.6107 -41.5966 -7.0404 Q-42.0029 -7.4701 -42.0497 -8.0638 Q-42.4091 -7.3451 -43.0888 -6.9232 Q-43.7685 -6.5013 -44.5497 -6.5013 Q-45.2841 -6.5013 -45.9794 -6.7201 Q-46.6747 -6.9388 -47.1435 -7.3919 Q-47.6122 -7.8451 -47.6122 -8.5794 ZM-46.081 -8.5794 Q-46.081 -7.9232 -45.5888 -7.4623 Q-45.0966 -7.0013 -44.4247 -7.0013 Q-43.8154 -7.0013 -43.3154 -7.3138 Q-42.8154 -7.6263 -42.5185 -8.1498 Q-42.2216 -8.6732 -42.2216 -9.2669 L-42.2216 -11.2357 Q-43.081 -11.2357 -43.9872 -10.9544 Q-44.8935 -10.6732 -45.4872 -10.0716 Q-46.081 -9.4701 -46.081 -8.5794 Z"
      /><path style="stroke:none;" d="M-37.107 -9.0013 L-37.107 -14.2513 L-38.6851 -14.2513 L-38.6851 -14.7357 Q-37.4351 -14.7357 -36.8492 -15.8919 Q-36.2633 -17.0482 -36.2633 -18.4076 L-35.7164 -18.4076 L-35.7164 -14.9076 L-33.0445 -14.9076 L-33.0445 -14.2513 L-35.7164 -14.2513 L-35.7164 -9.0326 Q-35.7164 -8.2513 -35.4586 -7.6576 Q-35.2008 -7.0638 -34.5133 -7.0638 Q-33.857 -7.0638 -33.5679 -7.6888 Q-33.2789 -8.3138 -33.2789 -9.0326 L-33.2789 -10.1576 L-32.732 -10.1576 L-32.732 -9.0013 Q-32.732 -8.4076 -32.9508 -7.8294 Q-33.1695 -7.2513 -33.5992 -6.8763 Q-34.0289 -6.5013 -34.6383 -6.5013 Q-35.7789 -6.5013 -36.4429 -7.1888 Q-37.107 -7.8763 -37.107 -9.0013 Z"
      /><path style="stroke:none;" d="M-31.2071 -6.7201 L-31.2071 -7.3919 Q-30.5509 -7.3919 -30.1368 -7.4935 Q-29.7227 -7.5951 -29.7227 -7.9857 L-29.7227 -13.1732 Q-29.7227 -13.9076 -30.004 -14.0794 Q-30.2852 -14.2513 -31.1134 -14.2513 L-31.1134 -14.9076 L-28.379 -15.1107 L-28.379 -7.9857 Q-28.379 -7.5951 -28.0196 -7.4935 Q-27.6602 -7.3919 -27.0509 -7.3919 L-27.0509 -6.7201 L-31.2071 -6.7201 ZM-30.3946 -18.3763 Q-30.3946 -18.7982 -30.0821 -19.1107 Q-29.7696 -19.4232 -29.3477 -19.4232 Q-29.0821 -19.4232 -28.8321 -19.2904 Q-28.5821 -19.1576 -28.4415 -18.9076 Q-28.3009 -18.6576 -28.3009 -18.3763 Q-28.3009 -17.9701 -28.6212 -17.6576 Q-28.9415 -17.3451 -29.3477 -17.3451 Q-29.7696 -17.3451 -30.0821 -17.6576 Q-30.3946 -17.9701 -30.3946 -18.3763 Z"
      /><path style="stroke:none;" d="M-21.9594 -6.7201 L-24.7407 -13.7044 Q-24.9125 -14.0482 -25.2797 -14.1498 Q-25.6469 -14.2513 -26.2407 -14.2513 L-26.2407 -14.9076 L-22.2563 -14.9076 L-22.2563 -14.2513 Q-23.3188 -14.2513 -23.3188 -13.7826 Q-23.3188 -13.7201 -23.3032 -13.6732 L-21.1625 -8.3138 L-19.2407 -13.1576 Q-19.1938 -13.3138 -19.1938 -13.4701 Q-19.1938 -13.8294 -19.4672 -14.0404 Q-19.7407 -14.2513 -20.1 -14.2513 L-20.1 -14.9076 L-16.9438 -14.9076 L-16.9438 -14.2513 Q-17.5375 -14.2513 -17.975 -13.9779 Q-18.4125 -13.7044 -18.6625 -13.1732 L-21.225 -6.7201 Q-21.2875 -6.5013 -21.5219 -6.5013 L-21.6625 -6.5013 Q-21.8969 -6.5013 -21.9594 -6.7201 Z"
      /><path style="stroke:none;" d="M-12.5323 -6.5013 Q-13.6885 -6.5013 -14.6573 -7.1107 Q-15.626 -7.7201 -16.1807 -8.7357 Q-16.7354 -9.7513 -16.7354 -10.8919 Q-16.7354 -12.0013 -16.2276 -13.0013 Q-15.7198 -14.0013 -14.8214 -14.6185 Q-13.9229 -15.2357 -12.7979 -15.2357 Q-11.9385 -15.2357 -11.2901 -14.9466 Q-10.6417 -14.6576 -10.2276 -14.1341 Q-9.8135 -13.6107 -9.5948 -12.9076 Q-9.376 -12.2044 -9.376 -11.3607 Q-9.376 -11.1107 -9.5792 -11.1107 L-15.0792 -11.1107 L-15.0792 -10.9076 Q-15.0792 -9.3294 -14.4464 -8.1966 Q-13.8135 -7.0638 -12.3604 -7.0638 Q-11.7823 -7.0638 -11.2901 -7.3216 Q-10.7979 -7.5794 -10.4307 -8.0482 Q-10.0635 -8.5169 -9.9229 -9.0326 Q-9.9073 -9.1107 -9.8604 -9.1576 Q-9.8135 -9.2044 -9.7354 -9.2044 L-9.5792 -9.2044 Q-9.376 -9.2044 -9.376 -8.9701 Q-9.6573 -7.8919 -10.5479 -7.1966 Q-11.4385 -6.5013 -12.5323 -6.5013 ZM-15.0635 -11.5794 L-10.7198 -11.5794 Q-10.7198 -12.2982 -10.9229 -13.0326 Q-11.126 -13.7669 -11.587 -14.2513 Q-12.0479 -14.7357 -12.7979 -14.7357 Q-13.876 -14.7357 -14.4698 -13.7279 Q-15.0635 -12.7201 -15.0635 -11.5794 Z"
      /><path style="stroke:none;" d="M-2.1388 -6.7201 L-2.1388 -7.3919 Q-1.4982 -7.3919 -1.0763 -7.4935 Q-0.6544 -7.5951 -0.6544 -7.9857 L-0.6544 -14.2513 L-2.1232 -14.2513 L-2.1232 -14.9076 L-0.6544 -14.9076 L-0.6544 -17.1888 Q-0.6544 -17.7982 -0.4044 -18.3294 Q-0.1544 -18.8607 0.2753 -19.2591 Q0.705 -19.6576 1.2675 -19.8841 Q1.83 -20.1107 2.4393 -20.1107 Q3.08 -20.1107 3.5956 -19.7357 Q4.1112 -19.3607 4.1112 -18.7201 Q4.1112 -18.3607 3.8612 -18.1185 Q3.6112 -17.8763 3.2518 -17.8763 Q2.8925 -17.8763 2.6347 -18.1185 Q2.3768 -18.3607 2.3768 -18.7201 Q2.3768 -19.3138 2.8925 -19.5169 Q2.58 -19.6263 2.3456 -19.6263 Q1.7831 -19.6263 1.3925 -19.2279 Q1.0018 -18.8294 0.8065 -18.2669 Q0.6112 -17.7044 0.6112 -17.1419 L0.6112 -14.9076 L2.7987 -14.9076 L2.7987 -14.2513 L0.6737 -14.2513 L0.6737 -7.9857 Q0.6737 -7.5951 1.2284 -7.4935 Q1.7831 -7.3919 2.5175 -7.3919 L2.5175 -6.7201 L-2.1388 -6.7201 Z"
      /><path style="stroke:none;" d="M3.4399 -6.7201 L3.4399 -7.3919 Q4.0962 -7.3919 4.5103 -7.4935 Q4.9243 -7.5951 4.9243 -7.9857 L4.9243 -13.1732 Q4.9243 -13.6888 4.7759 -13.9154 Q4.6274 -14.1419 4.3384 -14.1966 Q4.0493 -14.2513 3.4399 -14.2513 L3.4399 -14.9076 L6.1587 -15.1107 L6.1587 -13.2669 Q6.4712 -14.0794 7.0337 -14.5951 Q7.5962 -15.1107 8.4087 -15.1107 Q8.9712 -15.1107 9.4165 -14.7826 Q9.8618 -14.4544 9.8618 -13.9076 Q9.8618 -13.5638 9.6196 -13.306 Q9.3774 -13.0482 9.0181 -13.0482 Q8.6587 -13.0482 8.4087 -13.2982 Q8.1587 -13.5482 8.1587 -13.9076 Q8.1587 -14.4076 8.5181 -14.6263 L8.4087 -14.6263 Q7.6431 -14.6263 7.1587 -14.0716 Q6.6743 -13.5169 6.4634 -12.6888 Q6.2524 -11.8607 6.2524 -11.1107 L6.2524 -7.9857 Q6.2524 -7.3919 8.1118 -7.3919 L8.1118 -6.7201 L3.4399 -6.7201 Z"
      /><path style="stroke:none;" d="M15.0011 -6.5013 Q13.8448 -6.5013 12.8761 -7.1107 Q11.9073 -7.7201 11.3526 -8.7357 Q10.7979 -9.7513 10.7979 -10.8919 Q10.7979 -12.0013 11.3058 -13.0013 Q11.8136 -14.0013 12.712 -14.6185 Q13.6104 -15.2357 14.7354 -15.2357 Q15.5948 -15.2357 16.2433 -14.9466 Q16.8917 -14.6576 17.3058 -14.1341 Q17.7198 -13.6107 17.9386 -12.9076 Q18.1573 -12.2044 18.1573 -11.3607 Q18.1573 -11.1107 17.9542 -11.1107 L12.4542 -11.1107 L12.4542 -10.9076 Q12.4542 -9.3294 13.087 -8.1966 Q13.7198 -7.0638 15.1729 -7.0638 Q15.7511 -7.0638 16.2433 -7.3216 Q16.7354 -7.5794 17.1026 -8.0482 Q17.4698 -8.5169 17.6104 -9.0326 Q17.6261 -9.1107 17.6729 -9.1576 Q17.7198 -9.2044 17.7979 -9.2044 L17.9542 -9.2044 Q18.1573 -9.2044 18.1573 -8.9701 Q17.8761 -7.8919 16.9854 -7.1966 Q16.0948 -6.5013 15.0011 -6.5013 ZM12.4698 -11.5794 L16.8136 -11.5794 Q16.8136 -12.2982 16.6104 -13.0326 Q16.4073 -13.7669 15.9464 -14.2513 Q15.4854 -14.7357 14.7354 -14.7357 Q13.6573 -14.7357 13.0636 -13.7279 Q12.4698 -12.7201 12.4698 -11.5794 Z"
      /><path style="stroke:none;" d="M24.2661 -3.0326 L24.2661 -3.6888 Q24.9067 -3.6888 25.3286 -3.806 Q25.7505 -3.9232 25.7505 -4.3138 L25.7505 -7.8294 Q25.2974 -7.2357 24.6177 -6.8685 Q23.938 -6.5013 23.2036 -6.5013 Q22.3442 -6.5013 21.6099 -6.8529 Q20.8755 -7.2044 20.3364 -7.8138 Q19.7974 -8.4232 19.4927 -9.2123 Q19.188 -10.0013 19.188 -10.8138 Q19.188 -11.9544 19.7505 -12.9544 Q20.313 -13.9544 21.2817 -14.5326 Q22.2505 -15.1107 23.3755 -15.1107 Q24.1724 -15.1107 24.8599 -14.6576 Q25.5474 -14.2044 25.9536 -13.4388 L26.6411 -15.1107 L27.1411 -15.1107 L27.1411 -4.3138 Q27.1411 -3.9232 27.5552 -3.806 Q27.9692 -3.6888 28.6099 -3.6888 L28.6099 -3.0326 L24.2661 -3.0326 ZM23.313 -7.0013 Q24.1567 -7.0013 24.8208 -7.5638 Q25.4849 -8.1263 25.7974 -8.9857 L25.7974 -12.3294 Q25.6099 -13.2357 24.9927 -13.8998 Q24.3755 -14.5638 23.5317 -14.5638 Q22.8755 -14.5638 22.3677 -14.2201 Q21.8599 -13.8763 21.5161 -13.306 Q21.1724 -12.7357 21.0083 -12.0638 Q20.8442 -11.3919 20.8442 -10.7982 Q20.8442 -10.0482 21.1177 -9.1498 Q21.3911 -8.2513 21.9458 -7.6263 Q22.5005 -7.0013 23.313 -7.0013 Z"
      /><path style="stroke:none;" d="M30.4617 -8.9857 L30.4617 -13.1732 Q30.4617 -13.6888 30.3133 -13.9154 Q30.1649 -14.1419 29.8758 -14.1966 Q29.5867 -14.2513 28.9774 -14.2513 L28.9774 -14.9076 L31.8524 -15.1107 L31.8524 -8.9857 Q31.8524 -8.2357 31.9617 -7.8294 Q32.0711 -7.4232 32.4149 -7.2123 Q32.7586 -7.0013 33.5242 -7.0013 Q34.5399 -7.0013 35.1492 -7.8607 Q35.7586 -8.7201 35.7586 -9.7982 L35.7586 -13.1732 Q35.7586 -13.6888 35.5945 -13.9154 Q35.4305 -14.1419 35.1492 -14.1966 Q34.868 -14.2513 34.2742 -14.2513 L34.2742 -14.9076 L37.1336 -15.1107 L37.1336 -8.4388 Q37.1336 -7.9388 37.2899 -7.7123 Q37.4461 -7.4857 37.7352 -7.4388 Q38.0242 -7.3919 38.618 -7.3919 L38.618 -6.7201 L35.8055 -6.5013 L35.8055 -8.1107 Q35.4617 -7.3919 34.8289 -6.9466 Q34.1961 -6.5013 33.4305 -6.5013 Q32.0711 -6.5013 31.2664 -7.0873 Q30.4617 -7.6732 30.4617 -8.9857 Z"
      /><path style="stroke:none;" d="M43.5196 -6.5013 Q42.3634 -6.5013 41.3946 -7.1107 Q40.4259 -7.7201 39.8712 -8.7357 Q39.3165 -9.7513 39.3165 -10.8919 Q39.3165 -12.0013 39.8243 -13.0013 Q40.3321 -14.0013 41.2306 -14.6185 Q42.129 -15.2357 43.254 -15.2357 Q44.1134 -15.2357 44.7618 -14.9466 Q45.4103 -14.6576 45.8243 -14.1341 Q46.2384 -13.6107 46.4571 -12.9076 Q46.6759 -12.2044 46.6759 -11.3607 Q46.6759 -11.1107 46.4728 -11.1107 L40.9728 -11.1107 L40.9728 -10.9076 Q40.9728 -9.3294 41.6056 -8.1966 Q42.2384 -7.0638 43.6915 -7.0638 Q44.2696 -7.0638 44.7618 -7.3216 Q45.254 -7.5794 45.6212 -8.0482 Q45.9884 -8.5169 46.129 -9.0326 Q46.1446 -9.1107 46.1915 -9.1576 Q46.2384 -9.2044 46.3165 -9.2044 L46.4728 -9.2044 Q46.6759 -9.2044 46.6759 -8.9701 Q46.3946 -7.8919 45.504 -7.1966 Q44.6134 -6.5013 43.5196 -6.5013 ZM40.9884 -11.5794 L45.3321 -11.5794 Q45.3321 -12.2982 45.129 -13.0326 Q44.9259 -13.7669 44.4649 -14.2513 Q44.004 -14.7357 43.254 -14.7357 Q42.1759 -14.7357 41.5821 -13.7279 Q40.9884 -12.7201 40.9884 -11.5794 Z"
      /><path style="stroke:none;" d="M47.6441 -6.7201 L47.6441 -7.3919 Q48.3003 -7.3919 48.7144 -7.4935 Q49.1284 -7.5951 49.1284 -7.9857 L49.1284 -13.1732 Q49.1284 -13.6888 48.98 -13.9154 Q48.8316 -14.1419 48.5425 -14.1966 Q48.2534 -14.2513 47.6441 -14.2513 L47.6441 -14.9076 L50.4097 -15.1107 L50.4097 -13.2669 Q50.7847 -14.0794 51.5347 -14.5951 Q52.2847 -15.1107 53.1597 -15.1107 Q54.4722 -15.1107 55.1362 -14.4857 Q55.8003 -13.8607 55.8003 -12.5482 L55.8003 -7.9857 Q55.8003 -7.5951 56.2222 -7.4935 Q56.6441 -7.3919 57.2847 -7.3919 L57.2847 -6.7201 L52.9409 -6.7201 L52.9409 -7.3919 Q53.5816 -7.3919 54.0034 -7.4935 Q54.4253 -7.5951 54.4253 -7.9857 L54.4253 -12.5013 Q54.4253 -13.4232 54.1519 -14.0248 Q53.8784 -14.6263 53.0503 -14.6263 Q51.9409 -14.6263 51.23 -13.7435 Q50.5191 -12.8607 50.5191 -11.7357 L50.5191 -7.9857 Q50.5191 -7.5951 50.9409 -7.4935 Q51.3628 -7.3919 52.0034 -7.3919 L52.0034 -6.7201 L47.6441 -6.7201 Z"
      /><path style="stroke:none;" d="M62.1863 -6.5013 Q61.0301 -6.5013 60.0926 -7.1029 Q59.1551 -7.7044 58.616 -8.7044 Q58.077 -9.7044 58.077 -10.8138 Q58.077 -11.9388 58.616 -12.9701 Q59.1551 -14.0013 60.0926 -14.6185 Q61.0301 -15.2357 62.1863 -15.2357 Q63.2957 -15.2357 64.2098 -14.7982 Q65.1238 -14.3607 65.1238 -13.3763 Q65.1238 -13.0013 64.8582 -12.7279 Q64.5926 -12.4544 64.2176 -12.4544 Q63.8426 -12.4544 63.577 -12.7279 Q63.3113 -13.0013 63.3113 -13.3763 Q63.3113 -13.7044 63.5223 -13.9544 Q63.7332 -14.2044 64.0457 -14.2669 Q63.3895 -14.6732 62.202 -14.6732 Q61.2957 -14.6732 60.741 -14.0716 Q60.1863 -13.4701 59.9598 -12.5794 Q59.7332 -11.6888 59.7332 -10.8138 Q59.7332 -9.9076 60.0066 -9.0482 Q60.2801 -8.1888 60.8895 -7.6263 Q61.4988 -7.0638 62.4207 -7.0638 Q63.3113 -7.0638 63.9441 -7.6185 Q64.577 -8.1732 64.8113 -9.0638 Q64.8113 -9.1732 64.952 -9.1732 L65.1863 -9.1732 Q65.2488 -9.1732 65.2957 -9.1185 Q65.3426 -9.0638 65.3426 -9.0013 L65.3426 -8.9544 Q65.0457 -7.8294 64.1941 -7.1654 Q63.3426 -6.5013 62.1863 -6.5013 Z"
      /><path style="stroke:none;" d="M67.0607 -3.5951 Q67.4201 -3.3138 67.8576 -3.3138 Q69.0451 -3.3138 69.8107 -5.1263 L70.467 -6.7201 L67.6076 -13.7044 Q67.4357 -14.0482 67.0764 -14.1498 Q66.717 -14.2513 66.1076 -14.2513 L66.1076 -14.9076 L70.092 -14.9076 L70.092 -14.2513 Q69.0451 -14.2513 69.0451 -13.7826 Q69.0451 -13.7201 69.0764 -13.6732 L71.1857 -8.4857 L73.092 -13.1576 Q73.1389 -13.3138 73.1389 -13.4857 Q73.1389 -13.7201 73.0139 -13.8919 Q72.8889 -14.0638 72.6936 -14.1576 Q72.4982 -14.2513 72.2482 -14.2513 L72.2482 -14.9076 L75.4045 -14.9076 L75.4045 -14.2513 Q74.8107 -14.2513 74.3732 -13.9779 Q73.9357 -13.7044 73.6857 -13.1732 L70.4045 -5.1263 Q70.1389 -4.5169 69.7951 -4.0013 Q69.4514 -3.4857 68.9514 -3.1576 Q68.4514 -2.8294 67.8576 -2.8294 Q67.1545 -2.8294 66.6311 -3.2826 Q66.1076 -3.7357 66.1076 -4.4232 Q66.1076 -4.7669 66.3498 -5.0091 Q66.592 -5.2513 66.9514 -5.2513 Q67.1857 -5.2513 67.3732 -5.1498 Q67.5607 -5.0482 67.6701 -4.8607 Q67.7795 -4.6732 67.7795 -4.4232 Q67.7795 -4.1107 67.5764 -3.8685 Q67.3732 -3.6263 67.0607 -3.5951 Z"
    /></g
    ><g style="fill:white; text-rendering:optimizeSpeed; color-rendering:optimizeSpeed; image-rendering:optimizeSpeed; shape-rendering:crispEdges; stroke:white; color-interpolation:sRGB;"
    ><path style="stroke:none;" d="M536 87 L536 38 L425 38 L425 87 Z"
    /></g
    ><g transform="translate(471.6977,51.1197)" style="font-size:18.6667px; text-rendering:geometricPrecision; color-rendering:optimizeQuality; image-rendering:optimizeQuality; font-family:'mwa_cmr10'; color-interpolation:linearRGB;"
    ><path style="stroke:none;" d="M0.6094 4.4799 L0.6094 3.8081 Q2.3125 3.8081 2.7031 2.6831 L6.6875 -8.9107 Q6.75 -9.1138 7 -9.1138 L7.2344 -9.1138 Q7.4844 -9.1138 7.5469 -8.9107 L11.7031 3.2143 Q11.8906 3.6049 12.3828 3.7065 Q12.875 3.8081 13.625 3.8081 L13.625 4.4799 L8.3281 4.4799 L8.3281 3.8081 Q9.9062 3.8081 9.9062 3.3081 L9.9062 3.2143 L8.875 0.2456 L4.2656 0.2456 L3.4062 2.6831 Q3.3906 2.7612 3.3906 2.8862 Q3.3906 3.3549 3.8359 3.5815 Q4.2812 3.8081 4.8125 3.8081 L4.8125 4.4799 L0.6094 4.4799 ZM4.4844 -0.4263 L8.6406 -0.4263 L6.5625 -6.4888 L4.4844 -0.4263 Z"
    /></g
    ><g transform="translate(471.6977,51.1197)" style="font-size:18.6667px; text-rendering:geometricPrecision; color-rendering:optimizeQuality; image-rendering:optimizeQuality; font-family:'mwa_cmr10'; color-interpolation:linearRGB;"
    ><path style="stroke:none;" d="M18.7344 4.6987 Q17.5782 4.6987 16.6407 4.0971 Q15.7032 3.4956 15.1641 2.4956 Q14.625 1.4956 14.625 0.3862 Q14.625 -0.7388 15.1641 -1.7701 Q15.7032 -2.8013 16.6407 -3.4185 Q17.5782 -4.0357 18.7344 -4.0357 Q19.8438 -4.0357 20.7578 -3.5982 Q21.6719 -3.1607 21.6719 -2.1763 Q21.6719 -1.8013 21.4063 -1.5279 Q21.1407 -1.2544 20.7657 -1.2544 Q20.3907 -1.2544 20.125 -1.5279 Q19.8594 -1.8013 19.8594 -2.1763 Q19.8594 -2.5044 20.0703 -2.7544 Q20.2813 -3.0044 20.5938 -3.0669 Q19.9375 -3.4732 18.75 -3.4732 Q17.8438 -3.4732 17.2891 -2.8716 Q16.7344 -2.2701 16.5078 -1.3794 Q16.2813 -0.4888 16.2813 0.3862 Q16.2813 1.2924 16.5547 2.1518 Q16.8282 3.0112 17.4375 3.5737 Q18.0469 4.1362 18.9688 4.1362 Q19.8594 4.1362 20.4922 3.5815 Q21.125 3.0268 21.3594 2.1362 Q21.3594 2.0268 21.5 2.0268 L21.7344 2.0268 Q21.7969 2.0268 21.8438 2.0815 Q21.8907 2.1362 21.8907 2.1987 L21.8907 2.2456 Q21.5938 3.3706 20.7422 4.0346 Q19.8907 4.6987 18.7344 4.6987 Z"
      /><path style="stroke:none;" d="M24.2338 2.1987 L24.2338 -3.0513 L22.6557 -3.0513 L22.6557 -3.5357 Q23.9057 -3.5357 24.4916 -4.6919 Q25.0776 -5.8482 25.0776 -7.2076 L25.6244 -7.2076 L25.6244 -3.7076 L28.2963 -3.7076 L28.2963 -3.0513 L25.6244 -3.0513 L25.6244 2.1674 Q25.6244 2.9487 25.8823 3.5424 Q26.1401 4.1362 26.8276 4.1362 Q27.4838 4.1362 27.7729 3.5112 Q28.0619 2.8862 28.0619 2.1674 L28.0619 1.0424 L28.6088 1.0424 L28.6088 2.1987 Q28.6088 2.7924 28.3901 3.3706 Q28.1713 3.9487 27.7416 4.3237 Q27.3119 4.6987 26.7026 4.6987 Q25.5619 4.6987 24.8979 4.0112 Q24.2338 3.3237 24.2338 2.1987 Z"
      /><path style="stroke:none;" d="M31.6025 2.2143 L31.6025 -1.9732 Q31.6025 -2.4888 31.454 -2.7154 Q31.3056 -2.9419 31.0165 -2.9966 Q30.7275 -3.0513 30.1181 -3.0513 L30.1181 -3.7076 L32.9931 -3.9107 L32.9931 2.2143 Q32.9931 2.9643 33.1025 3.3706 Q33.2119 3.7768 33.5556 3.9877 Q33.8994 4.1987 34.665 4.1987 Q35.6806 4.1987 36.29 3.3393 Q36.8994 2.4799 36.8994 1.4018 L36.8994 -1.9732 Q36.8994 -2.4888 36.7353 -2.7154 Q36.5712 -2.9419 36.29 -2.9966 Q36.0087 -3.0513 35.415 -3.0513 L35.415 -3.7076 L38.2744 -3.9107 L38.2744 2.7612 Q38.2744 3.2612 38.4306 3.4877 Q38.5869 3.7143 38.8759 3.7612 Q39.165 3.8081 39.7587 3.8081 L39.7587 4.4799 L36.9462 4.6987 L36.9462 3.0893 Q36.6025 3.8081 35.9697 4.2534 Q35.3369 4.6987 34.5712 4.6987 Q33.2119 4.6987 32.4072 4.1127 Q31.6025 3.5268 31.6025 2.2143 Z"
      /><path style="stroke:none;" d="M40.6916 2.6206 Q40.6916 1.4799 41.5823 0.769 Q42.4729 0.0581 43.7151 -0.231 Q44.9573 -0.5201 46.0823 -0.5201 L46.0823 -1.3013 Q46.0823 -1.8482 45.8401 -2.3638 Q45.5979 -2.8794 45.1448 -3.2076 Q44.6916 -3.5357 44.1448 -3.5357 Q42.8791 -3.5357 42.2229 -2.9732 Q42.5823 -2.9732 42.8244 -2.6998 Q43.0666 -2.4263 43.0666 -2.0669 Q43.0666 -1.6763 42.7932 -1.4107 Q42.5198 -1.1451 42.1604 -1.1451 Q41.7698 -1.1451 41.5041 -1.4107 Q41.2385 -1.6763 41.2385 -2.0669 Q41.2385 -3.0669 42.1448 -3.5513 Q43.051 -4.0357 44.1448 -4.0357 Q44.9104 -4.0357 45.6916 -3.7076 Q46.4729 -3.3794 46.9729 -2.7701 Q47.4729 -2.1607 47.4729 -1.3326 L47.4729 2.9331 Q47.4729 3.3081 47.6291 3.6206 Q47.7854 3.9331 48.1135 3.9331 Q48.426 3.9331 48.5823 3.6206 Q48.7385 3.3081 48.7385 2.9331 L48.7385 1.7299 L49.301 1.7299 L49.301 2.9331 Q49.301 3.3706 49.0744 3.7534 Q48.8479 4.1362 48.4729 4.3627 Q48.0979 4.5893 47.6604 4.5893 Q47.1135 4.5893 46.7073 4.1596 Q46.301 3.7299 46.2541 3.1362 Q45.8948 3.8549 45.2151 4.2768 Q44.5354 4.6987 43.7541 4.6987 Q43.0198 4.6987 42.3244 4.4799 Q41.6291 4.2612 41.1604 3.8081 Q40.6916 3.3549 40.6916 2.6206 ZM42.2229 2.6206 Q42.2229 3.2768 42.7151 3.7377 Q43.2073 4.1987 43.8791 4.1987 Q44.4885 4.1987 44.9885 3.8862 Q45.4885 3.5737 45.7854 3.0502 Q46.0823 2.5268 46.0823 1.9331 L46.0823 -0.0357 Q45.2229 -0.0357 44.3166 0.2456 Q43.4104 0.5268 42.8166 1.1284 Q42.2229 1.7299 42.2229 2.6206 Z"
      /><path style="stroke:none;" d="M49.8375 4.4799 L49.8375 3.8081 Q50.4937 3.8081 50.9078 3.7065 Q51.3219 3.6049 51.3219 3.2143 L51.3219 -6.7701 Q51.3219 -7.2701 51.1734 -7.4966 Q51.025 -7.7232 50.7359 -7.7779 Q50.4469 -7.8326 49.8375 -7.8326 L49.8375 -8.5044 L52.6656 -8.7076 L52.6656 3.2143 Q52.6656 3.6049 53.0797 3.7065 Q53.4937 3.8081 54.1344 3.8081 L54.1344 4.4799 L49.8375 4.4799 Z"
    /></g
    ><g style="fill-opacity:0.6; fill:rgb(0,114,189); text-rendering:optimizeSpeed; image-rendering:optimizeSpeed; color-rendering:optimizeSpeed; shape-rendering:crispEdges; stroke:rgb(0,114,189); color-interpolation:sRGB; stroke-opacity:0.6;"
    ><path style="stroke:none;" d="M468.7169 59.4686 L468.7169 42.7708 L428.9743 42.7708 L428.9743 59.4686 Z"
    /></g
    ><g style="text-rendering:geometricPrecision; stroke-width:0.6667; color-interpolation:linearRGB; color-rendering:optimizeQuality; stroke-linecap:butt; image-rendering:optimizeQuality;"
    ><path d="M428.9743 59.4686 L428.9743 42.7708 L468.7169 42.7708 L468.7169 59.4686 Z" style="fill:none; fill-rule:evenodd;"
    /></g
    ><g transform="translate(471.6977,73.8803)" style="font-size:18.6667px; text-rendering:geometricPrecision; color-rendering:optimizeQuality; image-rendering:optimizeQuality; font-family:'mwa_cmr10'; color-interpolation:linearRGB;"
    ><path style="stroke:none;" d="M0.5781 4.4799 L0.5781 3.8081 Q2.5469 3.8081 2.5469 2.6831 L2.5469 -7.7232 Q1.9219 -7.8326 0.5781 -7.8326 L0.5781 -8.5044 L4.2188 -8.5044 Q4.3125 -8.5044 4.3438 -8.4263 L11.0781 1.4799 L11.0781 -6.7076 Q11.0781 -7.8326 9.125 -7.8326 L9.125 -8.5044 L13.6406 -8.5044 L13.6406 -7.8326 Q11.6875 -7.8326 11.6875 -6.7076 L11.6875 4.3081 Q11.6875 4.3706 11.6172 4.4252 Q11.5469 4.4799 11.5 4.4799 L11.2656 4.4799 Q11.1719 4.4799 11.1406 4.4018 L3.1562 -7.3326 L3.1562 2.6831 Q3.1562 3.8081 5.1094 3.8081 L5.1094 4.4799 L0.5781 4.4799 Z"
    /></g
    ><g transform="translate(471.6977,73.8803)" style="font-size:18.6667px; text-rendering:geometricPrecision; color-rendering:optimizeQuality; image-rendering:optimizeQuality; font-family:'mwa_cmr10'; color-interpolation:linearRGB;"
    ><path style="stroke:none;" d="M18.75 4.6987 Q17.6094 4.6987 16.6328 4.1127 Q15.6563 3.5268 15.0938 2.5581 Q14.5313 1.5893 14.5313 0.4331 Q14.5313 -0.4419 14.8438 -1.2466 Q15.1563 -2.0513 15.7344 -2.6841 Q16.3125 -3.3169 17.0782 -3.6763 Q17.8438 -4.0357 18.75 -4.0357 Q19.9219 -4.0357 20.8828 -3.4185 Q21.8438 -2.8013 22.3985 -1.7701 Q22.9532 -0.7388 22.9532 0.4331 Q22.9532 1.5737 22.3907 2.5502 Q21.8282 3.5268 20.8516 4.1127 Q19.875 4.6987 18.75 4.6987 ZM18.75 4.1362 Q20.2657 4.1362 20.7813 3.0346 Q21.2969 1.9331 21.2969 0.2143 Q21.2969 -0.7388 21.1953 -1.3638 Q21.0938 -1.9888 20.75 -2.5044 Q20.5313 -2.8169 20.2032 -3.0513 Q19.875 -3.2857 19.5078 -3.4107 Q19.1407 -3.5357 18.75 -3.5357 Q18.1563 -3.5357 17.625 -3.2701 Q17.0938 -3.0044 16.7344 -2.5044 Q16.3907 -1.9576 16.2891 -1.3169 Q16.1875 -0.6763 16.1875 0.2143 Q16.1875 1.2924 16.375 2.1362 Q16.5625 2.9799 17.125 3.5581 Q17.6875 4.1362 18.75 4.1362 Z"
      /><path style="stroke:none;" d="M23.8178 4.4799 L23.8178 3.8081 Q24.474 3.8081 24.8881 3.7065 Q25.3021 3.6049 25.3021 3.2143 L25.3021 -1.9732 Q25.3021 -2.4888 25.1537 -2.7154 Q25.0053 -2.9419 24.7162 -2.9966 Q24.4271 -3.0513 23.8178 -3.0513 L23.8178 -3.7076 L26.5365 -3.9107 L26.5365 -2.0669 Q26.849 -2.8794 27.4115 -3.3951 Q27.974 -3.9107 28.7865 -3.9107 Q29.349 -3.9107 29.7943 -3.5826 Q30.2396 -3.2544 30.2396 -2.7076 Q30.2396 -2.3638 29.9975 -2.106 Q29.7553 -1.8482 29.3959 -1.8482 Q29.0365 -1.8482 28.7865 -2.0982 Q28.5365 -2.3482 28.5365 -2.7076 Q28.5365 -3.2076 28.8959 -3.4263 L28.7865 -3.4263 Q28.0209 -3.4263 27.5365 -2.8716 Q27.0521 -2.3169 26.8412 -1.4888 Q26.6303 -0.6607 26.6303 0.0893 L26.6303 3.2143 Q26.6303 3.8081 28.4896 3.8081 L28.4896 4.4799 L23.8178 4.4799 Z"
      /><path style="stroke:none;" d="M31.207 4.4799 L31.207 3.8081 Q31.8633 3.8081 32.2773 3.7065 Q32.6914 3.6049 32.6914 3.2143 L32.6914 -1.9732 Q32.6914 -2.4888 32.5429 -2.7154 Q32.3945 -2.9419 32.1054 -2.9966 Q31.8164 -3.0513 31.207 -3.0513 L31.207 -3.7076 L33.9726 -3.9107 L33.9726 -2.0669 Q34.3476 -2.8794 35.0976 -3.3951 Q35.8476 -3.9107 36.7226 -3.9107 Q38.9101 -3.9107 39.2851 -2.1294 Q39.6758 -2.9263 40.4101 -3.4185 Q41.1445 -3.9107 42.0039 -3.9107 Q42.8789 -3.9107 43.4648 -3.6373 Q44.0508 -3.3638 44.3476 -2.7935 Q44.6445 -2.2232 44.6445 -1.3482 L44.6445 3.2143 Q44.6445 3.6049 45.0664 3.7065 Q45.4883 3.8081 46.1289 3.8081 L46.1289 4.4799 L41.7851 4.4799 L41.7851 3.8081 Q42.4258 3.8081 42.8476 3.7065 Q43.2695 3.6049 43.2695 3.2143 L43.2695 -1.3013 Q43.2695 -2.2544 42.9961 -2.8404 Q42.7226 -3.4263 41.8945 -3.4263 Q40.8008 -3.4263 40.082 -2.5435 Q39.3633 -1.6607 39.3633 -0.5357 L39.3633 3.2143 Q39.3633 3.6049 39.7851 3.7065 Q40.207 3.8081 40.8476 3.8081 L40.8476 4.4799 L36.5039 4.4799 L36.5039 3.8081 Q37.1445 3.8081 37.5664 3.7065 Q37.9883 3.6049 37.9883 3.2143 L37.9883 -1.3013 Q37.9883 -2.2232 37.7148 -2.8248 Q37.4414 -3.4263 36.6133 -3.4263 Q35.5039 -3.4263 34.7929 -2.5435 Q34.082 -1.6607 34.082 -0.5357 L34.082 3.2143 Q34.082 3.6049 34.5039 3.7065 Q34.9258 3.8081 35.5664 3.8081 L35.5664 4.4799 L31.207 4.4799 Z"
      /><path style="stroke:none;" d="M46.9657 2.6206 Q46.9657 1.4799 47.8564 0.769 Q48.747 0.0581 49.9892 -0.231 Q51.2314 -0.5201 52.3564 -0.5201 L52.3564 -1.3013 Q52.3564 -1.8482 52.1142 -2.3638 Q51.872 -2.8794 51.4189 -3.2076 Q50.9657 -3.5357 50.4189 -3.5357 Q49.1532 -3.5357 48.497 -2.9732 Q48.8564 -2.9732 49.0986 -2.6998 Q49.3407 -2.4263 49.3407 -2.0669 Q49.3407 -1.6763 49.0673 -1.4107 Q48.7939 -1.1451 48.4345 -1.1451 Q48.0439 -1.1451 47.7782 -1.4107 Q47.5126 -1.6763 47.5126 -2.0669 Q47.5126 -3.0669 48.4189 -3.5513 Q49.3251 -4.0357 50.4189 -4.0357 Q51.1845 -4.0357 51.9657 -3.7076 Q52.747 -3.3794 53.247 -2.7701 Q53.747 -2.1607 53.747 -1.3326 L53.747 2.9331 Q53.747 3.3081 53.9032 3.6206 Q54.0595 3.9331 54.3876 3.9331 Q54.7001 3.9331 54.8564 3.6206 Q55.0126 3.3081 55.0126 2.9331 L55.0126 1.7299 L55.5751 1.7299 L55.5751 2.9331 Q55.5751 3.3706 55.3486 3.7534 Q55.122 4.1362 54.747 4.3627 Q54.372 4.5893 53.9345 4.5893 Q53.3876 4.5893 52.9814 4.1596 Q52.5751 3.7299 52.5282 3.1362 Q52.1689 3.8549 51.4892 4.2768 Q50.8095 4.6987 50.0282 4.6987 Q49.2939 4.6987 48.5986 4.4799 Q47.9032 4.2612 47.4345 3.8081 Q46.9657 3.3549 46.9657 2.6206 ZM48.497 2.6206 Q48.497 3.2768 48.9892 3.7377 Q49.4814 4.1987 50.1532 4.1987 Q50.7626 4.1987 51.2626 3.8862 Q51.7626 3.5737 52.0595 3.0502 Q52.3564 2.5268 52.3564 1.9331 L52.3564 -0.0357 Q51.497 -0.0357 50.5907 0.2456 Q49.6845 0.5268 49.0907 1.1284 Q48.497 1.7299 48.497 2.6206 Z"
      /><path style="stroke:none;" d="M56.1116 4.4799 L56.1116 3.8081 Q56.7679 3.8081 57.1819 3.7065 Q57.596 3.6049 57.596 3.2143 L57.596 -6.7701 Q57.596 -7.2701 57.4475 -7.4966 Q57.2991 -7.7232 57.01 -7.7779 Q56.721 -7.8326 56.1116 -7.8326 L56.1116 -8.5044 L58.9397 -8.7076 L58.9397 3.2143 Q58.9397 3.6049 59.3538 3.7065 Q59.7679 3.8081 60.4085 3.8081 L60.4085 4.4799 L56.1116 4.4799 Z"
    /></g
    ><g style="stroke-linecap:butt; fill:rgb(217,83,25); text-rendering:geometricPrecision; image-rendering:optimizeQuality; color-rendering:optimizeQuality; stroke-linejoin:round; stroke:rgb(217,83,25); color-interpolation:linearRGB; stroke-width:0.6667;"
    ><line y2="73.8803" style="fill:none;" x1="428.9743" x2="468.7169" y1="73.8803"
      /><path d="M425 87 L425 38 L536 38 L536 87 Z" style="fill:none; fill-rule:evenodd; stroke:rgb(38,38,38); stroke-linejoin:miter;"
    /></g
  ></g
></svg
>
